{"name": "后台——短信验证码", "status": "passed", "steps": [{"name": "获取短信验证码", "status": "passed", "steps": [{"name": "获取短信验证码", "status": "passed", "steps": [{"name": "请求日志", "status": "passed", "parameters": [{"name": "url", "value": "'https://shendu-dev1.sdpjw.cn/notify/api/v1/memsms/list?platform=zhengshi&time=1604117044465'"}, {"name": "method", "value": "'post'"}, {"name": "body", "value": "{'nojson': 'true', 'mobile': 18821768014, 'page': 1}"}, {"name": "header", "value": "{'Content-Type': 'application/json', 'sd_origin': 'shendu-dev1.sdpjw.cn', 'token': 'eyJhbGciOiJIUzUxMiIsInppcCI6IkRFRiJ9.eNqMWLtyJDUU_ZeJx5TH9trrznYNVFHlYl14IddI6hl5uqVeST3rhiKiIKNqyQhIIIFoQwL-ZzH8BVePltRqjU1id-txH-ee--j5ZnGn2aJakNPz1TlC9dHxBTk_Ors8OT26fHZxcoQvSf38mNSX9Gy9WC5Uv4bDK3hiSo1PSC-q1fnx2Wp1cXz2bLmg951buDhZPTcLUjR0PN1R2ZpnhSuFsZBd1XcEabrEvdKipbJqaWvWUa-3QrKvYaVhSi_VoCrcKixEFxcQxusG4Z1ZqBTap2KQxluQ1St48TqiUntWSAJ7a9Y0RKJaV-3wEp4nltjbUb_gNdu4y-YdDqhWzfZHbbBCaKfhT0P9u-gaijY9dXce8ZnxWkx8ThfWiPP0DJIUWRe6fg2Ct34Hj3IlbZBmgqeW875SYBd2liu8paRv6Gh7Do2kd3D0CnFMmyUEWEiAS3C9bQaIaC1ka7aUBjVKM6zsfdTqXFAjNhGuAEZwhDCsS57O0LJxkVRRffOWeCXeLKvn2upgG17dEcIk2B7VGjqmMaoZl7TuOamw9e8GKWU3rJKMVV51sNECmQiz7z7gs1sjEajcM0zH5SXje2Hep6ZOyGEN80E0d9KU8BiV8mhy7Yn9wA3LWc8NjykXHMOpPQi4QcP1qJz0eshwTTjlOJbDhyTesj1Vh5jmlm-BSb1augj0QLFqlFEWVo4S6gnL-C17nqZqkpqAJJLA3YaupdhFQKOBEBt4SdgqWsR4taE6LGX8hhww2G5hRchhHteNFH2S2hb5hEwdkigvVVvESTOmxDxNXxiXGd9YEpsNEDKMMmtqAuTIhwhZAvMdDdS2bsTbVNU8bQKEM6xtRS0WNOefvZDodnY5PYm3jj8z4QlHywlp1VsM59B68fZiywggF4lU7alUhvkxYApqKXSAwO3EujUStRAWpnI1youA7XQeTRsdAnzlnj554FAatoRbwbREfaDLpKaE1jYtpkGAF5ho97nt_n1K6cdUI9aUG0rGNp8JJhRfmgqWu6NEQ171OsurpMQYcH2pmAdt1u8PjAj_Y3RIGJ3GIKJia91o1qgvXXA6HG73Q3U_SPqmh06XDCE5WD4kBFVwUg6OfSAWqGVMtZfuCJTtHbGQP076yhwMymxJ8H77AI4XX2Co0EwPr-pb1Bg_b0M7zpzJSTEbj8oDVnnVezt2X_BneC0RATJ_JZq-pakV84kk5WMDRVlLNLI2r07eSoDV5GjoTN7ZK49CVJcojvw0sXjTC-20N5NO5upUpvXQKFWsd6XOPytgT7M2LyUReFMmXEOc5xz4pF5LBuDkpoU2OS_mMENBjLI5CHVdM8QSk5sTKkwY4AouBZ0HKvOhGSnknmV6Wgqm3Tmcm5Cx0OjyDuMVe9RNck0KYRU28C4MOsnhUe5LeL4uNwLeCLyzjdgHCXLfsWCKPYRc0ViqnxrQ0rnYJ3L-pVHsLQaYj9yi-06y9CmCWhwqEqFpDbUBCD10Oj1OZ8LDQTxob7mwJu4mXSXgEgkclgLWMJhN256kupf8CtL8wAj6CSdC0i8Mk3eZrNHAqHCeWDPax3koxcMHMnYcN5fGJm4Kk6ds2c7sMyCZaC2rDtx1o_Ehrjmil8ph3jokbcV-FhJ7KnBj7Id0D4_7Qi2IuZxHPO3E3sEcquI0RmBRsnU__bKJX_MRDtMMDnyOP_aLQo5D0GEZP-dfHNPyRpJEcfppmeCZnAk112qclC5ou1xhK_W2b4G3yZeaoYK5YX7EGZQZ2j4j_icZyjUFe5iiV4JQ89sM6e5gnaPWvP3z5_cPf_3-8P7Xh3c_fPjpZ9gwKW5un7rHz925D-9_-_uXH__97g844dLbarDCvv0PAAD__w.hOjWOcFmhZtGdu0eHeXFNoDJOKxRKlZtJ6RqADZ22ZFQA25b39sq0Qn6tLzYRKAkjZmQOov4vXz0EKw53fzOsw'}"}], "start": 1604117044465, "stop": 1604117044465}, {"name": "响应日志", "status": "passed", "parameters": [{"name": "status_code", "value": "200"}, {"name": "body", "value": "'{\"msg\":\"success\",\"code\":0,\"page\":{\"totalCount\":12562,\"pageSize\":10,\"totalPage\":1257,\"currPage\":1,\"list\":[{\"id\":12746,\"mobile\":\"18105498870\",\"content\":\"SMS_148592322:{\\\"code\\\":\\\"934413\\\"}\",\"createDate\":\"2020-10-31 11:50\",\"createBy\":null},{\"id\":12745,\"mobile\":\"17600000011\",\"content\":\"SMS_148592322:{\\\"code\\\":\\\"490284\\\"}\",\"createDate\":\"2020-10-31 11:50\",\"createBy\":null},{\"id\":12744,\"mobile\":\"18600000011\",\"content\":\"SMS_148612329:{\\\"code\\\":\\\"990024\\\"}\",\"createDate\":\"2020-10-31 11:50\",\"createBy\":null},{\"id\":12743,\"mobile\":\"18660971397\",\"content\":\"SMS_148592322:{\\\"code\\\":\\\"990024\\\"}\",\"createDate\":\"2020-10-31 11:50\",\"createBy\":null},{\"id\":12742,\"mobile\":\"17606531995\",\"content\":\"SMS_148545070:{\\\"code\\\":\\\"514159\\\"}\",\"createDate\":\"2020-10-31 11:32\",\"createBy\":null},{\"id\":12741,\"mobile\":\"15093098153\",\"content\":\"SMS_148545070:{\\\"code\\\":\\\"333860\\\"}\",\"createDate\":\"2020-10-31 11:25\",\"createBy\":null},{\"id\":12740,\"mobile\":\"17606531995\",\"content\":\"SMS_148545070:{\\\"code\\\":\\\"451231\\\"}\",\"createDate\":\"2020-10-31 11:22\",\"createBy\":null},{\"id\":12739,\"mobile\":\"18600000011\",\"content\":\"SMS_148612329:{\\\"code\\\":\\\"990023\\\"}\",\"createDate\":\"2020-10-31 11:17\",\"createBy\":null},{\"id\":12738,\"mobile\":\"18660971397\",\"content\":\"SMS_148592322:{\\\"code\\\":\\\"990023\\\"}\",\"createDate\":\"2020-10-31 11:17\",\"createBy\":null},{\"id\":12737,\"mobile\":\"18660971397\",\"content\":\"SMS_148592322:{\\\"code\\\":\\\"990023\\\"}\",\"createDate\":\"2020-10-31 11:15\",\"createBy\":null}]}}'"}], "start": 1604117044656, "stop": 1604117044656}], "parameters": [{"name": "mobile", "value": "18821768014"}], "start": 1604117044465, "stop": 1604117044656}], "parameters": [{"name": "admin_action", "value": "<action.otc_admin.OtcAdmin object at 0x0000020B86F955C0>"}], "start": 1604117044465, "stop": 1604117044656}], "start": 1604117044465, "stop": 1604117044656, "uuid": "892da76b-085f-4217-b63f-0ffe1f0bb6f4", "historyId": "3f6f999f6a333b5c7b2ee6eab47264e3", "testCaseId": "ace19bad33eb0d149fdf22502bea0d9e", "fullName": "case.houtai_duojiekou.test_admin_yanzhnegma.Test_DengLu#test_admin_login", "labels": [{"name": "feature", "value": "后台——短信验证码"}, {"name": "parentSuite", "value": "case.houtai_duojiekou"}, {"name": "suite", "value": "test_admin_yanzhnegma"}, {"name": "subSuite", "value": "Test_DengLu"}, {"name": "host", "value": "ITSK-20200916WO"}, {"name": "thread", "value": "22892-MainThread"}, {"name": "framework", "value": "pytest"}, {"name": "language", "value": "cpython3"}, {"name": "package", "value": "case.houtai_duojiekou.test_admin_yanzhnegma"}]}