{"name": "后台——短信验证码", "status": "broken", "statusDetails": {"message": "KeyError: 'SMS_148592322'", "trace": "self = <case.houtai_duojiekou.test_admin_yanzhnegma.Test_DengLu object at 0x000002961D21DB70>\nadmin_action = <action.otc_admin.OtcAdmin object at 0x000002961D2220B8>\n\n    @allure.title(\"后台——短信验证码\")\n    @allure.step('获取短信验证码')#测试报告显示步骤\n    def test_admin_login(self, admin_action):\n        ##获取短信验证码\n        admin_login = admin_action.admin_duanxin_yzm(mobile = 18821768014)\n        print(admin_login)\n>       print(admin_login['data']['page']['list'][0]['SMS_148592322']['code'])\nE       KeyError: 'SMS_148592322'\n\ntest_admin_yanzhnegma.py:23: KeyError"}, "steps": [{"name": "获取短信验证码", "status": "broken", "statusDetails": {"message": "KeyError: 'SMS_148592322'\n", "trace": "  File \"D:\\RJ\\Python\\lib\\site-packages\\allure_commons\\_allure.py\", line 157, in impl\n    return func(*a, **kw)\n  File \"D:\\RJ\\daima\\jieKou\\yaml-pytest\\case\\houtai_duojiekou\\test_admin_yanzhnegma.py\", line 23, in test_admin_login\n    print(admin_login['data']['page']['list'][0]['SMS_148592322']['code'])\n"}, "steps": [{"name": "获取短信验证码", "status": "passed", "steps": [{"name": "请求日志", "status": "passed", "parameters": [{"name": "url", "value": "'https://shendu-dev1.sdpjw.cn/notify/api/v1/memsms/list?platform=zhengshi&time=1604116901703'"}, {"name": "method", "value": "'post'"}, {"name": "body", "value": "{'nojson': 'true', 'mobile': 18821768014, 'page': 1}"}, {"name": "header", "value": "{'Content-Type': 'application/json', 'sd_origin': 'shendu-dev1.sdpjw.cn', 'token': 'eyJhbGciOiJIUzUxMiIsInppcCI6IkRFRiJ9.eNqMWDlzJDUU_i8Tj6m1vfjobNdAFVUu1oUXco2kmZFHLfXqmHVDEVGQUQUZAQkkEG1IwP9ZDP-Cp6MltbrHZgNvt453fO97R8_XizvDFs3iQ3y-Pjk9Wx2d4vPV0XNyeXF0eXKBj87RJfy7QHh1frZYLrRdweFjeGJaD0_ILJrjs2fPj4_PLp-dLBf0vgsL5yfH525BSU6H0x1VrXvWuNEYS9U1tiPI0CW22siWqqalrVtH1mylYl_BCmfaLHWvG9xqLGWXFxDGK47wzi00Gu1LMcjgLciyGl6ijqzUn5WKwN6KcU4UWpum7V_C88gSfzvrl2LNNuGye4cDutWT_UEbrBDaGfjDaXyXHadoY2m484jPTKzlyOdyYYWEKM8gRZF3obMrELyNO3iQqyhHhklRWi5so8EuHCzXeEuJ5XSwvYZG0Ts4eoUEpnwJAZYK4JLCbHkPEV1L1botbUCNNgxrfx-1phbE5SbDlcBIjhCGzZynE7R8XBTV1Ny8JVFJNMvrufY62EY0d4QwBbZntY6OZYzWTCi6toI02Pt3g7T2G15JxaqoOtnogSyE-fcY8MmtgQhU7Rmmw_KSib1072NTR-TwhsUgujtlSkSM5vJodO2J_cQNz9nIjYipkALDqT0IuEH99aCcWNNXuBacChyr4UMKb9me6kNMC8u3wCSrlyECFijWDDLmhc1HCVnCKn4rK8pULVITkEQKuMvpSsldBjQbCLGBl4KtskVMNBtq0lLFb8gBh-0WVqTqp3HdKGmL1PbIF2TqkEJ1qdoiQfiQEtM0feFcZmLjSew2QEg_yFxTF6BAPkTIEpgfaKC3ay7flqqmaZMgnGDtK-psQQv--QuF7mBX0FN4G_gzEV5wdD4hvXqP4RTaKN5fbBkB5DKRmj1V2jE_B0xDLYUOkLhdWLdCci2lh2m-GtVFwHe6iKaPDgG-ikifOnCoDFvBrWRaoT7RZVRTUmsbF9MkIAostMfcDv99QulH1CDG5xtKxbaYCS4UX7gKVrujJSevrKnyqigxDtxYKqZBm_T7AyPC_xgdCkaXMcio-Fo3mDXoKxeCjoDbfd_c94q-sdDpiiGkBiuGhKAGTqo-sA_EArWcqf7SHYGyvSMe8sdJ37iDSZkvCdHvGMDh4gsMFZqZ_tX6FnHn521qx5UzNSkm49H8gDW_Gr0dui_4079WiACZv5TctrS0YjqRlHzkUJSNQgNr6-oUrQRYXY6mzhSdvYooZHWF4sxPF4s3VpqgnY86WahTldZDo9RsvZvr_JMC9jRr61KSgXdlIjTEac6BT_q1YgBObVpqk9NiDjMUxKiag1DX8T6XmNqcVGHSADfjUtJ5oDIfmpFS7nmml6Vg3J3TuREZZxpd3WGi4oi6S65RIWzSBt6lQac4PMh9Cc_X841AcIl3vhHHIEHuBxaMsYeQa5pL9VMDWjkXx0SuvzRme4sD5oOwGL6TPH1mQZ0dKgqhZQ31AUg9dDw9jmfCw0E8aO98YS3cLbpKwiUTOC0lrGEwG7c9RY1V4grS_MAI-rEgUtHPHZN3lazBwKxwmlgT2ud5qMQjBjJ3nDCX5ibuClOk7Lyd1WdAMdF6Vh24G0bjQ1wLRJ8rh3XrULSV-0lI_KnEjaEf0j087mdqQc7lOuJlJ44O1lDNTmMEFhVb2fGXTf6az3C4ZnDgc_yxXxRqHJIOz_gp__KYVjeSIorjT8sCz-JMqrle46h0QdsVGnupt7YF3hZfao4K7ob7EafXbmj7lMSfZKgwFOxhml5JQt1vM6S7g3WBWvf2z5_fPfz1-8O7Xx9-_P79Tz_Dhktxd_s0PH4Wzr1_99vfv_zw77d_wImQ3l6DF_bNfwAAAP__._NnTybO5Kwp0ouorBJ1vtM40yOHdGMNaESihDxKRmdCr82zTyapFKhzFVM6yJBMr_PHLy_tGTxy6AtXiO6nuvw'}"}], "start": 1604116901703, "stop": 1604116901703}, {"name": "响应日志", "status": "passed", "parameters": [{"name": "status_code", "value": "200"}, {"name": "body", "value": "'{\"msg\":\"success\",\"code\":0,\"page\":{\"totalCount\":12562,\"pageSize\":10,\"totalPage\":1257,\"currPage\":1,\"list\":[{\"id\":12746,\"mobile\":\"18105498870\",\"content\":\"SMS_148592322:{\\\"code\\\":\\\"934413\\\"}\",\"createDate\":\"2020-10-31 11:50\",\"createBy\":null},{\"id\":12745,\"mobile\":\"17600000011\",\"content\":\"SMS_148592322:{\\\"code\\\":\\\"490284\\\"}\",\"createDate\":\"2020-10-31 11:50\",\"createBy\":null},{\"id\":12744,\"mobile\":\"18600000011\",\"content\":\"SMS_148612329:{\\\"code\\\":\\\"990024\\\"}\",\"createDate\":\"2020-10-31 11:50\",\"createBy\":null},{\"id\":12743,\"mobile\":\"18660971397\",\"content\":\"SMS_148592322:{\\\"code\\\":\\\"990024\\\"}\",\"createDate\":\"2020-10-31 11:50\",\"createBy\":null},{\"id\":12742,\"mobile\":\"17606531995\",\"content\":\"SMS_148545070:{\\\"code\\\":\\\"514159\\\"}\",\"createDate\":\"2020-10-31 11:32\",\"createBy\":null},{\"id\":12741,\"mobile\":\"15093098153\",\"content\":\"SMS_148545070:{\\\"code\\\":\\\"333860\\\"}\",\"createDate\":\"2020-10-31 11:25\",\"createBy\":null},{\"id\":12740,\"mobile\":\"17606531995\",\"content\":\"SMS_148545070:{\\\"code\\\":\\\"451231\\\"}\",\"createDate\":\"2020-10-31 11:22\",\"createBy\":null},{\"id\":12739,\"mobile\":\"18600000011\",\"content\":\"SMS_148612329:{\\\"code\\\":\\\"990023\\\"}\",\"createDate\":\"2020-10-31 11:17\",\"createBy\":null},{\"id\":12738,\"mobile\":\"18660971397\",\"content\":\"SMS_148592322:{\\\"code\\\":\\\"990023\\\"}\",\"createDate\":\"2020-10-31 11:17\",\"createBy\":null},{\"id\":12737,\"mobile\":\"18660971397\",\"content\":\"SMS_148592322:{\\\"code\\\":\\\"990023\\\"}\",\"createDate\":\"2020-10-31 11:15\",\"createBy\":null}]}}'"}], "start": 1604116901910, "stop": 1604116901910}], "parameters": [{"name": "mobile", "value": "18821768014"}], "start": 1604116901703, "stop": 1604116901910}], "parameters": [{"name": "admin_action", "value": "<action.otc_admin.OtcAdmin object at 0x000002961D2220B8>"}], "start": 1604116901702, "stop": 1604116901910}], "start": 1604116901702, "stop": 1604116901910, "uuid": "fbccb1f4-4afb-4a38-9d30-ae7326a085dc", "historyId": "3f6f999f6a333b5c7b2ee6eab47264e3", "testCaseId": "ace19bad33eb0d149fdf22502bea0d9e", "fullName": "case.houtai_duojiekou.test_admin_yanzhnegma.Test_DengLu#test_admin_login", "labels": [{"name": "feature", "value": "后台——短信验证码"}, {"name": "parentSuite", "value": "case.houtai_duojiekou"}, {"name": "suite", "value": "test_admin_yanzhnegma"}, {"name": "subSuite", "value": "Test_DengLu"}, {"name": "host", "value": "ITSK-20200916WO"}, {"name": "thread", "value": "19004-MainThread"}, {"name": "framework", "value": "pytest"}, {"name": "language", "value": "cpython3"}, {"name": "package", "value": "case.houtai_duojiekou.test_admin_yanzhnegma"}]}