{"name": "后台——短信验证码", "status": "passed", "steps": [{"name": "获取短信验证码", "status": "passed", "steps": [{"name": "获取短信验证码", "status": "passed", "steps": [{"name": "请求日志", "status": "passed", "parameters": [{"name": "url", "value": "'https://shendu-dev1.sdpjw.cn/notify/api/v1/memsms/list?platform=zhengshi&time=1604115961346'"}, {"name": "method", "value": "'post'"}, {"name": "body", "value": "{'nojson': 'true', 'mobile': 18821768014, 'page': 1}"}, {"name": "header", "value": "{'Content-Type': 'application/json', 'sd_origin': 'shendu-dev1.sdpjw.cn', 'token': 'eyJhbGciOiJIUzUxMiIsInppcCI6IkRFRiJ9.eNqMWMtyHDUU_ZdZjymPEztO7xIDVVS5iAsH9hpJPaMZtdSR1BM3FCsKdlSFHQs2sIFVliz4n2D4C64eLanVPTYbu1uP-zj33EfPN4udYYtqsTqlBF_W5yfn6_Pzk6cXq8sTVNerkxXBz9dP6suLy7OzxXKhu7U9DE9M6-EJmUW1ujh9ulqdP784Wy7oXesXnp2dPrMLSnI6nG6pauyzxpXGWKq26lqCDF3iThvZUFU1tLHrqDNbqdjXsMKZNkvd6wo3GkvZpgWE8ZojvLcLlUaHXAwyeAuyOg0vQUdS6s5KRWBvzTgnCtWmavqX8DyyxN1O-qWo2cZftu9wQDd6sj9ogxVCWwN_OA3vsuUUbTrq7zzgMxO1HPmcL6yREPkZpChyLrTdGgRvww4e5CrKkWFS5JaLrtJgF_aWa7ylpON0sL2ERtEdHL1CAlO-hABLBXBJYba8h4jWUjV2SxtQow3D2t1HjSkFcblJcEUwoiOEYTPn6QQtFxdFNTU3b0lQEsxyeq6dDrYR1Y4QpsD2pNbSMY9RzYSidSdIhZ1_N0hrt-GUFKwKqqONDshMmHsPAZ_cGohA1YFhOiwvmThI-z42dUQOZ1gIor2Tp0TAaC6PRtce2Y_ccJwN3AiYCikwnDqAgBvUXw_KSWf6AteMU55jJXxI4S07UH2MaX75FpjU6aWPQAcUqwYZ88Lmo4Q6wgp-q07kqZqlJiCJFHCX07WS-wRoMhBiAy8ZW2WDmKg21MSlgt-QAxbbLaxI1U_julGyy1LbIZ-RqUUKlaVqiwThQ0pM0_SFdZmJjSOx3QAh_SCzpjZAnnyIkCUw39NAb2su3-aqpmkTIZxg7SrqbEHz_rkLmW5vl9eTeev5MxGecXQ-IZ16h-EU2iDeXWwYAeQSkaoDVdoyPwVMQy2FDhC5nVm3RrKW0sE0X43KIuA6XUDTRYcAX0WgTxk4lIct41Y0LVMf6TKqKbG1jYtpFBAEZtpDbvt_n1L6MTWI8fmGUrAtZIINxZe2gpXuaMnJq84UeZWVGAtuKBXToE36_ZER4X-MDhmj8xgkVFytG8wa9OULXofH7a6v7npF33TQ6bIhpAQrhISgCk6q3rMPxAK1rKnu0o5A2d4TB_nDpK_swajMlYTgdwjgcPEFhgrNTP-qvkXc-nkb23HhTEmKyXg0P2DNrwZvh-4L_vSvFSJA5q8k7xqaWzGdSHI-cijKRqGBtWV1ClYCrDZHY2cKzl4FFJK6THHip43Fm04ar52POpmvU4XWY6PUbL2b6_yTAvY4a8tSkoC3ZcI3xGnOgU_6tWIATmlabJPTYg4zFMSomINQ2_I-lZjSnFhh4gA341LUeaQyH5uRYu45puelYNyd47kRGWcaXdlhguKAuk2uUSGs4gbex0EnOzzIfQnP1_ONQHCJ964RhyBB7nsWjLGHkGuaSvVjA1o-F4dELr80ZnuLBeYjv-i_kxx9ZkGdHSoyoXkNdQGIPXQ8PY5nwuNBPGrvfGHN3M26SsQlETguRaxhMBu3PUVNp8QVpPmREfQTQaSiX1gm7wtZg4FJ4TSxJrRP81CORwhk6jh-Lk1N3BamQNl5O4vPgGyidaw6ctePxse45ok-Vw7L1qFoIw-TkLhTkRtDP6QHeDzM1IKUy2XE804cHCyhmp3GCCwqtu7GXzbpaz7BYZvBkc_xh35RKHGIOhzjp_xLY1rZSLIojj8tMzyzM7HmOo2j0gVtV2jspN52DfA2-1KzVLA37I84vbZD22ck_CRDhaFgD9P0ShJqf5sh7Q7WBWrs2z9_fn__1-_373-9f_fDh59-hg2b4vb2E__4uT_34f1vf__y47_f_QEnfHo7DU7Yt_8BAAD__w.Cg2_JaJOi43_fG0YoeUV1CAw3a_qBpK7ZJCRNd1bwz1n_13VgoiCX6uVPD0ORZrqw4dtVfAzcxRpFqpjVGvl_w'}"}], "start": 1604115961346, "stop": 1604115961346}, {"name": "响应日志", "status": "passed", "parameters": [{"name": "status_code", "value": "200"}, {"name": "body", "value": "'{\"msg\":\"success\",\"code\":0,\"page\":{\"totalCount\":12558,\"pageSize\":10,\"totalPage\":1256,\"currPage\":1,\"list\":[{\"id\":12742,\"mobile\":\"17606531995\",\"content\":\"SMS_148545070:{\\\"code\\\":\\\"514159\\\"}\",\"createDate\":\"2020-10-31 11:32\",\"createBy\":null},{\"id\":12741,\"mobile\":\"15093098153\",\"content\":\"SMS_148545070:{\\\"code\\\":\\\"333860\\\"}\",\"createDate\":\"2020-10-31 11:25\",\"createBy\":null},{\"id\":12740,\"mobile\":\"17606531995\",\"content\":\"SMS_148545070:{\\\"code\\\":\\\"451231\\\"}\",\"createDate\":\"2020-10-31 11:22\",\"createBy\":null},{\"id\":12739,\"mobile\":\"18600000011\",\"content\":\"SMS_148612329:{\\\"code\\\":\\\"990023\\\"}\",\"createDate\":\"2020-10-31 11:17\",\"createBy\":null},{\"id\":12738,\"mobile\":\"18660971397\",\"content\":\"SMS_148592322:{\\\"code\\\":\\\"990023\\\"}\",\"createDate\":\"2020-10-31 11:17\",\"createBy\":null},{\"id\":12737,\"mobile\":\"18660971397\",\"content\":\"SMS_148592322:{\\\"code\\\":\\\"990023\\\"}\",\"createDate\":\"2020-10-31 11:15\",\"createBy\":null},{\"id\":12736,\"mobile\":\"15093098153\",\"content\":\"SMS_148545070:{\\\"code\\\":\\\"813727\\\"}\",\"createDate\":\"2020-10-31 11:02\",\"createBy\":null},{\"id\":12735,\"mobile\":\"17606531995\",\"content\":\"SMS_148545070:{\\\"code\\\":\\\"834660\\\"}\",\"createDate\":\"2020-10-31 10:53\",\"createBy\":null},{\"id\":12734,\"mobile\":\"13565656568\",\"content\":\"SMS_148545070:{\\\"code\\\":\\\"868437\\\"}\",\"createDate\":\"2020-10-31 10:50\",\"createBy\":null},{\"id\":12733,\"mobile\":\"13516320359\",\"content\":\"SMS_148545070:{\\\"code\\\":\\\"731848\\\"}\",\"createDate\":\"2020-10-31 10:48\",\"createBy\":null}]}}'"}], "start": 1604115961538, "stop": 1604115961538}], "parameters": [{"name": "mobile", "value": "18821768014"}], "start": 1604115961346, "stop": 1604115961538}], "parameters": [{"name": "admin_action", "value": "<action.otc_admin.OtcAdmin object at 0x0000015A6969F160>"}], "start": 1604115961346, "stop": 1604115961538}], "start": 1604115961346, "stop": 1604115961538, "uuid": "c5a6b254-d5c9-44da-8ee5-d730e96c30a7", "historyId": "3f6f999f6a333b5c7b2ee6eab47264e3", "testCaseId": "ace19bad33eb0d149fdf22502bea0d9e", "fullName": "case.houtai_duojiekou.test_admin_yanzhnegma.Test_DengLu#test_admin_login", "labels": [{"name": "feature", "value": "后台——短信验证码"}, {"name": "parentSuite", "value": "case.houtai_duojiekou"}, {"name": "suite", "value": "test_admin_yanzhnegma"}, {"name": "subSuite", "value": "Test_DengLu"}, {"name": "host", "value": "ITSK-20200916WO"}, {"name": "thread", "value": "17964-MainThread"}, {"name": "framework", "value": "pytest"}, {"name": "language", "value": "cpython3"}, {"name": "package", "value": "case.houtai_duojiekou.test_admin_yanzhnegma"}]}