{"name": "后台——短信验证码", "status": "passed", "steps": [{"name": "获取短信验证码", "status": "passed", "steps": [{"name": "获取短信验证码", "status": "passed", "steps": [{"name": "请求日志", "status": "passed", "parameters": [{"name": "url", "value": "'https://shendu-dev1.sdpjw.cn/notify/api/v1/memsms/list?platform=zhengshi&time=1604121196411'"}, {"name": "method", "value": "'post'"}, {"name": "body", "value": "{'nojson': 'true', 'mobile': 18821768014, 'page': 1}"}, {"name": "header", "value": "{'Content-Type': 'application/json', 'sd_origin': 'shendu-dev1.sdpjw.cn', 'token': 'eyJhbGciOiJIUzUxMiIsInppcCI6IkRFRiJ9.eNqMWLtyJDUU_ZeJx5THa3vtznYNVFHlYl14IddI6hl51FKvpJ51QxFRkFG1ZAQkkEC0IQH_sxj-gqtHS2p1j01id-txH-ee--j5ZnFn2KJanJ2fnl9c1hdHGJ-cHZ2Si4sjhFdnR8fH9eX56dkJOn6GFsuF7tZweAVPTOvhCZlFtTo_Pl2drFaXz5cLet_6hecnZ5d2QUlOh9MtVY191rjSGEvVVl1LkKFL3GkjG6qqhjZ2HXVmKxX7GlY402ape13hRmMp27SAMF5zhHd2odJon4tBBm9BVqfhJehISt1ZqQjsrRnnRKHaVE3_Ep5HlrjbSb8UNdv4y_YdDuhGT_YHbbBCaGvgD6fhXbacok1H_Z1HfGailiOf84U1EiI_gxRFzoW2W4PgbdjBg1xFOTJMitxy0VUa7MLeco23lHScDraX0Ch6B0evkMCULyHAUgFcUpgt7yGitVSN3dIG1GjDsHb3UWNKQVxuElwRjOgIYdjMeTpBy8VFUU3NzVsSlASznJ5rp4NtRHVHCFNge1Jr6ZjHqGZC0boTpMLOvxuktdtwSgpWBdXRRgdkJsy9h4BPbg1EoGrPMB2Wl0zspX0fmzoihzMsBNHeyVMiYDSXR6NrT-xHbjjOBm4ETIUUGE7tQcAN6q8H5aQzfYFrxinPsRI-pPCW7ak-xDS_fAtM6vTSR6ADilWDjHlh81FCHWEFv1Un8lTNUhOQRAq4y-layV0CNBkIsYGXjK2yQUxUG2riUsFvyAGL7RZWpOqncd0o2WWp7ZDPyNQihcpStUWC8CElpmn6wrrMxMaR2G6AkH6QWVMbIE8-RMgSmO9poLc1l29zVdO0iRBOsHYVdbagef_chUy3t8vrybz1_JkIzzg6n5BOvcNwCm0Q7y42jAByiUjVniptmZ8CpqGWQgeI3M6sWyNZS-lgmq9GZRFwnS6g6aJDgK8i0KcMHMrDlnErmpapj3QZ1ZTY2sbFNAoIAjPtIbf9v08p_ZgaxPh8QynYFjLBhuJLW8FKd7Tk5FVnirzKSowFN5SKadAm_f7AiPA_RoeM0XkMEiqu1g1mDfryBa_D43bfV_e9om866HTZEFKCFUJCUAUnVe_ZB2KBWtZUd-mOQNneEQf546Sv7MGozJWE4HcI4HDxBYYKzUz_qr5F3Pp5G9tx4UxJisl4ND9gza8Gb4fuC_70rxUiQOavJO8amlsxnUhyPnIoykahgbVldQpWAqw2R2NnCs5eBRSSukxx4qeNxZtOGq-djzqZr1OF1kOj1Gy9m-v8kwL2NGvLUpKAt2XCN8RpzoFP-rViAE5pWmyT02IOMxTEqJiDUNvyPpWY0pxYYeIAN-NS1HmgMh-akWLuOabnpWDcneO5ERlnGl3ZYYLigLpNrlEhrOIG3sVBJzs8yH0Jz9fzjUBwiXeuEYcgQe57Foyxh5Brmkr1UwNaPheHRC6_NGZ7iwXmI7_ov5McfWZBnR0qMqF5DXUBiD10PD2OZ8LDQTxo73xhzdzNukrEJRE4LkWsYTAbtz1FTafEFaT5gRH0E0Gkol9YJu8KWYOBSeE0sSa0T_NQjkcIZOo4fi5NTdwWpkDZeTuLz4BsonWsOnDXj8aHuOaJPlcOy9ahaCP3k5C4U5EbQz-ke3jcz9SClMtlxPNOHBwsoZqdxggsKrbuxl826Ws-wWGbwYHP8cd-UShxiDoc46f8S2Na2UiyKI4_LTM8szOx5jqNo9IFbVdo7KTedg3wNvtSs1SwN-yPOL22Q9tnJPwkQ4WhYA_T9EoSan-bIe0drAvU2Ld__vz-4a_fH97_-vDuhw8__QwbNsXt7Wf-8XN_7sP73_7-5cd_v_sDTvj0dhqcsG__AwAA__8.F_eBnw01f-05Rg69xVnJkHi0Ra8HdRcOEwiEvHEQtL0Ej-xBOeyAz6N5ACwhZy1A6Ef8fej7u21jGqQCpCzlPQ'}"}], "start": 1604121196411, "stop": 1604121196411}, {"name": "响应日志", "status": "passed", "parameters": [{"name": "status_code", "value": "200"}, {"name": "body", "value": "'{\"msg\":\"success\",\"code\":0,\"page\":{\"totalCount\":12562,\"pageSize\":10,\"totalPage\":1257,\"currPage\":1,\"list\":[{\"id\":12746,\"mobile\":\"18105498870\",\"content\":\"SMS_148592322:{\\\"code\\\":\\\"934413\\\"}\",\"createDate\":\"2020-10-31 11:50\",\"createBy\":null},{\"id\":12745,\"mobile\":\"17600000011\",\"content\":\"SMS_148592322:{\\\"code\\\":\\\"490284\\\"}\",\"createDate\":\"2020-10-31 11:50\",\"createBy\":null},{\"id\":12744,\"mobile\":\"18600000011\",\"content\":\"SMS_148612329:{\\\"code\\\":\\\"990024\\\"}\",\"createDate\":\"2020-10-31 11:50\",\"createBy\":null},{\"id\":12743,\"mobile\":\"18660971397\",\"content\":\"SMS_148592322:{\\\"code\\\":\\\"990024\\\"}\",\"createDate\":\"2020-10-31 11:50\",\"createBy\":null},{\"id\":12742,\"mobile\":\"17606531995\",\"content\":\"SMS_148545070:{\\\"code\\\":\\\"514159\\\"}\",\"createDate\":\"2020-10-31 11:32\",\"createBy\":null},{\"id\":12741,\"mobile\":\"15093098153\",\"content\":\"SMS_148545070:{\\\"code\\\":\\\"333860\\\"}\",\"createDate\":\"2020-10-31 11:25\",\"createBy\":null},{\"id\":12740,\"mobile\":\"17606531995\",\"content\":\"SMS_148545070:{\\\"code\\\":\\\"451231\\\"}\",\"createDate\":\"2020-10-31 11:22\",\"createBy\":null},{\"id\":12739,\"mobile\":\"18600000011\",\"content\":\"SMS_148612329:{\\\"code\\\":\\\"990023\\\"}\",\"createDate\":\"2020-10-31 11:17\",\"createBy\":null},{\"id\":12738,\"mobile\":\"18660971397\",\"content\":\"SMS_148592322:{\\\"code\\\":\\\"990023\\\"}\",\"createDate\":\"2020-10-31 11:17\",\"createBy\":null},{\"id\":12737,\"mobile\":\"18660971397\",\"content\":\"SMS_148592322:{\\\"code\\\":\\\"990023\\\"}\",\"createDate\":\"2020-10-31 11:15\",\"createBy\":null}]}}'"}], "start": 1604121196791, "stop": 1604121196791}], "parameters": [{"name": "mobile", "value": "18821768014"}], "start": 1604121196411, "stop": 1604121196791}], "parameters": [{"name": "admin_action", "value": "<action.otc_admin.OtcAdmin object at 0x000002340E6743C8>"}], "start": 1604121196411, "stop": 1604121196791}], "start": 1604121196410, "stop": 1604121196791, "uuid": "3fe11554-f486-485c-b6d0-17ccc0c70695", "historyId": "3f6f999f6a333b5c7b2ee6eab47264e3", "testCaseId": "ace19bad33eb0d149fdf22502bea0d9e", "fullName": "case.houtai_duojiekou.test_admin_yanzhnegma.Test_DengLu#test_admin_login", "labels": [{"name": "feature", "value": "后台——短信验证码"}, {"name": "parentSuite", "value": "case.houtai_duojiekou"}, {"name": "suite", "value": "test_admin_yanzhnegma"}, {"name": "subSuite", "value": "Test_DengLu"}, {"name": "host", "value": "ITSK-20200916WO"}, {"name": "thread", "value": "30948-MainThread"}, {"name": "framework", "value": "pytest"}, {"name": "language", "value": "cpython3"}, {"name": "package", "value": "case.houtai_duojiekou.test_admin_yanzhnegma"}]}