{"name": "后台——短信验证码", "status": "broken", "statusDetails": {"message": "KeyError: 0", "trace": "self = <case.houtai_duojiekou.test_admin_yanzhnegma.Test_DengLu object at 0x000002046C23A710>\nadmin_action = <action.otc_admin.OtcAdmin object at 0x000002046C23AA58>\n\n    @allure.title(\"后台——短信验证码\")\n    @allure.step('获取短信验证码')#测试报告显示步骤\n    def test_admin_login(self, admin_action):\n        ##获取短信验证码\n        admin_login = admin_action.admin_duanxin_yzm(mobile = 18821768014)\n>       print(admin_login[0]['SMS_148545070']['0']['code'])\nE       KeyError: 0\n\ntest_admin_yanzhnegma.py:22: KeyError"}, "steps": [{"name": "获取短信验证码", "status": "broken", "statusDetails": {"message": "KeyError: 0\n", "trace": "  File \"D:\\RJ\\Python\\lib\\site-packages\\allure_commons\\_allure.py\", line 157, in impl\n    return func(*a, **kw)\n  File \"D:\\RJ\\daima\\jieKou\\yaml-pytest\\case\\houtai_duojiekou\\test_admin_yanzhnegma.py\", line 22, in test_admin_login\n    print(admin_login[0]['SMS_148545070']['0']['code'])\n"}, "steps": [{"name": "获取短信验证码", "status": "passed", "steps": [{"name": "请求日志", "status": "passed", "parameters": [{"name": "url", "value": "'https://shendu-dev1.sdpjw.cn/notify/api/v1/memsms/list?platform=zhengshi&time=1604116042646'"}, {"name": "method", "value": "'post'"}, {"name": "body", "value": "{'nojson': 'true', 'mobile': 18821768014, 'page': 1}"}, {"name": "header", "value": "{'Content-Type': 'application/json', 'sd_origin': 'shendu-dev1.sdpjw.cn', 'token': 'eyJhbGciOiJIUzUxMiIsInppcCI6IkRFRiJ9.eNqMWMty5DQU_Zded6hkkkwo72YCVFGVYlJkYC9Lcre6bckjyT0xFCsKdlTBjgUb2MBqliz4nyHwF1w9LMmyOmGT2Hrcx7nnPtxfr3aararVZU0um8vT-uTZFW1OLq4aeoLOL5-fnF4iVNdXZxcEXazWKzXUcPgMnphS0xPSq-rs-enFmflzvl7R-94tXD07_dAsSNHS6XRPZWeeFa4UxkL21dATpOkaD0qLjsqqo51ZR4PeCsm-gpWWKb1Wo6pwp7AQfVxAGNctwnuzUCl0SMUgjbcga1Dw4nVEpfaskAT2ata2RKJGV934Ep5nltjbUb_gDdu4y-YdDqhOLfYnbbBCaK_hT0v9u-hbijYDdXce8ZnxRsx8ThdqxHl6BkmKrAv9UIPgrd_Bk1xJW6SZ4KnlfKgU2IWd5QpvKRlaOtmeQyPpDo5eI45pu4YACwlwCa637QgRbYTszJbSoEZphpW9jzqdC2rFJsIVwAiOEIZ1ydMFWjYukiqqb98Sr8SbZfXcWB1sw6sdIUyC7VGtoWMao4ZxSZuBkwpb_26RUnbDKslY5VUHGy2QiTD77gO-uDURgcoDw3RaXjN-EOZ9buqMHNYwH0RzJ00Jj1Epj2bXntgP3LCc9dzwmHLBMZw6gIBbNN5MysmgxwzXhFOOYzl8SOItO1B1jGlu-Q6YNKi1i8AAFKsmGWVh5SihgbCM33LgaaomqQlIIgncbWktxT4CGg2E2MBLwlbRIcarDdVhKeM35IDBdgsrQo7LuG6kGJLUtsgnZOqRRHmp2iJO2ikllmn6wrjM-MaS2GyAkHGS2VATIEc-RMgamO9ooLZNK96mqpZpEyBcYG0rarGgOf_shUS3s8vpSbx1_FkITzhaTkir3mK4hNaLtxc7RgC5SKTqQKUyzI8BU1BLoQMEbifW1Ug0QliYytUoLwK203k0bXQI8JV7-uSBQ2nYEm4F0xL1gS6zmhJa27yYBgFeYKLd57b79wmlH1GNWFtuKBnbfCaYUHxhKljujhIteTXoLK-SEmPA9aViGbRFvz8yIvyP0SFhdBqDiIqtdZNZk750welwuN2P1f0o6ZsBOl0yhORg-ZAQVMFJOTr2gVigljHVXtoRKNt7YiF_nPSVORiU2ZLg_fYBnC6-wFChmR5fNXeoNX7ehXacOZOTYjEelQes8qr3duq-4M_4WiICZP5StENHUyuWE0nKxxaKspZoYm1enbyVAKvJ0dCZvLPXHoWoLlEc-Wli8WYQ2mlvZ53M1alM67FRqljvSp1_UcCeZm1eSiLwpky4hrjMOfBJvZYMwMlNC21yWcxhhoIYZXMQ6vt2jCUmNydUmDDAFVwKOo9U5mMzUsg9y_S0FMy7czg3I2Oh0eUdxiv2qJvkmhXCKmzgfRh0ksOT3JfwfFNuBLwVeG8bsQ8S5L5jwRx7CLmisVQ_NaClc7FP5PxLo9hbDDAfuEX3nWTpUwS1OFQkQtMaagMQeuh8epzPhMeDeNTecmFN3E26SsAlEjgsBaxhMJu3PUn1IPk1pPmREfRjToSknxsm7zNZk4FR4TKxFrSP81CKhw9k7DhuLo1N3BQmT9myndlnQDLRWlYduetG42Ncc0QvlcO8dUjaicMiJPZU4MbUD-kBHg-FWhBzOY942om9gzlUxWmMwKJk9TD_solf8xEO0wyOfI4_9otCjkPQYRm_5F8c0_JGkkRx_mmZ4JmcCTXXapyVLmi7XGEr9W7ogLfJl5qhgrlhfsQZlRnaPiX-JxnKNQV7mKLXglDz2wzpd7DOUWfe_vnzu4e_fn949-vDj9-__-ln2DApbm6fu8fP3Ln37377-5cf_v32Dzjh0ttqsMK--Q8AAP__.ty9TtC4PushYbS7x_7wObaUsUlafW9JDfYXyvwkzb-yqTiJqA0YzGmCMn1rp6czF5cjvl3G_jVCanhbeAlMWCA'}"}], "start": 1604116042646, "stop": 1604116042646}, {"name": "响应日志", "status": "passed", "parameters": [{"name": "status_code", "value": "200"}, {"name": "body", "value": "'{\"msg\":\"success\",\"code\":0,\"page\":{\"totalCount\":12558,\"pageSize\":10,\"totalPage\":1256,\"currPage\":1,\"list\":[{\"id\":12742,\"mobile\":\"17606531995\",\"content\":\"SMS_148545070:{\\\"code\\\":\\\"514159\\\"}\",\"createDate\":\"2020-10-31 11:32\",\"createBy\":null},{\"id\":12741,\"mobile\":\"15093098153\",\"content\":\"SMS_148545070:{\\\"code\\\":\\\"333860\\\"}\",\"createDate\":\"2020-10-31 11:25\",\"createBy\":null},{\"id\":12740,\"mobile\":\"17606531995\",\"content\":\"SMS_148545070:{\\\"code\\\":\\\"451231\\\"}\",\"createDate\":\"2020-10-31 11:22\",\"createBy\":null},{\"id\":12739,\"mobile\":\"18600000011\",\"content\":\"SMS_148612329:{\\\"code\\\":\\\"990023\\\"}\",\"createDate\":\"2020-10-31 11:17\",\"createBy\":null},{\"id\":12738,\"mobile\":\"18660971397\",\"content\":\"SMS_148592322:{\\\"code\\\":\\\"990023\\\"}\",\"createDate\":\"2020-10-31 11:17\",\"createBy\":null},{\"id\":12737,\"mobile\":\"18660971397\",\"content\":\"SMS_148592322:{\\\"code\\\":\\\"990023\\\"}\",\"createDate\":\"2020-10-31 11:15\",\"createBy\":null},{\"id\":12736,\"mobile\":\"15093098153\",\"content\":\"SMS_148545070:{\\\"code\\\":\\\"813727\\\"}\",\"createDate\":\"2020-10-31 11:02\",\"createBy\":null},{\"id\":12735,\"mobile\":\"17606531995\",\"content\":\"SMS_148545070:{\\\"code\\\":\\\"834660\\\"}\",\"createDate\":\"2020-10-31 10:53\",\"createBy\":null},{\"id\":12734,\"mobile\":\"13565656568\",\"content\":\"SMS_148545070:{\\\"code\\\":\\\"868437\\\"}\",\"createDate\":\"2020-10-31 10:50\",\"createBy\":null},{\"id\":12733,\"mobile\":\"13516320359\",\"content\":\"SMS_148545070:{\\\"code\\\":\\\"731848\\\"}\",\"createDate\":\"2020-10-31 10:48\",\"createBy\":null}]}}'"}], "start": 1604116042839, "stop": 1604116042839}], "parameters": [{"name": "mobile", "value": "18821768014"}], "start": 1604116042646, "stop": 1604116042839}], "parameters": [{"name": "admin_action", "value": "<action.otc_admin.OtcAdmin object at 0x000002046C23AA58>"}], "start": 1604116042646, "stop": 1604116042839}], "start": 1604116042646, "stop": 1604116042839, "uuid": "7e6eb561-5885-45c4-b7a1-7238015905c3", "historyId": "3f6f999f6a333b5c7b2ee6eab47264e3", "testCaseId": "ace19bad33eb0d149fdf22502bea0d9e", "fullName": "case.houtai_duojiekou.test_admin_yanzhnegma.Test_DengLu#test_admin_login", "labels": [{"name": "feature", "value": "后台——短信验证码"}, {"name": "parentSuite", "value": "case.houtai_duojiekou"}, {"name": "suite", "value": "test_admin_yanzhnegma"}, {"name": "subSuite", "value": "Test_DengLu"}, {"name": "host", "value": "ITSK-20200916WO"}, {"name": "thread", "value": "32940-MainThread"}, {"name": "framework", "value": "pytest"}, {"name": "language", "value": "cpython3"}, {"name": "package", "value": "case.houtai_duojiekou.test_admin_yanzhnegma"}]}