{"name": "后台——短信验证码", "status": "broken", "statusDetails": {"message": "TypeError: string indices must be integers", "trace": "self = <case.houtai_duojiekou.test_admin_yanzhnegma.Test_DengLu object at 0x000001B606E3D860>\nadmin_action = <action.otc_admin.OtcAdmin object at 0x000001B606E443C8>\n\n    @allure.title(\"后台——短信验证码\")\n    @allure.step('获取短信验证码')#测试报告显示步骤\n    def test_admin_login(self, admin_action):\n        ##获取短信验证码\n        admin_login = admin_action.admin_duanxin_yzm(mobile = 18821768014)\n        print(admin_login)\n>       print(admin_login['data']['page']['list'][0]['content']['SMS_148592322'])\nE       TypeError: string indices must be integers\n\ntest_admin_yanzhnegma.py:23: TypeError"}, "steps": [{"name": "获取短信验证码", "status": "broken", "statusDetails": {"message": "TypeError: string indices must be integers\n", "trace": "  File \"D:\\RJ\\Python\\lib\\site-packages\\allure_commons\\_allure.py\", line 157, in impl\n    return func(*a, **kw)\n  File \"D:\\RJ\\daima\\jieKou\\yaml-pytest\\case\\houtai_duojiekou\\test_admin_yanzhnegma.py\", line 23, in test_admin_login\n    print(admin_login['data']['page']['list'][0]['content']['SMS_148592322'])\n"}, "steps": [{"name": "获取短信验证码", "status": "passed", "steps": [{"name": "请求日志", "status": "passed", "parameters": [{"name": "url", "value": "'https://shendu-dev1.sdpjw.cn/notify/api/v1/memsms/list?platform=zhengshi&time=1604117033637'"}, {"name": "method", "value": "'post'"}, {"name": "body", "value": "{'nojson': 'true', 'mobile': 18821768014, 'page': 1}"}, {"name": "header", "value": "{'Content-Type': 'application/json', 'sd_origin': 'shendu-dev1.sdpjw.cn', 'token': 'eyJhbGciOiJIUzUxMiIsInppcCI6IkRFRiJ9.eNqMWDlzJDUU_i8Tjykbn9vZroEqqlysCy_kGkkzI0-31Ktj1g1FREFGFWQEJJBAtCEB_2cx_AuejpbUao2XxO7W8Y7vfe_o-Xpxr9miWZycXF0c43N8dHlM0NHZM0KPnl1ekKOzS3p8cX56sTpfXS2WC2VW9jA8MaXGJ6QXzcnF8dnJyeXx6dlyQR96v3D54cmVXZCipePpnsrOPivcKIyF7BvTE6TpEhulRUdl09HOriOjt0Kyr2ClZUov1aAa3CksRJ8WEMarFuGdXWgU2udikMZbkGUUvAQdSak7KySBvRVrWyLRWjfd8AKeJ5a420m_4Gu28ZftOxxQnZrtj9pghdBew5-WhnfRtxRtDPV3nvCZ8bWY-JwvrBDn-RkkKXIu9GYFgrdhB49yJW2RZoLnlnPTKLALe8sV3lJiWjraXkIj6T0cvUYc03YJARYS4BJcb9sBIroWsrNbSoMapRlW7j7qdCmoFZsEVwQjOkIY1jVPZ2i5uEiqqL59Q4KSYJbTc-N0sA1v7glhEmxPai0d8xitGZd0bThpsPPvFinlNpySglVBdbTRAZkJc-8h4LNbIxGo3DNMx-Ul43th36emTsjhDAtBtHfylAgY1fJocu09-5EbjrOBGwFTLjiGU3sQcIuGm1E5MXoocM045TlWwock3rI9VYeY5pfvgElGLX0EDFCsGWXUhdWjhAxhBb-l4XmqZqkJSCIJ3G3pSopdAjQZCLGBl4ytokOMNxuq41LBb8gBi-0WVoQc5nHdSGGy1HbIZ2TqkURlqdoiTtoxJeZp-ty6zPjGkdhugJBhlLmmNkCefIiQJTDf00Bt1614k6uap02EcIa1q6jVgub9cxcy3d4uryfz1vNnJjzjaD0hnXqH4RzaIN5d7BgB5BKRmj2VyjI_BUxBLYUOELmdWbdCYi2Eg6lejcoi4DpdQNNFhwBfeaBPGTiUhy3jVjQtUx_pMqkpsbVNi2kUEARm2kNu-3-fUPoR1Yi19YZSsC1kgg3FF7aCle4o0ZKXRhd5lZUYC24oFfOgzfr9gRHhf4wOGaPzGCRUXK0bzRr15Qteh8ftYWgeBklfG-h02RBSghVCQlADJ-Xg2QdigVrWVHfpnkDZ3hEH-dOkb-zBqMyVhOB3COB48TmGCs308HJ9h1rr511sx4UzJSlm41F9wKqvBm_H7gv-DK8kIkDmL0VrOppbMZ9Icj62UJS1RCNry-oUrARYbY7GzhScvQ4oJHWZ4sRPG4vXRmivvZ10Ml-nCq2HRqlqvat1_lkBez9ry1KSgLdlwjfEec6BT-qVZABOaVpsk_NiDjMUxKiYg1Dft0MqMaU5scLEAa7iUtR5oDIfmpFi7jmm56Vg2p3juQkZK42u7DBBcUDdJtekEDZxA-_ioJMdHuW-gOebeiPgrcA714hDkCD3PQum2EPIFU2l-n0DWj4Xh0QuvzSqvcUC84Ff9N9Jjj5VUKtDRSY0r6EuALGHTqfH6Ux4OIgH7a0X1szdrKtEXBKB41LEGgazaduTVBvJryHND4ygH3MiJP3cMnlXyBoNTArniTWjfZqHcjxCIFPH8XNpauK2MAXK1u0sPgOyidax6sBdPxof4poneq0clq1D0k7sZyFxpyI3xn5I9_C4r9SClMtlxPNOHBwsoapOYwQWJVuZ6ZdN-ppPcNhmcOBz_KlfFEocog7H-Dn_0phWNpIsitNPywzP7EysuU7jpHRB2-UKO6l3pgPeZl9qlgr2hv0RZ1B2aPuUhJ9kKNcU7GGKXgtC7W8zpL-HdY46-_bPn989_vX749tfH3_8_t1PP8OGTXF7-9Q_fubPvXv729-__PDvt3_ACZ_eToMT9s1_AAAA__8.ezV6lPQDOj8IMeFy1OrWr6iVbt0j45qYBqrhs4phnn3gH-Z_Nf7K3BXSUP4GqiLXaYA5F4ZN43JqTf8qRO9GVw'}"}], "start": 1604117033637, "stop": 1604117033637}, {"name": "响应日志", "status": "passed", "parameters": [{"name": "status_code", "value": "200"}, {"name": "body", "value": "'{\"msg\":\"success\",\"code\":0,\"page\":{\"totalCount\":12562,\"pageSize\":10,\"totalPage\":1257,\"currPage\":1,\"list\":[{\"id\":12746,\"mobile\":\"18105498870\",\"content\":\"SMS_148592322:{\\\"code\\\":\\\"934413\\\"}\",\"createDate\":\"2020-10-31 11:50\",\"createBy\":null},{\"id\":12745,\"mobile\":\"17600000011\",\"content\":\"SMS_148592322:{\\\"code\\\":\\\"490284\\\"}\",\"createDate\":\"2020-10-31 11:50\",\"createBy\":null},{\"id\":12744,\"mobile\":\"18600000011\",\"content\":\"SMS_148612329:{\\\"code\\\":\\\"990024\\\"}\",\"createDate\":\"2020-10-31 11:50\",\"createBy\":null},{\"id\":12743,\"mobile\":\"18660971397\",\"content\":\"SMS_148592322:{\\\"code\\\":\\\"990024\\\"}\",\"createDate\":\"2020-10-31 11:50\",\"createBy\":null},{\"id\":12742,\"mobile\":\"17606531995\",\"content\":\"SMS_148545070:{\\\"code\\\":\\\"514159\\\"}\",\"createDate\":\"2020-10-31 11:32\",\"createBy\":null},{\"id\":12741,\"mobile\":\"15093098153\",\"content\":\"SMS_148545070:{\\\"code\\\":\\\"333860\\\"}\",\"createDate\":\"2020-10-31 11:25\",\"createBy\":null},{\"id\":12740,\"mobile\":\"17606531995\",\"content\":\"SMS_148545070:{\\\"code\\\":\\\"451231\\\"}\",\"createDate\":\"2020-10-31 11:22\",\"createBy\":null},{\"id\":12739,\"mobile\":\"18600000011\",\"content\":\"SMS_148612329:{\\\"code\\\":\\\"990023\\\"}\",\"createDate\":\"2020-10-31 11:17\",\"createBy\":null},{\"id\":12738,\"mobile\":\"18660971397\",\"content\":\"SMS_148592322:{\\\"code\\\":\\\"990023\\\"}\",\"createDate\":\"2020-10-31 11:17\",\"createBy\":null},{\"id\":12737,\"mobile\":\"18660971397\",\"content\":\"SMS_148592322:{\\\"code\\\":\\\"990023\\\"}\",\"createDate\":\"2020-10-31 11:15\",\"createBy\":null}]}}'"}], "start": 1604117033831, "stop": 1604117033831}], "parameters": [{"name": "mobile", "value": "18821768014"}], "start": 1604117033637, "stop": 1604117033831}], "parameters": [{"name": "admin_action", "value": "<action.otc_admin.OtcAdmin object at 0x000001B606E443C8>"}], "start": 1604117033637, "stop": 1604117033831}], "start": 1604117033637, "stop": 1604117033831, "uuid": "4cae2605-62d8-45a4-ace0-a2d9b3e038c6", "historyId": "3f6f999f6a333b5c7b2ee6eab47264e3", "testCaseId": "ace19bad33eb0d149fdf22502bea0d9e", "fullName": "case.houtai_duojiekou.test_admin_yanzhnegma.Test_DengLu#test_admin_login", "labels": [{"name": "feature", "value": "后台——短信验证码"}, {"name": "parentSuite", "value": "case.houtai_duojiekou"}, {"name": "suite", "value": "test_admin_yanzhnegma"}, {"name": "subSuite", "value": "Test_DengLu"}, {"name": "host", "value": "ITSK-20200916WO"}, {"name": "thread", "value": "23580-MainThread"}, {"name": "framework", "value": "pytest"}, {"name": "language", "value": "cpython3"}, {"name": "package", "value": "case.houtai_duojiekou.test_admin_yanzhnegma"}]}