{"name": "后台——短信验证码", "status": "passed", "steps": [{"name": "获取短信验证码", "status": "passed", "steps": [{"name": "获取短信验证码", "status": "passed", "steps": [{"name": "请求日志", "status": "passed", "parameters": [{"name": "url", "value": "'https://shendu-dev1.sdpjw.cn/notify/api/v1/memsms/list?platform=zhengshi&time=1604121210928'"}, {"name": "method", "value": "'post'"}, {"name": "body", "value": "{'nojson': 'true', 'mobile': 18821768014, 'page': 1}"}, {"name": "header", "value": "{'Content-Type': 'application/json', 'sd_origin': 'shendu-dev1.sdpjw.cn', 'token': 'eyJhbGciOiJIUzUxMiIsInppcCI6IkRFRiJ9.eNqMWMtuJDUU_Zded1A6k0mU2s0EkJAiJiIDe7ft6na3y66xXT0pECsEOyRmx4INbGA1Sxb8zxD4C64fZbtc1QkaKVPlx32ce-6j-pvFzrBFtbh8vjoj9OLqhOD6-cn55dn5Cbqqn52s6xqfXtVXZ2iFF8uF7tZweAVPTOvhCZlFtbo4PV-dwb_VckHvW79weXZxaheU5HQ43VLV2GeNK42xVG3VtQQZusSdNrKhqmpoY9dRZ7ZSsa9hhTNtlrrXFW40lrJNCwjjNUd4bxcqjQ65GGTwFmR1Gl6CjqTUnZWKwN6acU4Uqk3V9C_heWSJu530S1Gzjb9s3-GAbvRkf9AGK4S2Bv5wGt5lyynadNTfecRnJmo58jlfWCMh8jNIUeRcaLs1CN6GHTzIVZQjw6TILRddpcEu7C3XeEtJx-lgewmNojs4eo0EpnwJAZYK4JLCbHkPEa2lauyWNqBGG4a1u48aUwricpPgimBERwjDZs7TCVouLopqam7fkqAkmOX03DgdbCOqHSFMge1JraVjHqOaCUXrTpAKO_9ukdZuwykpWBVURxsdkJkw9x4CPrk1EIGqA8N0WF4ycZD2fWzqiBzOsBBEeydPiYDRXB6Nrj2xH7nhOBu4ETAVUmA4dQABt6i_GZSTzvQFrhmnPMdK-JDCW3ag-hjT_PIdMKnTSx-BDihWDTLmhc1HCXWEFfxWnchTNUtNQBIp4C6nayX3CdBkIMQGXjK2ygYxUW2oiUsFvyEHLLZbWJGqn8Z1o2SXpbZDPiNTixQqS9UWCcKHlJim6QvrMhMbR2K7AUL6QWZNbYA8-RAhS2C-p4He1ly-zVVN0yZCOMHaVdTZgub9cxcy3d4uryfz1vNnIjzj6HxCOvUOwym0Qby72DACyCUiVQeqtGV-CpiGWgodIHI7s26NZC2lg2m-GpVFwHW6gKaLDgG-ikCfMnAoD1vGrWhapj7SZVRTYmsbF9MoIAjMtIfc9v99SunH1CDG5xtKwbaQCTYUX9oKVrqjJSevOlPkVVZiLLihVEyDNun3R0aE_zE6ZIzOY5BQcbVuMGvQly94HR63-7667xV900Gny4aQEqwQEoIqOKl6zz4QC9SyprpLOwJle08c5I-TvrIHozJXEoLfIYDDxRcYKjQz_av6DnHr511sx4UzJSkm49H8gDW_Grwdui_4079WiACZv5K8a2huxXQiyfnIoSgbhQbWltUpWAmw2hyNnSk4ex1QSOoyxYmfNhZvOmm8dj7qZL5OFVqPjVKz9W6u808K2NOsLUtJAt6WCd8QpzkHPunXigE4pWmxTU6LOcxQEKNiDkJty_tUYkpzYoWJA9yMS1Hnkcp8bEaKueeYnpeCcXeO50ZknGl0ZYcJigPqNrlGhbCKG3gfB53s8CD3JTzfzDcCwSXeu0YcggS571kwxh5Crmkq1U8NaPlcHBK5_NKY7S0WmI_8ov9OcvSZBXV2qMiE5jXUBSD20PH0OJ4JjwfxqL3zhTVzN-sqEZdE4LgUsYbBbNz2FDWdEteQ5kdG0E8EkYp-YZm8L2QNBiaF08Sa0D7NQzkeIZCp4_i5NDVxW5gCZeftLD4DsonWserIXT8aH-OaJ_pcOSxbh6KNPExC4k5Fbgz9kB7g8TBTC1IulxHPO3FwsIRqdhojsKjYuht_2aSv-QSHbQZHPscf-0WhxCHqcIyf8i-NaWUjyaI4_rTM8MzOxJrrNI5KF7RdobGTetc1wNvsS81Swd6wP-L02g5tn5HwkwwVhoI9TNNrSaj9bYa0O1gXqLFv__z5_cNfvz-8__Xhpx8-vPsZNmyK29vP_OPn_tyH97_9_cuP_373B5zw6e00OGHf_gcAAP__.NFekudHbMRRJ3VI6PiV0RSkuZwg0BDMwHnJHi6epn_YvZMDIC-ey8FVX6uypMKJqudMc_9lX-v2n5vk4bd7z2w'}"}], "start": 1604121210928, "stop": 1604121210928}, {"name": "响应日志", "status": "passed", "parameters": [{"name": "status_code", "value": "200"}, {"name": "body", "value": "'{\"msg\":\"success\",\"code\":0,\"page\":{\"totalCount\":12562,\"pageSize\":10,\"totalPage\":1257,\"currPage\":1,\"list\":[{\"id\":12746,\"mobile\":\"18105498870\",\"content\":\"SMS_148592322:{\\\"code\\\":\\\"934413\\\"}\",\"createDate\":\"2020-10-31 11:50\",\"createBy\":null},{\"id\":12745,\"mobile\":\"17600000011\",\"content\":\"SMS_148592322:{\\\"code\\\":\\\"490284\\\"}\",\"createDate\":\"2020-10-31 11:50\",\"createBy\":null},{\"id\":12744,\"mobile\":\"18600000011\",\"content\":\"SMS_148612329:{\\\"code\\\":\\\"990024\\\"}\",\"createDate\":\"2020-10-31 11:50\",\"createBy\":null},{\"id\":12743,\"mobile\":\"18660971397\",\"content\":\"SMS_148592322:{\\\"code\\\":\\\"990024\\\"}\",\"createDate\":\"2020-10-31 11:50\",\"createBy\":null},{\"id\":12742,\"mobile\":\"17606531995\",\"content\":\"SMS_148545070:{\\\"code\\\":\\\"514159\\\"}\",\"createDate\":\"2020-10-31 11:32\",\"createBy\":null},{\"id\":12741,\"mobile\":\"15093098153\",\"content\":\"SMS_148545070:{\\\"code\\\":\\\"333860\\\"}\",\"createDate\":\"2020-10-31 11:25\",\"createBy\":null},{\"id\":12740,\"mobile\":\"17606531995\",\"content\":\"SMS_148545070:{\\\"code\\\":\\\"451231\\\"}\",\"createDate\":\"2020-10-31 11:22\",\"createBy\":null},{\"id\":12739,\"mobile\":\"18600000011\",\"content\":\"SMS_148612329:{\\\"code\\\":\\\"990023\\\"}\",\"createDate\":\"2020-10-31 11:17\",\"createBy\":null},{\"id\":12738,\"mobile\":\"18660971397\",\"content\":\"SMS_148592322:{\\\"code\\\":\\\"990023\\\"}\",\"createDate\":\"2020-10-31 11:17\",\"createBy\":null},{\"id\":12737,\"mobile\":\"18660971397\",\"content\":\"SMS_148592322:{\\\"code\\\":\\\"990023\\\"}\",\"createDate\":\"2020-10-31 11:15\",\"createBy\":null}]}}'"}], "start": 1604121211135, "stop": 1604121211135}], "parameters": [{"name": "mobile", "value": "18821768014"}], "start": 1604121210928, "stop": 1604121211135}], "parameters": [{"name": "admin_action", "value": "<action.otc_admin.OtcAdmin object at 0x0000029654711080>"}], "start": 1604121210928, "stop": 1604121211135}], "start": 1604121210928, "stop": 1604121211136, "uuid": "49434951-a0fd-4ff9-85c3-14bd2d30c999", "historyId": "3f6f999f6a333b5c7b2ee6eab47264e3", "testCaseId": "ace19bad33eb0d149fdf22502bea0d9e", "fullName": "case.houtai_duojiekou.test_admin_yanzhnegma.Test_DengLu#test_admin_login", "labels": [{"name": "feature", "value": "后台——短信验证码"}, {"name": "parentSuite", "value": "case.houtai_duojiekou"}, {"name": "suite", "value": "test_admin_yanzhnegma"}, {"name": "subSuite", "value": "Test_DengLu"}, {"name": "host", "value": "ITSK-20200916WO"}, {"name": "thread", "value": "33036-MainThread"}, {"name": "framework", "value": "pytest"}, {"name": "language", "value": "cpython3"}, {"name": "package", "value": "case.houtai_duojiekou.test_admin_yanzhnegma"}]}