{"name": "后台——短信验证码", "status": "passed", "steps": [{"name": "获取短信验证码", "status": "passed", "steps": [{"name": "获取短信验证码", "status": "passed", "steps": [{"name": "请求日志", "status": "passed", "parameters": [{"name": "url", "value": "'https://shendu-dev1.sdpjw.cn/notify/api/v1/memsms/list?platform=zhengshi&time=1604123742363'"}, {"name": "method", "value": "'post'"}, {"name": "body", "value": "{'nojson': 'true', 'mobile': 18821768014, 'page': 1}"}, {"name": "header", "value": "{'Content-Type': 'application/json', 'sd_origin': 'shendu-dev1.sdpjw.cn', 'token': 'eyJhbGciOiJIUzUxMiIsInppcCI6IkRFRiJ9.eNqMWMty5DQU_Zded6gkHUjwbiZAFVUpJkUG9mpJ7lZaljyS3BNDsaJgRxXsWLCBDaxmyYL_GQJ_wdXDkizbGTaJrcd9nHvuw_316t6wVbW6qtHlxenp5uR0e35-cnG1xSdoU9OTM_Ihuawv6RXe0NV6pbstHD6DJ6b18ITMqjr74PTi7HxzebFZr-hD6xcuz6_etwtKcjqcbqlq7LPGlcZYqrbqWoIMXeNOG9lQVTW0seuoM3up2Fewwpk2a93rCjcaS9mmBYTxliN8sAuVRsdcDDJ4D7I6DS9BR1LqzkpFYG_LOCcK1aZq-ufwPLLE3U76pajZzl-273BAN3qyP2iDFUJbA384De-y5RTtOurvPOEzE7Uc-ZwvbJEQ-RmkKHIutN0WBO_DDh7kKsqRYVLklouu0mAX9pZrvKek43SwvYRG0Xs4eo0EpnwNAZYK4JLC7HkPEa2lauyWNqBGG4a1u48aUwricpfgimBERwjDZs7TCVouLopqam5fk6AkmOX03DgdbCeqe0KYAtuTWkvHPEY1E4rWnSAVdv7dIq3dhlNSsCqojjY6IDNh7j0EfHJrIAJVR4bpsLxm4ijt-9jUETmcYSGI9k6eEgGjuTwaXXvHfuSG42zgRsBUSIHh1BEE3KL-ZlBOOtMXuGac8hwr4UMK79mR6iWm-eU7YFKn1z4CHVCsGmTMC5uPEuoIK_itOpGnapaagCRSwF1Ot0oeEqDJQIgNvGRslQ1iotpRE5cKfkMOWGz3sCJVP43rTskuS22HfEamFilUlqo9EoQPKTFN02fWZSZ2jsR2A4T0g8ya2gB58iFC1sB8TwO9r7l8nauapk2EcIK1q6izBc375y5kur1dXk_mrefPRHjG0fmEdOodhlNog3h3sWEEkEtEqo5Uacv8FDANtRQ6QOR2Zt0WyVpKB9N8NSqLgOt0AU0XHQJ8FYE-ZeBQHraMW9G0TH2ky6imxNY2LqZRQBCYaQ-57f99QulH1CDG5xtKwbaQCTYUX9gKVrqjJScvOlPkVVZiLLihVEyDNun3CyPC_xgdMkbnMUiouFo3mDXoyxe8Do_bQ1899Iq-6qDTZUNICVYICUEVnFS9Zx-IBWpZU92lewJl-0Ac5E-TvrIHozJXEoLfIYDDxWcYKjQz_Yv6DnHr511sx4UzJSkm49H8gDW_Grwdui_4079UiACZv5S8a2huxXQiyfnIoSgbhQbWltUpWAmw2hyNnSk4ex1QSOoyxYmfNhavOmm8dj7qZL5OFVqXRqnZejfX-ScF7N2sLUtJAt6WCd8QpzkHPumXigE4pWmxTU6LOcxQEKNiDkJty_tUYkpzYoWJA9yMS1HnQmVempFi7jmm56Vg3J3juREZZxpd2WGC4oC6Ta5RIaziBj7EQSc7PMh9Ds83841AcIkPrhGHIEHuexaMsYeQa5pK9bsGtHwuDolcfmnM9hYLzHt-0X8nOfrMgjo7VGRC8xrqAhB76Hh6HM-Ey0FctHe-sGbuZl0l4pIIHJci1jCYjdueoqZT4hrSfGEE_VgQqejnlsmHQtZgYFI4TawJ7dM8lOMRApk6jp9LUxO3hSlQdt7O4jMgm2gdqxbu-tF4iWue6HPlsGwdijbyOAmJOxW5MfRDeoTH40wtSLlcRjzvxMHBEqrZaYzAomLbbvxlk77mExy2GSx8jj_1i0KJQ9ThGD_lXxrTykaSRXH8aZnhmZ2JNddpHJUuaLtCYyf1rmuAt9mXmqWCvWF_xOm1Hdo-JeEnGSoMBXuYpteSUPvbDGnvYV2gxr798-d3j3_9_vjm18cfv3_708-wYVPc3t74x8_8ubdvfvv7lx_-_fYPOOHT22lwwr75DwAA__8.bp5X28ByKSBEggub_Tm6e_grP7GqZadJgTQrkx5dCTpZthvjqQjnSDJzJzuGT1TxbcJVstuuemh1tk7185viqA'}"}], "start": 1604123742364, "stop": 1604123742364}, {"name": "响应日志", "status": "passed", "parameters": [{"name": "status_code", "value": "200"}, {"name": "body", "value": "'{\"msg\":\"success\",\"code\":0,\"page\":{\"totalCount\":12570,\"pageSize\":10,\"totalPage\":1257,\"currPage\":1,\"list\":[{\"id\":12754,\"mobile\":\"18600008888\",\"content\":\"SMS_148545070:{\\\"code\\\":\\\"172170\\\"}\",\"createDate\":\"2020-10-31 13:46\",\"createBy\":null},{\"id\":12753,\"mobile\":\"18821768014\",\"content\":\"SMS_148545070:{\\\"code\\\":\\\"788005\\\"}\",\"createDate\":\"2020-10-31 13:46\",\"createBy\":null},{\"id\":12752,\"mobile\":\"15093098152\",\"content\":\"SMS_148545070:{\\\"code\\\":\\\"058731\\\"}\",\"createDate\":\"2020-10-31 13:41\",\"createBy\":null},{\"id\":12751,\"mobile\":\"18821768014\",\"content\":\"SMS_148545070:{\\\"code\\\":\\\"297419\\\"}\",\"createDate\":\"2020-10-31 13:41\",\"createBy\":null},{\"id\":12750,\"mobile\":\"18608000111\",\"content\":\"SMS_148545070:{\\\"code\\\":\\\"168296\\\"}\",\"createDate\":\"2020-10-31 13:32\",\"createBy\":null},{\"id\":12749,\"mobile\":\"18821768014\",\"content\":\"SMS_148545070:{\\\"code\\\":\\\"607652\\\"}\",\"createDate\":\"2020-10-31 13:30\",\"createBy\":null},{\"id\":12748,\"mobile\":\"18600000011\",\"content\":\"SMS_148545070:{\\\"code\\\":\\\"815976\\\"}\",\"createDate\":\"2020-10-31 13:25\",\"createBy\":null},{\"id\":12747,\"mobile\":\"15093098153\",\"content\":\"SMS_148545070:{\\\"code\\\":\\\"659829\\\"}\",\"createDate\":\"2020-10-31 13:22\",\"createBy\":null},{\"id\":12746,\"mobile\":\"18105498870\",\"content\":\"SMS_148592322:{\\\"code\\\":\\\"934413\\\"}\",\"createDate\":\"2020-10-31 11:50\",\"createBy\":null},{\"id\":12745,\"mobile\":\"17600000011\",\"content\":\"SMS_148592322:{\\\"code\\\":\\\"490284\\\"}\",\"createDate\":\"2020-10-31 11:50\",\"createBy\":null}]}}'"}], "start": 1604123742610, "stop": 1604123742610}], "parameters": [{"name": "mobile", "value": "18821768014"}], "start": 1604123742363, "stop": 1604123742611}], "parameters": [{"name": "admin_action", "value": "<action.otc_admin.OtcAdmin object at 0x000001F161FD1438>"}], "start": 1604123742363, "stop": 1604123742611}], "start": 1604123742363, "stop": 1604123742611, "uuid": "1544f26c-b1d7-42c1-a838-e621538d182d", "historyId": "3f6f999f6a333b5c7b2ee6eab47264e3", "testCaseId": "ace19bad33eb0d149fdf22502bea0d9e", "fullName": "case.houtai_duojiekou.test_admin_yanzhnegma.Test_DengLu#test_admin_login", "labels": [{"name": "feature", "value": "后台——短信验证码"}, {"name": "parentSuite", "value": "case.houtai_duojiekou"}, {"name": "suite", "value": "test_admin_yanzhnegma"}, {"name": "subSuite", "value": "Test_DengLu"}, {"name": "host", "value": "ITSK-20200916WO"}, {"name": "thread", "value": "33464-MainThread"}, {"name": "framework", "value": "pytest"}, {"name": "language", "value": "cpython3"}, {"name": "package", "value": "case.houtai_duojiekou.test_admin_yanzhnegma"}]}