{"name": "后台——短信验证码", "status": "passed", "steps": [{"name": "获取短信验证码", "status": "passed", "steps": [{"name": "获取短信验证码", "status": "passed", "steps": [{"name": "请求日志", "status": "passed", "parameters": [{"name": "url", "value": "'https://shendu-dev1.sdpjw.cn/notify/api/v1/memsms/list?platform=zhengshi&time=1604121220367'"}, {"name": "method", "value": "'post'"}, {"name": "body", "value": "{'nojson': 'true', 'mobile': 18821768014, 'page': 1}"}, {"name": "header", "value": "{'Content-Type': 'application/json', 'sd_origin': 'shendu-dev1.sdpjw.cn', 'token': 'eyJhbGciOiJIUzUxMiIsInppcCI6IkRFRiJ9.eNqMWMty5DQU_Zded6ik85iUdzMBqqhKMSkysJcluVuJLHkkuSeGYkXBjipmx4INbGA1Sxb8zxD4C64elmTZnWGT2Hrcx7nnPtzfrO4MW1Wry-ZsU9cNOWouLzdHZ-fo8qje1OdH-PQZujhvjjfnZ6er9Ur3NRw-gSem9fiEzKo6uTg-O9mcbDYn6xV96PzCs83FsV1QktPxdEdVa581rjTGUnVV3xFk6Br32siWqqqlrV1HvdlJxb6GFc60WetBV7jVWMouLSCMa47wvV2oNNrnYpDBO5DVa3gJOpJSd1YqAns145wo1JiqHV7A88QSdzvpl6JhW3_ZvsMB3erZ_qgNVgjtDPzhNLzLjlO07am_84TPTDRy4nO-UCMh8jNIUeRc6PoaBO_CDh7lKsqRYVLklou-0mAX9pZrvKOk53S0vYRG0Ts4eoUEpnwNAZYK4JLC7PgAEW2kau2WNqBGG4a1u49aUwricpvgimBERwjDZsnTGVouLopqam7ekKAkmOX0XDsdbCuqO0KYAtuTWkvHPEYNE4o2vSAVdv7dIK3dhlNSsCqojjY6IDNh7j0EfHZrJAJVe4bpuLxmYi_t-9TUCTmcYSGI9k6eEgGjpTyaXPvAfuSG42zgRsBUSIHh1B4E3KDhelROejMUuGac8hwr4UMK79ie6kNM88u3wKRer30EeqBYNcpYFrYcJdQTVvBb9SJP1Sw1AUmkgLuc1kreJ0CTgRAbeMnYKlvERLWlJi4V_IYcsNjuYEWqYR7XrZJ9ltoO-YxMHVKoLFU7JAgfU2Keps-ty0xsHYntBggZRpkNtQHy5EOErIH5ngZ613D5Jlc1T5sI4QxrV1EXC5r3z13IdHu7vJ7MW8-fmfCMo8sJ6dQ7DOfQBvHuYssIIJeIVO2p0pb5KWAaail0gMjtzLoayUZKB9NyNSqLgOt0AU0XHQJ8FYE-ZeBQHraMW9G0TH2ky6SmxNY2LaZRQBCYaQ-57f99SunH1CDGlxtKwbaQCTYUX9oKVrqjJScve1PkVVZiLLihVMyDNuv3B0aE_zE6ZIzOY5BQcbVuNGvUly94HR63h6F6GBR93UOny4aQEqwQEoIqOKkGzz4QC9SyprpLdwTK9j1xkD9N-soejMpcSQh-hwCOF59jqNDMDC-bW8Stn7exHRfOlKSYjUfLA9byavB27L7gz_BKIQJk_kryvqW5FfOJJOcjh6JsFBpZW1anYCXAanM0dqbg7FVAIanLFCd-2li87qXx2vmkk_k6VWg9NEot1rulzj8rYB9mbVlKEvC2TPiGOM858Em_UgzAKU2LbXJezGGGghgVcxDqOj6kElOaEytMHOAWXIo6D1TmQzNSzD3H9LwUTLtzPDch40KjKztMUBxQt8k1KYRV3MD3cdDJDo9yX8Dz9XIjEFzie9eIQ5Ag9z0LpthDyDVNpfpDA1o-F4dELr80FnuLBeYjv-i_kxx9FkFdHCoyoXkNdQGIPXQ6PU5nwsNBPGjvcmHN3M26SsQlETguRaxhMJu2PUVNr8QVpPmBEfQTQaSiX1gm3xeyRgOTwnlizWif5qEcjxDI1HH8XJqauC1MgbLLdhafAdlE61h14K4fjQ9xzRN9qRyWrUPRVu5nIXGnIjfGfkj38LhfqAUpl8uI5504OFhCtTiNEVhUrO6nXzbpaz7BYZvBgc_xp35RKHGIOhzj5_xLY1rZSLIoTj8tMzyzM7HmOo2T0gVtV2jspN72LfA2-1KzVLA37I84g7ZD22ck_CRDhaFgD9P0ShJqf5sh3R2sC9Tat3_-_P7xr98f3_36-NMP79_-DBs2xe3tU__4uT_3_t1vf__y47_f_QEnfHo7DU7Yt_8BAAD__w.N21eEnuM7GthxP_EoJ5O-2jpCbbF_NSMqXxyv1TKHbQ9oZ99mCw1t-mtxvATfSe4DgP2OVfACC_JPhPkmcTnqQ'}"}], "start": 1604121220367, "stop": 1604121220367}, {"name": "响应日志", "status": "passed", "parameters": [{"name": "status_code", "value": "200"}, {"name": "body", "value": "'{\"msg\":\"success\",\"code\":0,\"page\":{\"totalCount\":12562,\"pageSize\":10,\"totalPage\":1257,\"currPage\":1,\"list\":[{\"id\":12746,\"mobile\":\"18105498870\",\"content\":\"SMS_148592322:{\\\"code\\\":\\\"934413\\\"}\",\"createDate\":\"2020-10-31 11:50\",\"createBy\":null},{\"id\":12745,\"mobile\":\"17600000011\",\"content\":\"SMS_148592322:{\\\"code\\\":\\\"490284\\\"}\",\"createDate\":\"2020-10-31 11:50\",\"createBy\":null},{\"id\":12744,\"mobile\":\"18600000011\",\"content\":\"SMS_148612329:{\\\"code\\\":\\\"990024\\\"}\",\"createDate\":\"2020-10-31 11:50\",\"createBy\":null},{\"id\":12743,\"mobile\":\"18660971397\",\"content\":\"SMS_148592322:{\\\"code\\\":\\\"990024\\\"}\",\"createDate\":\"2020-10-31 11:50\",\"createBy\":null},{\"id\":12742,\"mobile\":\"17606531995\",\"content\":\"SMS_148545070:{\\\"code\\\":\\\"514159\\\"}\",\"createDate\":\"2020-10-31 11:32\",\"createBy\":null},{\"id\":12741,\"mobile\":\"15093098153\",\"content\":\"SMS_148545070:{\\\"code\\\":\\\"333860\\\"}\",\"createDate\":\"2020-10-31 11:25\",\"createBy\":null},{\"id\":12740,\"mobile\":\"17606531995\",\"content\":\"SMS_148545070:{\\\"code\\\":\\\"451231\\\"}\",\"createDate\":\"2020-10-31 11:22\",\"createBy\":null},{\"id\":12739,\"mobile\":\"18600000011\",\"content\":\"SMS_148612329:{\\\"code\\\":\\\"990023\\\"}\",\"createDate\":\"2020-10-31 11:17\",\"createBy\":null},{\"id\":12738,\"mobile\":\"18660971397\",\"content\":\"SMS_148592322:{\\\"code\\\":\\\"990023\\\"}\",\"createDate\":\"2020-10-31 11:17\",\"createBy\":null},{\"id\":12737,\"mobile\":\"18660971397\",\"content\":\"SMS_148592322:{\\\"code\\\":\\\"990023\\\"}\",\"createDate\":\"2020-10-31 11:15\",\"createBy\":null}]}}'"}], "start": 1604121220716, "stop": 1604121220716}], "parameters": [{"name": "mobile", "value": "18821768014"}], "start": 1604121220367, "stop": 1604121220716}], "parameters": [{"name": "admin_action", "value": "<action.otc_admin.OtcAdmin object at 0x000001DEBFC9F160>"}], "start": 1604121220367, "stop": 1604121220716}], "start": 1604121220367, "stop": 1604121220716, "uuid": "02922194-f904-4fc7-a942-99c14588eaa5", "historyId": "3f6f999f6a333b5c7b2ee6eab47264e3", "testCaseId": "ace19bad33eb0d149fdf22502bea0d9e", "fullName": "case.houtai_duojiekou.test_admin_yanzhnegma.Test_DengLu#test_admin_login", "labels": [{"name": "feature", "value": "后台——短信验证码"}, {"name": "parentSuite", "value": "case.houtai_duojiekou"}, {"name": "suite", "value": "test_admin_yanzhnegma"}, {"name": "subSuite", "value": "Test_DengLu"}, {"name": "host", "value": "ITSK-20200916WO"}, {"name": "thread", "value": "21608-MainThread"}, {"name": "framework", "value": "pytest"}, {"name": "language", "value": "cpython3"}, {"name": "package", "value": "case.houtai_duojiekou.test_admin_yanzhnegma"}]}