{"name": "后台——短信验证码", "status": "passed", "steps": [{"name": "获取短信验证码", "status": "passed", "steps": [{"name": "获取短信验证码", "status": "passed", "steps": [{"name": "请求日志", "status": "passed", "parameters": [{"name": "url", "value": "'https://shendu-dev1.sdpjw.cn/notify/api/v1/memsms/list?platform=zhengshi&time=1604121229421'"}, {"name": "method", "value": "'post'"}, {"name": "body", "value": "{'nojson': 'true', 'mobile': 18821768014, 'page': 1}"}, {"name": "header", "value": "{'Content-Type': 'application/json', 'sd_origin': 'shendu-dev1.sdpjw.cn', 'token': 'eyJhbGciOiJIUzUxMiIsInppcCI6IkRFRiJ9.eNqMWLtyJDUU_ZeJx9T4wZjtbNdAFVUu1oUXco2knpFHLfVK6lk3FBEFGVVLRkACCUQbEvA_i-EvuHq0pFb32CR2tx73ce65j55vFneGLarFR5vL9foMXZzQNVmdXJzWq5PNs_P6ZHW2eUY_RKi-XJ8vlgvdbeDwKTwxrYcnZBbV6Xp1cXp2ena-Wi7ofesXLs_WK7ugJKfD6Zaqxj5rXGmMpWqrriXI0CXutJENVVVDG7uOOrOTin0NK5xps9S9rnCjsZRtWkAYbzjCe7tQaXTIxSCDdyCr0_ASdCSl7qxUBPY2jHOiUG2qpn8BzyNL3O2kX4qabf1l-w4HdKMn-4M2WCG0NfCH0_AuW07RtqP-ziM-M1HLkc_5wgYJkZ9BiiLnQtttQPAu7OBBrqIcGSZFbrnoKg12YW-5xjtKOk4H20toFL2Do1dIYMqXEGCpAC4pzI73ENFaqsZuaQNqtGFYu_uoMaUgLrcJrghGdIQwbOY8naDl4qKopubmDQlKgllOz7XTwbaiuiOEKbA9qbV0zGNUM6Fo3QlSYeffDdLabTglBauC6mijAzIT5t5DwCe3BiJQdWCYDstLJg7Svo9NHZHDGRaCaO_kKREwmsuj0bUn9iM3HGcDNwKmQgoMpw4g4Ab114Ny0pm-wDXjlOdYCR9SeMcOVB9jml--BSZ1eukj0AHFqkHGvLD5KKGOsILfqhN5qmapCUgiBdzldKPkPgGaDITYwEvGVtkgJqotNXGp4DfkgMV2BytS9dO4bpXsstR2yGdkapFCZanaIUH4kBLTNH1uXWZi60hsN0BIP8isqQ2QJx8iZAnM9zTQu5rLN7mqadpECCdYu4o6W9C8f-5Cptvb5fVk3nr-TIRnHJ1PSKfeYTiFNoh3FxtGALlEpOpAlbbMTwHTUEuhA0RuZ9ZtkKyldDDNV6OyCLhOF9B00SHAVxHoUwYO5WHLuBVNy9RHuoxqSmxt42IaBQSBmfaQ2_7fp5R-TA1ifL6hFGwLmWBD8aWtYKU7WnLysjNFXmUlxoIbSsU0aJN-f2RE-B-jQ8boPAYJFVfrBrMGffmC1-Fxu--r-17R1x10umwIKcEKISGogpOq9-wDsUAta6q7dEegbO-Jg_xx0lf2YFTmSkLwOwRwuPgcQ4Vmpn9Z3yJu_byN7bhwpiTFZDyaH7DmV4O3Q_cFf_pXChEg81eSdw3NrZhOJDkfORRlo9DA2rI6BSsBVpujsTMFZ68CCkldpjjx08bidSeN185HnczXqULrsVFqtt7Ndf5JAXuatWUpScDbMuEb4jTnwCf9SjEApzQttslpMYcZCmJUzEGobXmfSkxpTqwwcYCbcSnqPFKZj81IMfcc0_NSMO7O8dyIjDONruwwQXFA3SbXqBBWcQPv46CTHR7kvoDn6_lGILjEe9eIQ5Ag9z0LxthDyDVNpfqpAS2fi0Mil18as73FAvOBX_TfSY4-s6DODhWZ0LyGugDEHjqeHscz4fEgHrV3vrBm7mZdJeKSCByXItYwmI3bnqKmU-IK0vzICPqJIFLRLyyT94WswcCkcJpYE9qneSjHIwQydRw_l6YmbgtToOy8ncVnQDbROlYduetH42Nc80SfK4dl61C0kYdJSNypyI2hH9IDPB5makHK5TLieScODpZQzU5jBBYV23TjL5v0NZ_gsM3gyOf4Y78olDhEHY7xU_6lMa1sJFkUx5-WGZ7ZmVhzncZR6YK2KzR2Um-7BnibfalZKtgb9kecXtuh7TMSfpKhwlCwh2l6JQm1v82Q9g7WBWrs2z9_fv_w1-8P7359ePvD-59-hg2b4vb2uX_83J97_-63v3_58d_v_oATPr2dBifs2_8AAAD__w.Q6D88-_XRMySaYoI-kMz86-zKX8qMJNklxaCEjyBksuzjFLpB_Zh28RKpnkGXckWh6YvUBU0nOZMaEUFRJRQVQ'}"}], "start": 1604121229421, "stop": 1604121229421}, {"name": "响应日志", "status": "passed", "parameters": [{"name": "status_code", "value": "200"}, {"name": "body", "value": "'{\"msg\":\"success\",\"code\":0,\"page\":{\"totalCount\":12562,\"pageSize\":10,\"totalPage\":1257,\"currPage\":1,\"list\":[{\"id\":12746,\"mobile\":\"18105498870\",\"content\":\"SMS_148592322:{\\\"code\\\":\\\"934413\\\"}\",\"createDate\":\"2020-10-31 11:50\",\"createBy\":null},{\"id\":12745,\"mobile\":\"17600000011\",\"content\":\"SMS_148592322:{\\\"code\\\":\\\"490284\\\"}\",\"createDate\":\"2020-10-31 11:50\",\"createBy\":null},{\"id\":12744,\"mobile\":\"18600000011\",\"content\":\"SMS_148612329:{\\\"code\\\":\\\"990024\\\"}\",\"createDate\":\"2020-10-31 11:50\",\"createBy\":null},{\"id\":12743,\"mobile\":\"18660971397\",\"content\":\"SMS_148592322:{\\\"code\\\":\\\"990024\\\"}\",\"createDate\":\"2020-10-31 11:50\",\"createBy\":null},{\"id\":12742,\"mobile\":\"17606531995\",\"content\":\"SMS_148545070:{\\\"code\\\":\\\"514159\\\"}\",\"createDate\":\"2020-10-31 11:32\",\"createBy\":null},{\"id\":12741,\"mobile\":\"15093098153\",\"content\":\"SMS_148545070:{\\\"code\\\":\\\"333860\\\"}\",\"createDate\":\"2020-10-31 11:25\",\"createBy\":null},{\"id\":12740,\"mobile\":\"17606531995\",\"content\":\"SMS_148545070:{\\\"code\\\":\\\"451231\\\"}\",\"createDate\":\"2020-10-31 11:22\",\"createBy\":null},{\"id\":12739,\"mobile\":\"18600000011\",\"content\":\"SMS_148612329:{\\\"code\\\":\\\"990023\\\"}\",\"createDate\":\"2020-10-31 11:17\",\"createBy\":null},{\"id\":12738,\"mobile\":\"18660971397\",\"content\":\"SMS_148592322:{\\\"code\\\":\\\"990023\\\"}\",\"createDate\":\"2020-10-31 11:17\",\"createBy\":null},{\"id\":12737,\"mobile\":\"18660971397\",\"content\":\"SMS_148592322:{\\\"code\\\":\\\"990023\\\"}\",\"createDate\":\"2020-10-31 11:15\",\"createBy\":null}]}}'"}], "start": 1604121229639, "stop": 1604121229639}], "parameters": [{"name": "mobile", "value": "18821768014"}], "start": 1604121229421, "stop": 1604121229639}], "parameters": [{"name": "admin_action", "value": "<action.otc_admin.OtcAdmin object at 0x0000022BC9C01278>"}], "start": 1604121229421, "stop": 1604121229639}], "start": 1604121229421, "stop": 1604121229639, "uuid": "7d753f6e-6941-4bdc-a518-758071b38403", "historyId": "3f6f999f6a333b5c7b2ee6eab47264e3", "testCaseId": "ace19bad33eb0d149fdf22502bea0d9e", "fullName": "case.houtai_duojiekou.test_admin_yanzhnegma.Test_DengLu#test_admin_login", "labels": [{"name": "feature", "value": "后台——短信验证码"}, {"name": "parentSuite", "value": "case.houtai_duojiekou"}, {"name": "suite", "value": "test_admin_yanzhnegma"}, {"name": "subSuite", "value": "Test_DengLu"}, {"name": "host", "value": "ITSK-20200916WO"}, {"name": "thread", "value": "30956-MainThread"}, {"name": "framework", "value": "pytest"}, {"name": "language", "value": "cpython3"}, {"name": "package", "value": "case.houtai_duojiekou.test_admin_yanzhnegma"}]}