{"name": "后台——短信验证码", "status": "passed", "steps": [{"name": "获取短信验证码", "status": "passed", "steps": [{"name": "获取短信验证码", "status": "passed", "steps": [{"name": "请求日志", "status": "passed", "parameters": [{"name": "url", "value": "'https://shendu-dev1.sdpjw.cn/notify/api/v1/memsms/list?platform=zhengshi&time=1604123814068'"}, {"name": "method", "value": "'post'"}, {"name": "body", "value": "{'nojson': 'true', 'mobile': 18821768014, 'page': 1}"}, {"name": "header", "value": "{'Content-Type': 'application/json', 'sd_origin': 'shendu-dev1.sdpjw.cn', 'token': 'eyJhbGciOiJIUzUxMiIsInppcCI6IkRFRiJ9.eNqMWDlzJDUU_i8Tjyl8YK872zVQRZWLdeGFXCNpZuRRS706Zt1QRBRkVC0ZAQkkEG1IwP9ZDP-Cp6MltbrHJrG7dbzje987er5Z3Bm2aBbk4mJ1Qk_x0cXl6ero7OISH62OT_DR-cmz87Nzcnbx0SVZLBfaruDwMTwxrYcnZBbN8fmHZ8cnp8-Oz5YLet-FhQu47BaU5HQ43VHVumeNG42xVF1jO4IMXWKrjWypalraunVkzVYq9jWscKbNUve6wa3GUnZ5AWG84gjv3EKj0b4Ugwzegiyr4SXqyEr9WakI7K0Y50ShtWna_gU8jyzxt7N-KdZsEy67dzigWz3ZH7TBCqGdgT-cxnfZcYo2loY7j_jMxFqOfC4XVkiI8gxSFHkXOrsCwdu4gwe5inJkmBSl5cI2GuzCwXKNt5RYTgfba2gUvYOjV0hgypcQYKkALinMlvcQ0bVUrdvSBtRow7D291FrakFcbjJcCYzkCGHYzHk6QcvHRVFNzc0bEpVEs7yea6-DbURzRwhTYHtW6-hYxmjNhKJrK0iDvX83SGu_4ZVUrIqqk40eyEKYf48Bn9waiEDVnmE6LC-Z2Ev3PjZ1RA5vWAyiu1OmRMRoLo9G157YT9zwnI3ciJgKKTCc2oOAG9RfD8qJNX2Fa8GpwLEaPqTwlu2pPsS0sHwLTLJ6GSJggWLNIGNe2HyUkCWs4reyokzVIjUBSaSAu5yulNxlQLOBEBt4KdgqW8REs6EmLVX8hhxw2G5hRap-GteNkrZIbY98QaYOKVSXqi0ShA8pMU3T585lJjaexG4DhPSDzDV1AQrkQ4QsgfmBBnq75vJNqWqaNgnCCda-os4WtOCfv1DoDnYFPYW3gT8T4QVH5xPSq_cYTqGN4v3FlhFALhOp2VOlHfNzwDTUUugAiduFdSsk11J6mOarUV0EfKeLaProEOCriPSpA4fKsBXcSqYV6hNdRjUltbZxMU0CosBCe8zt8O9TSj-mBjE-31AqtsVMcKH40lWw2h0tOXlpTZVXRYlx4MZSMQ3apN8fGBH-x-hQMLqMQUbF17rBrEFfuRB0BNzu--a-V_S1hU5XDCE1WDEkBDVwUvWBfSAWqOVM9ZfuCJTtHfGQP076xh1MynxJiH7HAA4Xn2Oo0Mz0L9e3iDs_b1M7rpypSTEZj-YHrPnV6O3QfcGf_pVCBMj8leS2paUV04mk5COHomwUGlhbV6doJcDqcjR1pujsVUQhqysUZ366WLy20gTtfNTJQp2qtB4apWbr3VznnxSwp1lbl5IMvCsToSFOcw580q8UA3Bq01KbnBZzmKEgRtUchLqO97nE1OakCpMGuBmXks4DlfnQjJRyzzO9LAXj7pzOjcg40-jqDhMVR9Rdco0KYZM28C4NOsXhQe4LeL6ebwSCS7zzjTgGCXI_sGCMPYRc01yqnxrQyrk4JnL9pTHbWxwwH4TF8J3k6TML6uxQUQgta6gPQOqh4-lxPBMeDuJBe-cLa-Fu0VUSLpnAaSlhDYPZuO0paqwSV5DmB0bQTwSRin7hmLyrZA0GZoXTxJrQPs9DJR4xkLnjhLk0N3FXmCJl5-2sPgOKidaz6sDdMBof4log-lw5rFuHoq3cT0LiTyVuDP2Q7uFxP1MLci7XES87cXSwhmp2GiOwqNjKjr9s8td8hsM1gwOf44_9olDjkHR4xk_5l8e0upEUURx_WhZ4FmdSzfUaR6UL2q7Q2Eu9tS3wtvhSc1RwN9yPOL12Q9tnJP4kQ4WhYA_T9EoS6n6bId0drAvUurd__vz-4a_fH979-vD2h_c__QwbLsXd7dPw-Hk49_7db3__8uO_3_0BJ0J6ew1e2Lf_AQAA__8.jX4ya9scL3A2gSm_TpY19rtCgeQZcRB2FSRjHMi_7-lMxnuGVhDar288qewwXQ5IskDM905lBChQQVu1F9bL1w'}"}], "start": 1604123814068, "stop": 1604123814068}, {"name": "响应日志", "status": "passed", "parameters": [{"name": "status_code", "value": "200"}, {"name": "body", "value": "'{\"msg\":\"success\",\"code\":0,\"page\":{\"totalCount\":12570,\"pageSize\":10,\"totalPage\":1257,\"currPage\":1,\"list\":[{\"id\":12754,\"mobile\":\"18600008888\",\"content\":\"SMS_148545070:{\\\"code\\\":\\\"172170\\\"}\",\"createDate\":\"2020-10-31 13:46\",\"createBy\":null},{\"id\":12753,\"mobile\":\"18821768014\",\"content\":\"SMS_148545070:{\\\"code\\\":\\\"788005\\\"}\",\"createDate\":\"2020-10-31 13:46\",\"createBy\":null},{\"id\":12752,\"mobile\":\"15093098152\",\"content\":\"SMS_148545070:{\\\"code\\\":\\\"058731\\\"}\",\"createDate\":\"2020-10-31 13:41\",\"createBy\":null},{\"id\":12751,\"mobile\":\"18821768014\",\"content\":\"SMS_148545070:{\\\"code\\\":\\\"297419\\\"}\",\"createDate\":\"2020-10-31 13:41\",\"createBy\":null},{\"id\":12750,\"mobile\":\"18608000111\",\"content\":\"SMS_148545070:{\\\"code\\\":\\\"168296\\\"}\",\"createDate\":\"2020-10-31 13:32\",\"createBy\":null},{\"id\":12749,\"mobile\":\"18821768014\",\"content\":\"SMS_148545070:{\\\"code\\\":\\\"607652\\\"}\",\"createDate\":\"2020-10-31 13:30\",\"createBy\":null},{\"id\":12748,\"mobile\":\"18600000011\",\"content\":\"SMS_148545070:{\\\"code\\\":\\\"815976\\\"}\",\"createDate\":\"2020-10-31 13:25\",\"createBy\":null},{\"id\":12747,\"mobile\":\"15093098153\",\"content\":\"SMS_148545070:{\\\"code\\\":\\\"659829\\\"}\",\"createDate\":\"2020-10-31 13:22\",\"createBy\":null},{\"id\":12746,\"mobile\":\"18105498870\",\"content\":\"SMS_148592322:{\\\"code\\\":\\\"934413\\\"}\",\"createDate\":\"2020-10-31 11:50\",\"createBy\":null},{\"id\":12745,\"mobile\":\"17600000011\",\"content\":\"SMS_148592322:{\\\"code\\\":\\\"490284\\\"}\",\"createDate\":\"2020-10-31 11:50\",\"createBy\":null}]}}'"}], "start": 1604123814265, "stop": 1604123814265}], "parameters": [{"name": "mobile", "value": "18821768014"}], "start": 1604123814068, "stop": 1604123814265}], "parameters": [{"name": "admin_action", "value": "<action.otc_admin.OtcAdmin object at 0x000001E4F1C61278>"}], "start": 1604123814068, "stop": 1604123814266}], "start": 1604123814068, "stop": 1604123814266, "uuid": "0dd5172d-562a-4f51-a3d6-03a85360d80c", "historyId": "3f6f999f6a333b5c7b2ee6eab47264e3", "testCaseId": "ace19bad33eb0d149fdf22502bea0d9e", "fullName": "case.houtai_duojiekou.test_admin_yanzhnegma.Test_DengLu#test_admin_login", "labels": [{"name": "feature", "value": "后台——短信验证码"}, {"name": "parentSuite", "value": "case.houtai_duojiekou"}, {"name": "suite", "value": "test_admin_yanzhnegma"}, {"name": "subSuite", "value": "Test_DengLu"}, {"name": "host", "value": "ITSK-20200916WO"}, {"name": "thread", "value": "33556-MainThread"}, {"name": "framework", "value": "pytest"}, {"name": "language", "value": "cpython3"}, {"name": "package", "value": "case.houtai_duojiekou.test_admin_yanzhnegma"}]}