{"name": "后台——短信验证码", "status": "passed", "steps": [{"name": "获取短信验证码", "status": "passed", "steps": [{"name": "获取短信验证码", "status": "passed", "steps": [{"name": "请求日志", "status": "passed", "parameters": [{"name": "url", "value": "'https://shendu-dev1.sdpjw.cn/notify/api/v1/memsms/list?platform=zhengshi&time=1604121075483'"}, {"name": "method", "value": "'post'"}, {"name": "body", "value": "{'nojson': 'true', 'mobile': 18821768014, 'page': 1}"}, {"name": "header", "value": "{'Content-Type': 'application/json', 'sd_origin': 'shendu-dev1.sdpjw.cn', 'token': 'eyJhbGciOiJIUzUxMiIsInppcCI6IkRFRiJ9.eNqMWLtyJDUU_ZeJx5Rnba-hs10DVVS5WBdeyDWSZkYetdQrqWfdUEQUZFQtGQEJJBBtSMD_LIa_4OrRklqt8ZLY3Xrcx7nnPnq-WdwZtmgWqzOMTs9O0Qm6OLs8OcdodbI-X12cnF9cXlJM6OqjC7pYLnS_tofhiWk9PiGzaFZPT89XT1anl0-XC3rf-YXLJxcf2gUlOR1Pd1S19lnjRmMsVdf0HUGGLnGvjWypalra2nXUm51U7GtY4UybpR50g1uNpezSAsJ4zRHe24VGo0MuBhm8A1m9hpegIyl1Z6UisLdmnBOFNqZph-fwPLHE3U76pdiwrb9s3-GAbvVsf9QGK4R2Bv5wGt5lxyna9tTfecRnJjZy4nO-sEZC5GeQosi50PVrELwLO3iUqyhHhkmRWy76RoNd2Fuu8Y6SntPR9hIaRe_g6BUSmPIlBFgqgEsKs-MDRHQjVWu3tAE12jCs3X3UmlIQl9sEVwQjOkIYNjVPZ2i5uCiqqbl5TYKSYJbTc-10sK1o7ghhCmxPai0d8xhtmFB00wvSYOffDdLabTglBauC6mijAzIT5t5DwGe3RiJQdWCYjstLJg7Svk9NnZDDGRaCaO_kKREwquXR5Np79iM3HGcDNwKmQgoMpw4g4AYN16Ny0puhwDXjlOdYCR9SeMcOVB9jml--BSb1eukj0APFmlFGXVg9SqgnrOC36kWeqllqApJIAXc5XSu5T4AmAyE28JKxVbaIiWZLTVwq-A05YLHdwYpUwzyuWyX7LLUd8hmZOqRQWap2SBA-psQ8TZ9Zl5nYOhLbDRAyjDI31AbIkw8RsgTmexro3YbL17mqedpECGdYu4paLWjeP3ch0-3t8noybz1_ZsIzjtYT0ql3GM6hDeLdxZYRQC4RqTlQpS3zU8A01FLoAJHbmXVrJDdSOpjq1agsAq7TBTRddAjwVQT6lIFDedgybkXTMvWRLpOaElvbtJhGAUFgpj3ktv_3KaUfU4MYrzeUgm0hE2wovrQVrHRHS05e9KbIq6zEWHBDqZgHbdbvj4wI_2N0yBidxyCh4mrdaNaoL1_wOjxu90NzPyj6qodOlw0hJVghJAQ1cFINnn0gFqhlTXWX7giU7T1xkD9O-sYejMpcSQh-hwCOF59hqNDMDC82t4hbP29jOy6cKUkxG4_qA1Z9NXg7dl_wZ3ipEAEyfyV539LcivlEkvORQ1E2Co2sLatTsBJgtTkaO1Nw9iqgkNRlihM_bSxe9dJ47XzSyXydKrQeG6Wq9a7W-WcF7P2sLUtJAt6WCd8Q5zkHPumXigE4pWmxTc6LOcxQEKNiDkJdx4dUYkpzYoWJA1zFpajzSGU-NiPF3HNMz0vBtDvHcxMyVhpd2WGC4oC6Ta5JIWziBt7HQSc7PMp9Ds_X9UYguMR714hDkCD3PQum2EPINU2l-n0DWj4Xh0QuvzSqvcUC84Ff9N9Jjj5VUKtDRSY0r6EuALGHTqfH6Ux4PIhH7a0X1szdrKtEXBKB41LEGgazadtT1PRKXEGaHxlBPxFEKvqFZfK-kDUamBTOE2tG-zQP5XiEQKaO4-fS1MRtYQqUrdtZfAZkE61j1ZG7fjQ-xjVP9Fo5LFuHoq08zELiTkVujP2QHuDxUKkFKZfLiOedODhYQlWdxggsKrbup1826Ws-wWGbwZHP8cd-UShxiDoc4-f8S2Na2UiyKE4_LTM8szOx5jqNk9IFbVdo7KTe9i3wNvtSs1SwN-yPOIO2Q9tnJPwkQ4WhYA_T9EoSan-bId0drAvU2rd__vz-4a_fH97--vDmh3c__QwbNsXt7TP_-Lk_9-7tb3__8uO_3_0BJ3x6Ow1O2Lf_AQAA__8.TMfgez1EWDG8txaBTKP95Ne5YBGLMMeYRdSsCHNlzWnnDIoP5ya5l5brtnqTm0NI_Po3_ueggHYEMQQP4_xG4w'}"}], "start": 1604121075483, "stop": 1604121075483}, {"name": "响应日志", "status": "passed", "parameters": [{"name": "status_code", "value": "200"}, {"name": "body", "value": "'{\"msg\":\"success\",\"code\":0,\"page\":{\"totalCount\":12562,\"pageSize\":10,\"totalPage\":1257,\"currPage\":1,\"list\":[{\"id\":12746,\"mobile\":\"18105498870\",\"content\":\"SMS_148592322:{\\\"code\\\":\\\"934413\\\"}\",\"createDate\":\"2020-10-31 11:50\",\"createBy\":null},{\"id\":12745,\"mobile\":\"17600000011\",\"content\":\"SMS_148592322:{\\\"code\\\":\\\"490284\\\"}\",\"createDate\":\"2020-10-31 11:50\",\"createBy\":null},{\"id\":12744,\"mobile\":\"18600000011\",\"content\":\"SMS_148612329:{\\\"code\\\":\\\"990024\\\"}\",\"createDate\":\"2020-10-31 11:50\",\"createBy\":null},{\"id\":12743,\"mobile\":\"18660971397\",\"content\":\"SMS_148592322:{\\\"code\\\":\\\"990024\\\"}\",\"createDate\":\"2020-10-31 11:50\",\"createBy\":null},{\"id\":12742,\"mobile\":\"17606531995\",\"content\":\"SMS_148545070:{\\\"code\\\":\\\"514159\\\"}\",\"createDate\":\"2020-10-31 11:32\",\"createBy\":null},{\"id\":12741,\"mobile\":\"15093098153\",\"content\":\"SMS_148545070:{\\\"code\\\":\\\"333860\\\"}\",\"createDate\":\"2020-10-31 11:25\",\"createBy\":null},{\"id\":12740,\"mobile\":\"17606531995\",\"content\":\"SMS_148545070:{\\\"code\\\":\\\"451231\\\"}\",\"createDate\":\"2020-10-31 11:22\",\"createBy\":null},{\"id\":12739,\"mobile\":\"18600000011\",\"content\":\"SMS_148612329:{\\\"code\\\":\\\"990023\\\"}\",\"createDate\":\"2020-10-31 11:17\",\"createBy\":null},{\"id\":12738,\"mobile\":\"18660971397\",\"content\":\"SMS_148592322:{\\\"code\\\":\\\"990023\\\"}\",\"createDate\":\"2020-10-31 11:17\",\"createBy\":null},{\"id\":12737,\"mobile\":\"18660971397\",\"content\":\"SMS_148592322:{\\\"code\\\":\\\"990023\\\"}\",\"createDate\":\"2020-10-31 11:15\",\"createBy\":null}]}}'"}], "start": 1604121075686, "stop": 1604121075686}], "parameters": [{"name": "mobile", "value": "18821768014"}], "start": 1604121075483, "stop": 1604121075686}], "parameters": [{"name": "admin_action", "value": "<action.otc_admin.OtcAdmin object at 0x000001546C414D68>"}], "start": 1604121075483, "stop": 1604121075686}], "start": 1604121075482, "stop": 1604121075686, "uuid": "4fb5f9b6-7ae0-4863-8ac3-a8c6976dead6", "historyId": "3f6f999f6a333b5c7b2ee6eab47264e3", "testCaseId": "ace19bad33eb0d149fdf22502bea0d9e", "fullName": "case.houtai_duojiekou.test_admin_yanzhnegma.Test_DengLu#test_admin_login", "labels": [{"name": "feature", "value": "后台——短信验证码"}, {"name": "parentSuite", "value": "case.houtai_duojiekou"}, {"name": "suite", "value": "test_admin_yanzhnegma"}, {"name": "subSuite", "value": "Test_DengLu"}, {"name": "host", "value": "ITSK-20200916WO"}, {"name": "thread", "value": "28192-MainThread"}, {"name": "framework", "value": "pytest"}, {"name": "language", "value": "cpython3"}, {"name": "package", "value": "case.houtai_duojiekou.test_admin_yanzhnegma"}]}