{"name": "后台——短信验证码", "status": "broken", "statusDetails": {"message": "KeyError: '0'", "trace": "self = <case.houtai_duojiekou.test_admin_yanzhnegma.Test_DengLu object at 0x000002C6546BAC18>\nadmin_action = <action.otc_admin.OtcAdmin object at 0x000002C6546BF0F0>\n\n    @allure.title(\"后台——短信验证码\")\n    @allure.step('获取短信验证码')#测试报告显示步骤\n    def test_admin_login(self, admin_action):\n        ##获取短信验证码\n        admin_login = admin_action.admin_duanxin_yzm(mobile = 18821768014)\n>       print(admin_login['0'])\nE       KeyError: '0'\n\ntest_admin_yanzhnegma.py:22: KeyError"}, "steps": [{"name": "获取短信验证码", "status": "broken", "statusDetails": {"message": "KeyError: '0'\n", "trace": "  File \"D:\\RJ\\Python\\lib\\site-packages\\allure_commons\\_allure.py\", line 157, in impl\n    return func(*a, **kw)\n  File \"D:\\RJ\\daima\\jieKou\\yaml-pytest\\case\\houtai_duojiekou\\test_admin_yanzhnegma.py\", line 22, in test_admin_login\n    print(admin_login['0'])\n"}, "steps": [{"name": "获取短信验证码", "status": "passed", "steps": [{"name": "请求日志", "status": "passed", "parameters": [{"name": "url", "value": "'https://shendu-dev1.sdpjw.cn/notify/api/v1/memsms/list?platform=zhengshi&time=1604116765283'"}, {"name": "method", "value": "'post'"}, {"name": "body", "value": "{'nojson': 'true', 'mobile': 18821768014, 'page': 1}"}, {"name": "header", "value": "{'Content-Type': 'application/json', 'sd_origin': 'shendu-dev1.sdpjw.cn', 'token': 'eyJhbGciOiJIUzUxMiIsInppcCI6IkRFRiJ9.eNqMWLtyJDUU_ZeJx5S9tmepznYNVFHlYl14IddImhl51FKvHrNuKCIKMqogIyCBBKINCfifxfAXXD1aUqt7bBK7W4_7OPfcR8_XizvDFs0CrS7o6nKDTjDG6ORifYpO1pTC0_mHzy7P0eoM0dPFcqHtGg6fwRPTenhCZtGcrU4vzs5Wz1er5YLed2Hh-bOzS7egJKfD6Y6q1j1r3GiMpeoa2xFk6BJbbWRLVdPS1q0ja3ZSsa9ghTNtlrrXDW41lrLLCwjjNUd47xYajQ6lGGTwDmRZDS9RR1bqz0pFYG_NOCcKbUzT9i_heWSJv531S7Fh23DZvcMB3erJ_qANVgjtDPzhNL7LjlO0tTTcecRnJjZy5HO5sEZClGeQosi70Nk1CN7FHTzIVZQjw6QoLRe20WAXDpZrvKPEcjrYXkOj6B0cvUICU76EAEsFcElhdryHiG6kat2WNqBGG4a1v49aUwvicpvhSmAkRwjDZs7TCVo-Lopqam7ekqgkmuX1XHsdbCuaO0KYAtuzWkfHMkYbJhTdWEEa7P27QVr7Da-kYlVUnWz0QBbC_HsM-OTWQASqDgzTYXnJxEG697GpI3J4w2IQ3Z0yJSJGc3k0uvbEfuKG52zkRsRUSIHh1AEE3KD-elBOrOkrXAtOBY7V8CGFd-xA9TGmheVbYJLVyxABCxRrBhnzwuajhCxhFb-VFWWqFqkJSCIF3OV0reQ-A5oNhNjAS8FW2SImmi01aaniN-SAw3YHK1L107hulbRFanvkCzJ1SKG6VO2QIHxIiWmavnAuM7H1JHYbIKQfZG6oC1AgHyJkCcwPNNC7DZdvS1XTtEkQTrD2FXW2oAX__IVCd7Ar6Cm8DfyZCC84Op-QXr3HcAptFO8vtowAcplIzYEq7ZifA6ahlkIHSNwurFsjuZHSwzRfjeoi4DtdRNNHhwBfRaRPHThUhq3gVjKtUJ_oMqopqbWNi2kSEAUW2mNuh3-fUPoRNYjx-YZSsS1mggvFF66C1e5oyckra6q8KkqMAzeWimnQJv3-yIjwP0aHgtFlDDIqvtYNZg36yoWgI-B23zf3vaJvLHS6YgipwYohIaiBk6oP7AOxQC1nqr90R6Bs74mH_HHSN-5gUuZLQvQ7BnC4-AJDhWamf7W5Rdz5eZvaceVMTYrJeDQ_YM2vRm-H7gv-9K8VIkDmLyW3LS2tmE4kJR85FGWj0MDaujpFKwFWl6OpM0VnryIKWV2hOPPTxeKNlSZo56NOFupUpfXYKDVb7-Y6_6SAPc3aupRk4F2ZCA1xmnPgk36tGIBTm5ba5LSYwwwFMarmINR1vM8lpjYnVZg0wM24lHQeqczHZqSUe57pZSkYd-d0bkTGmUZXd5ioOKLukmtUCJu0gfdp0CkOD3JfwvP1fCMQXOK9b8QxSJD7gQVj7CHkmuZS_dSAVs7FMZHrL43Z3uKA-SAshu8kT59ZUGeHikJoWUN9AFIPHU-P45nweBCP2jtfWAt3i66ScMkETksJaxjMxm1PUWOVuII0PzKCfiyIVPRzx-R9JWswMCucJtaE9nkeKvGIgcwdJ8yluYm7whQpO29n9RlQTLSeVUfuhtH4GNcC0efKYd06FG3lYRISfypxY-iH9ACPh5lakHO5jnjZiaODNVSz0xiBRcXWdvxlk7_mMxyuGRz5HH_sF4Uah6TDM37Kvzym1Y2kiOL407LAsziTaq7XOCpd0HaFxl7qrW2Bt8WXmqOCu-F-xOm1G9o-JfEnGSoMBXuYpleSUPfbDOnuYF2g1r398-d3D3_9_vDu14cfv3__08-w4VLc3T4Pj5-Fc-_f_fb3Lz_8--0fcCKkt9fghX3zHwAAAP__.T5LD_HgYKx2PWAES--vYvC15IQ6QLCirx1aZj5_TwtTzy612V5WQiqR55lUp7Bq4M_tWCGvzluJLSx17ti3hjQ'}"}], "start": 1604116765283, "stop": 1604116765283}, {"name": "响应日志", "status": "passed", "parameters": [{"name": "status_code", "value": "200"}, {"name": "body", "value": "'{\"msg\":\"success\",\"code\":0,\"page\":{\"totalCount\":12562,\"pageSize\":10,\"totalPage\":1257,\"currPage\":1,\"list\":[{\"id\":12746,\"mobile\":\"18105498870\",\"content\":\"SMS_148592322:{\\\"code\\\":\\\"934413\\\"}\",\"createDate\":\"2020-10-31 11:50\",\"createBy\":null},{\"id\":12745,\"mobile\":\"17600000011\",\"content\":\"SMS_148592322:{\\\"code\\\":\\\"490284\\\"}\",\"createDate\":\"2020-10-31 11:50\",\"createBy\":null},{\"id\":12744,\"mobile\":\"18600000011\",\"content\":\"SMS_148612329:{\\\"code\\\":\\\"990024\\\"}\",\"createDate\":\"2020-10-31 11:50\",\"createBy\":null},{\"id\":12743,\"mobile\":\"18660971397\",\"content\":\"SMS_148592322:{\\\"code\\\":\\\"990024\\\"}\",\"createDate\":\"2020-10-31 11:50\",\"createBy\":null},{\"id\":12742,\"mobile\":\"17606531995\",\"content\":\"SMS_148545070:{\\\"code\\\":\\\"514159\\\"}\",\"createDate\":\"2020-10-31 11:32\",\"createBy\":null},{\"id\":12741,\"mobile\":\"15093098153\",\"content\":\"SMS_148545070:{\\\"code\\\":\\\"333860\\\"}\",\"createDate\":\"2020-10-31 11:25\",\"createBy\":null},{\"id\":12740,\"mobile\":\"17606531995\",\"content\":\"SMS_148545070:{\\\"code\\\":\\\"451231\\\"}\",\"createDate\":\"2020-10-31 11:22\",\"createBy\":null},{\"id\":12739,\"mobile\":\"18600000011\",\"content\":\"SMS_148612329:{\\\"code\\\":\\\"990023\\\"}\",\"createDate\":\"2020-10-31 11:17\",\"createBy\":null},{\"id\":12738,\"mobile\":\"18660971397\",\"content\":\"SMS_148592322:{\\\"code\\\":\\\"990023\\\"}\",\"createDate\":\"2020-10-31 11:17\",\"createBy\":null},{\"id\":12737,\"mobile\":\"18660971397\",\"content\":\"SMS_148592322:{\\\"code\\\":\\\"990023\\\"}\",\"createDate\":\"2020-10-31 11:15\",\"createBy\":null}]}}'"}], "start": 1604116765479, "stop": 1604116765479}], "parameters": [{"name": "mobile", "value": "18821768014"}], "start": 1604116765283, "stop": 1604116765479}], "parameters": [{"name": "admin_action", "value": "<action.otc_admin.OtcAdmin object at 0x000002C6546BF0F0>"}], "start": 1604116765282, "stop": 1604116765479}], "start": 1604116765282, "stop": 1604116765480, "uuid": "97b371fa-0545-4a5e-94c5-657cb0368d84", "historyId": "3f6f999f6a333b5c7b2ee6eab47264e3", "testCaseId": "ace19bad33eb0d149fdf22502bea0d9e", "fullName": "case.houtai_duojiekou.test_admin_yanzhnegma.Test_DengLu#test_admin_login", "labels": [{"name": "feature", "value": "后台——短信验证码"}, {"name": "parentSuite", "value": "case.houtai_duojiekou"}, {"name": "suite", "value": "test_admin_yanzhnegma"}, {"name": "subSuite", "value": "Test_DengLu"}, {"name": "host", "value": "ITSK-20200916WO"}, {"name": "thread", "value": "26908-MainThread"}, {"name": "framework", "value": "pytest"}, {"name": "language", "value": "cpython3"}, {"name": "package", "value": "case.houtai_duojiekou.test_admin_yanzhnegma"}]}