{"name": "后台——短信验证码", "status": "broken", "statusDetails": {"message": "KeyError: 0", "trace": "self = <case.houtai_duojiekou.test_admin_yanzhnegma.Test_DengLu object at 0x0000027690AE8DD8>\nadmin_action = <action.otc_admin.OtcAdmin object at 0x0000027690AE82E8>\n\n    @allure.title(\"后台——短信验证码\")\n    @allure.step('获取短信验证码')#测试报告显示步骤\n    def test_admin_login(self, admin_action):\n        ##获取短信验证码\n        admin_login = admin_action.admin_duanxin_yzm(mobile = 18821768014)\n>       print(admin_login[0])\nE       KeyError: 0\n\ntest_admin_yanzhnegma.py:22: KeyError"}, "steps": [{"name": "获取短信验证码", "status": "broken", "statusDetails": {"message": "KeyError: 0\n", "trace": "  File \"D:\\RJ\\Python\\lib\\site-packages\\allure_commons\\_allure.py\", line 157, in impl\n    return func(*a, **kw)\n  File \"D:\\RJ\\daima\\jieKou\\yaml-pytest\\case\\houtai_duojiekou\\test_admin_yanzhnegma.py\", line 22, in test_admin_login\n    print(admin_login[0])\n"}, "steps": [{"name": "获取短信验证码", "status": "passed", "steps": [{"name": "请求日志", "status": "passed", "parameters": [{"name": "url", "value": "'https://shendu-dev1.sdpjw.cn/notify/api/v1/memsms/list?platform=zhengshi&time=1604116755059'"}, {"name": "method", "value": "'post'"}, {"name": "body", "value": "{'nojson': 'true', 'mobile': 18821768014, 'page': 1}"}, {"name": "header", "value": "{'Content-Type': 'application/json', 'sd_origin': 'shendu-dev1.sdpjw.cn', 'token': 'eyJhbGciOiJIUzUxMiIsInppcCI6IkRFRiJ9.eNqMWMtyHDUU_ZdZjymPY8dx7xIDVVS5iAsH9hpJMyNbLXUk9cQNxYqCHVVhx4INbGCVJQv-Jxj-gqtHS2q1xmFjd-txH-ee--j5ZnFr2KJZHJPT44uLk4ujZ89WT45OT0_OjtanK3x0fLY-geX1xTlGi-VC92s4vIInpvX4hMyiWT09Pl2tnp6fnS0X9L7zC-cnqzO7oCSn4-mOqtY-a9xojKXqmr4jyNAl7rWRLVVNS1u7jnqzk4p9DSucabPUg25wq7GUXVpAGK85wnd2odFon4tBBu9AVq_hJehISt1ZqQjsrRnnRKGNadrhBTxPLHG3k34pNmzrL9t3OKBbPdsftcEKoZ2BP5yGd9lxirY99Xce8ZmJjZz4nC-skRD5GaQoci50_RoE78IOHuUqypFhUuSWi77RYBf2lmu8o6TndLS9hEbRWzh6iQSmfAkBlgrgksLs-AAR3UjV2i1tQI02DGt3H7WmFMTlNsEVwYiOEIZNzdMZWi4uimpqrt-QoCSY5fRcOR1sK5pbQpgC25NaS8c8RhsmFN30gjTY-XeNtHYbTknBqqA62uiAzIS59xDw2a2RCFTtGabj8pKJvbTvU1Mn5HCGhSDaO3lKBIxqeTS59oH9yA3H2cCNgKmQAsOpPQi4RsPVqJz0ZihwzTjlOVbChxTesT3Vh5jml2-ASb1e-gj0QLFmlFEXVo8S6gkr-K16kadqlpqAJFLAXU7XSt4lQJOBEBt4ydgqW8REs6UmLhX8hhyw2O5gRaphHtetkn2W2g75jEwdUqgsVTskCB9TYp6mz63LTGwdie0GCBlGmRtqA-TJhwhZAvM9DfRuw-WbXNU8bSKEM6xdRa0WNO-fu5Dp9nZ5PZm3nj8z4RlH6wnp1DsM59AG8e5iywggl4jU7KnSlvkpYBpqKXSAyO3MujWSGykdTPVqVBYB1-kCmi46BPgqAn3KwKE8bBm3ommZ-kiXSU2JrW1aTKOAIDDTHnLb__uU0o-pQYzXG0rBtpAJNhRf2gpWuqMlJy97U-RVVmIsuKFUzIM26_cHRoT_MTpkjM5jkFBxtW40a9SXL3gdHrf7obkfFH3dQ6fLhpASrBASgho4qQbPPhAL1LKmuku3BMr2HXGQP076xh6MylxJCH6HAI4Xn2Oo0MwMLzc3iFs_b2I7LpwpSTEbj-oDVn01eDt2X_BneKUQATJ_JXnf0tyK-USS85FDUTYKjawtq1OwEmC1ORo7U3D2MqCQ1GWKEz9tLF730njtfNLJfJ0qtB4apar1rtb5ZwXsw6wtS0kC3pYJ3xDnOQc-6VeKATilabFNzos5zFAQo2IOQl3Hh1RiSnNihYkDXMWlqPNAZT40I8Xcc0zPS8G0O8dzEzJWGl3ZYYLigLpNrkkhbOIGvouDTnZ4lPsCnq_qjUBwie9cIw5Bgtz3LJhiDyHXNJXqDw1o-VwcErn80qj2FgvMR37Rfyc5-lRBrQ4VmdC8hroAxB46nR6nM-HhIB60t15YM3ezrhJxSQSOSxFrGMymbU9R0ytxCWl-YAT9RBCp6BeWyXeFrNHApHCeWDPap3koxyMEMnUcP5emJm4LU6Bs3c7iMyCbaB2rDtz1o_Ehrnmi18ph2ToUbeV-FhJ3KnJj7Id0D4_7Si1IuVxGPO_EwcESquo0RmBRsXU__bJJX_MJDtsMDnyOP_aLQolD1OEYP-dfGtPKRpJFcfppmeGZnYk112mclC5ou0JjJ_Wmb4G32ZeapYK9YX_EGbQd2j4j4ScZKgwFe5iml5JQ-9sM6W5hXaDWvv3z5_cPf_3-8O7Xh7c_vP_pZ9iwKW5vP_GPn_tz79_99vcvP_773R9wwqe30-CEffsfAAAA__8.Bd7gMjv2cWE7rJFdYerpO1uR2GmfJK0J9WMA-yJUZwMWm8Sx1WizqP34-ez5jyHNzfiZbOZCqDJxEbsp9FqNJA'}"}], "start": 1604116755059, "stop": 1604116755059}, {"name": "响应日志", "status": "passed", "parameters": [{"name": "status_code", "value": "200"}, {"name": "body", "value": "'{\"msg\":\"success\",\"code\":0,\"page\":{\"totalCount\":12562,\"pageSize\":10,\"totalPage\":1257,\"currPage\":1,\"list\":[{\"id\":12746,\"mobile\":\"18105498870\",\"content\":\"SMS_148592322:{\\\"code\\\":\\\"934413\\\"}\",\"createDate\":\"2020-10-31 11:50\",\"createBy\":null},{\"id\":12745,\"mobile\":\"17600000011\",\"content\":\"SMS_148592322:{\\\"code\\\":\\\"490284\\\"}\",\"createDate\":\"2020-10-31 11:50\",\"createBy\":null},{\"id\":12744,\"mobile\":\"18600000011\",\"content\":\"SMS_148612329:{\\\"code\\\":\\\"990024\\\"}\",\"createDate\":\"2020-10-31 11:50\",\"createBy\":null},{\"id\":12743,\"mobile\":\"18660971397\",\"content\":\"SMS_148592322:{\\\"code\\\":\\\"990024\\\"}\",\"createDate\":\"2020-10-31 11:50\",\"createBy\":null},{\"id\":12742,\"mobile\":\"17606531995\",\"content\":\"SMS_148545070:{\\\"code\\\":\\\"514159\\\"}\",\"createDate\":\"2020-10-31 11:32\",\"createBy\":null},{\"id\":12741,\"mobile\":\"15093098153\",\"content\":\"SMS_148545070:{\\\"code\\\":\\\"333860\\\"}\",\"createDate\":\"2020-10-31 11:25\",\"createBy\":null},{\"id\":12740,\"mobile\":\"17606531995\",\"content\":\"SMS_148545070:{\\\"code\\\":\\\"451231\\\"}\",\"createDate\":\"2020-10-31 11:22\",\"createBy\":null},{\"id\":12739,\"mobile\":\"18600000011\",\"content\":\"SMS_148612329:{\\\"code\\\":\\\"990023\\\"}\",\"createDate\":\"2020-10-31 11:17\",\"createBy\":null},{\"id\":12738,\"mobile\":\"18660971397\",\"content\":\"SMS_148592322:{\\\"code\\\":\\\"990023\\\"}\",\"createDate\":\"2020-10-31 11:17\",\"createBy\":null},{\"id\":12737,\"mobile\":\"18660971397\",\"content\":\"SMS_148592322:{\\\"code\\\":\\\"990023\\\"}\",\"createDate\":\"2020-10-31 11:15\",\"createBy\":null}]}}'"}], "start": 1604116755282, "stop": 1604116755282}], "parameters": [{"name": "mobile", "value": "18821768014"}], "start": 1604116755059, "stop": 1604116755282}], "parameters": [{"name": "admin_action", "value": "<action.otc_admin.OtcAdmin object at 0x0000027690AE82E8>"}], "start": 1604116755059, "stop": 1604116755282}], "start": 1604116755059, "stop": 1604116755282, "uuid": "011d3832-fc56-4b62-b661-f7d21d75ba3b", "historyId": "3f6f999f6a333b5c7b2ee6eab47264e3", "testCaseId": "ace19bad33eb0d149fdf22502bea0d9e", "fullName": "case.houtai_duojiekou.test_admin_yanzhnegma.Test_DengLu#test_admin_login", "labels": [{"name": "feature", "value": "后台——短信验证码"}, {"name": "parentSuite", "value": "case.houtai_duojiekou"}, {"name": "suite", "value": "test_admin_yanzhnegma"}, {"name": "subSuite", "value": "Test_DengLu"}, {"name": "host", "value": "ITSK-20200916WO"}, {"name": "thread", "value": "33320-MainThread"}, {"name": "framework", "value": "pytest"}, {"name": "language", "value": "cpython3"}, {"name": "package", "value": "case.houtai_duojiekou.test_admin_yanzhnegma"}]}