{"name": "后台——短信验证码", "status": "passed", "steps": [{"name": "获取短信验证码", "status": "passed", "steps": [{"name": "获取短信验证码", "status": "passed", "steps": [{"name": "请求日志", "status": "passed", "parameters": [{"name": "url", "value": "'https://shendu-dev1.sdpjw.cn/notify/api/v1/memsms/list?platform=zhengshi&time=1604120967582'"}, {"name": "method", "value": "'post'"}, {"name": "body", "value": "{'nojson': 'true', 'mobile': 18821768014, 'page': 1}"}, {"name": "header", "value": "{'Content-Type': 'application/json', 'sd_origin': 'shendu-dev1.sdpjw.cn', 'token': 'eyJhbGciOiJIUzUxMiIsInppcCI6IkRFRiJ9.eNqMWLtyJDUU_ZeJx5THa4_ZznYNVFHlYl14IVdLmhl5uqVePWbdUEQUZFRBRkACCUQbEvA_i-EvuHq0pFb32CR2tx73ce65j56vF3eaLarF-uLydHWxPj-hqxqdnJ-vzk6eX67qk5qsz56tN6fkkpLFcqFMDYdX8MSUGp6QXlSr9SncOX2-_nC5oPedX7g8u7i0C1I0dDjdUdnaZ4UrhbGQXWU6gjRdYqO0aKmsWtradWT0Tkj2Faw0TOml6lWFW4WF6NICwrhuEN7bhUqhQy4GabwDWUbBS9CRlLqzQhLYq1nTEIk2umr7l_A8ssTdTvoF37Ctv2zf4YBq1WR_0AYrhHYa_jQ0vIuuoWhrqL_ziM-Mb8TI53yhRpznZ5CkyLnQmRoE78IOHuRK2iDNBM8t56ZSYBf2liu8o8Q0dLC9hEbSOzh6hTimzRICLCTAJbjeNT1EdCNka7eUBjVKM6zcfdTqUlAjtgmuCEZ0hDCs5zydoOXiIqmi-uYtCUqCWU7PtdPBtry6I4RJsD2ptXTMY7RhXNKN4aTCzr8bpJTbcEoKVgXV0UYHZCbMvYeAT24NRKDywDAdlpeMH4R9H5s6IoczLATR3slTImA0l0eja0_sR244zgZuBEy54BhOHUDADeqvB-XE6L7ANeOU51gJH5J4xw5UHWOaX74FJhm19BEwQLFqkDEvbD5KyBBW8FsanqdqlpqAJJLA3YbWUuwToMlAiA28ZGwVLWK82lIdlwp-Qw5YbHewImQ_jetWCpOltkM-I1OHJCpL1Q5x0gwpMU3TF9ZlxreOxHYDhPSDzA21AfLkQ4QsgfmeBmq3acTbXNU0bSKEE6xdRZ0taN4_dyHT7e3yejJvPX8mwjOOziekU-8wnEIbxLuLLSOAXCJSdaBSWeangCmopdABIrcz62okNkI4mOarUVkEXKcLaLroEOArD_QpA4fysGXciqZl6iNdRjUltrZxMY0CgsBMe8ht_-8TSj-iGrFmvqEUbAuZYEPxha1gpTtKNOSV0UVeZSXGghtKxTRok35_ZET4H6NDxug8BgkVV-sGswZ9-YLX4XG776v7XtI3BjpdNoSUYIWQEFTBSdl79oFYoJY11V26I1C298RB_jjpK3swKnMlIfgdAjhcfIGhQjPdv9rcosb6eRvbceFMSYrJeDQ_YM2vBm-H7gv-9K8lIkDmL0VjWppbMZ1Icj42UJS1RANry-oUrARYbY7GzhScvQooJHWZ4sRPG4s3RmivvRl1Ml-nCq3HRqnZejfX-ScF7GnWlqUkAW_LhG-I05wDn9RryQCc0rTYJqfFHGYoiFExB6Gua_pUYkpzYoWJA9yMS1Hnkcp8bEaKueeYnpeCcXeO50ZknGl0ZYcJigPqNrlGhbCKG3gfB53s8CD3JTxfzzcC3gi8d404BAly37NgjD2EXNFUqp8a0PK5OCRy-aUx21ssMB_4Rf-d5OgzC-rsUJEJzWuoC0DsoePpcTwTHg_iUXvnC2vmbtZVIi6JwHEpYg2D2bjtSaqN5FeQ5kdG0I85EZJ-bpm8L2QNBiaF08Sa0D7NQzkeIZCp4_i5NDVxW5gCZeftLD4DsonWserIXT8aH-OaJ_pcOSxbh6StOExC4k5Fbgz9kB7g8TBTC1IulxHPO3FwsIRqdhojsChZbcZfNulrPsFhm8GRz_HHflEocYg6HOOn_EtjWtlIsiiOPy0zPLMzseY6jaPSBW2XK-yk3poWeJt9qVkq2Bv2R5xe2aHtUxJ-kqFcU7CHKXolCLW_zZDuDtY5au3bP39-9_DX7w_vfn348fv3P_0MGzbF7e1n_vEzf-79u9_-_uWHf7_9A0749HYanLBv_gMAAP__.td3W5B_sijAUCde97qRj40FrUcqEdx2q9EzK1Mj64nncHdow25_iUXb8HTq0io31ooKijoHCiCCGg3FCQb-SPg'}"}], "start": 1604120967582, "stop": 1604120967582}, {"name": "响应日志", "status": "passed", "parameters": [{"name": "status_code", "value": "200"}, {"name": "body", "value": "'{\"msg\":\"success\",\"code\":0,\"page\":{\"totalCount\":12562,\"pageSize\":10,\"totalPage\":1257,\"currPage\":1,\"list\":[{\"id\":12746,\"mobile\":\"18105498870\",\"content\":\"SMS_148592322:{\\\"code\\\":\\\"934413\\\"}\",\"createDate\":\"2020-10-31 11:50\",\"createBy\":null},{\"id\":12745,\"mobile\":\"17600000011\",\"content\":\"SMS_148592322:{\\\"code\\\":\\\"490284\\\"}\",\"createDate\":\"2020-10-31 11:50\",\"createBy\":null},{\"id\":12744,\"mobile\":\"18600000011\",\"content\":\"SMS_148612329:{\\\"code\\\":\\\"990024\\\"}\",\"createDate\":\"2020-10-31 11:50\",\"createBy\":null},{\"id\":12743,\"mobile\":\"18660971397\",\"content\":\"SMS_148592322:{\\\"code\\\":\\\"990024\\\"}\",\"createDate\":\"2020-10-31 11:50\",\"createBy\":null},{\"id\":12742,\"mobile\":\"17606531995\",\"content\":\"SMS_148545070:{\\\"code\\\":\\\"514159\\\"}\",\"createDate\":\"2020-10-31 11:32\",\"createBy\":null},{\"id\":12741,\"mobile\":\"15093098153\",\"content\":\"SMS_148545070:{\\\"code\\\":\\\"333860\\\"}\",\"createDate\":\"2020-10-31 11:25\",\"createBy\":null},{\"id\":12740,\"mobile\":\"17606531995\",\"content\":\"SMS_148545070:{\\\"code\\\":\\\"451231\\\"}\",\"createDate\":\"2020-10-31 11:22\",\"createBy\":null},{\"id\":12739,\"mobile\":\"18600000011\",\"content\":\"SMS_148612329:{\\\"code\\\":\\\"990023\\\"}\",\"createDate\":\"2020-10-31 11:17\",\"createBy\":null},{\"id\":12738,\"mobile\":\"18660971397\",\"content\":\"SMS_148592322:{\\\"code\\\":\\\"990023\\\"}\",\"createDate\":\"2020-10-31 11:17\",\"createBy\":null},{\"id\":12737,\"mobile\":\"18660971397\",\"content\":\"SMS_148592322:{\\\"code\\\":\\\"990023\\\"}\",\"createDate\":\"2020-10-31 11:15\",\"createBy\":null}]}}'"}], "start": 1604120967825, "stop": 1604120967825}], "parameters": [{"name": "mobile", "value": "18821768014"}], "start": 1604120967582, "stop": 1604120967825}], "parameters": [{"name": "admin_action", "value": "<action.otc_admin.OtcAdmin object at 0x00000148CA088160>"}], "start": 1604120967582, "stop": 1604120967825}], "start": 1604120967582, "stop": 1604120967825, "uuid": "4f35f2b7-a818-402b-af4d-70be1a538836", "historyId": "3f6f999f6a333b5c7b2ee6eab47264e3", "testCaseId": "ace19bad33eb0d149fdf22502bea0d9e", "fullName": "case.houtai_duojiekou.test_admin_yanzhnegma.Test_DengLu#test_admin_login", "labels": [{"name": "feature", "value": "后台——短信验证码"}, {"name": "parentSuite", "value": "case.houtai_duojiekou"}, {"name": "suite", "value": "test_admin_yanzhnegma"}, {"name": "subSuite", "value": "Test_DengLu"}, {"name": "host", "value": "ITSK-20200916WO"}, {"name": "thread", "value": "21832-MainThread"}, {"name": "framework", "value": "pytest"}, {"name": "language", "value": "cpython3"}, {"name": "package", "value": "case.houtai_duojiekou.test_admin_yanzhnegma"}]}