{"name": "后台——短信验证码", "status": "passed", "steps": [{"name": "获取短信验证码", "status": "passed", "steps": [{"name": "获取短信验证码", "status": "passed", "steps": [{"name": "请求日志", "status": "passed", "parameters": [{"name": "url", "value": "'https://shendu-dev1.sdpjw.cn/notify/api/v1/memsms/list?platform=zhengshi&time=1604116943970'"}, {"name": "method", "value": "'post'"}, {"name": "body", "value": "{'nojson': 'true', 'mobile': 18821768014, 'page': 1}"}, {"name": "header", "value": "{'Content-Type': 'application/json', 'sd_origin': 'shendu-dev1.sdpjw.cn', 'token': 'eyJhbGciOiJIUzUxMiIsInppcCI6IkRFRiJ9.eNqMWLtyJDUU_ZeJx5SNB3vpbNdAFVUu1oUXco2kmZFHLfXqMeuGIqIgowoyAhJIINqQgP9ZDH_B1aMltbrHJrG79biPc8999Hy9uDNs0SxWq0t8TvDlCcZofbI6o_Tk2fnpBfx5RlanhGxWH5DFcqHtGg6fwRPTenhCZtGcXZyuzs4uPlytlgt634WFy_fPLt2CkpwOpzuqWvescaMxlqprbEeQoUtstZEtVU1LW7eOrNlJxb6CFc60WepeN7jVWMouLyCM1xzhvVtoNDqUYpDBO5BlNbxEHVmpPysVgb0145wotDFN27-A55El_nbWL8WGbcNl9w4HdKsn-4M2WCG0M_CH0_guO07R1tJw5xGfmdjIkc_lwhoJUZ5BiiLvQmfXIHgXd_AgV1GODJOitFzYRoNdOFiu8Y4Sy-lgew2Nondw9AoJTPkSAiwVwCWF2fEeIrqRqnVb2oAabRjW_j5qTS2Iy22GK4GRHCEMmzlPJ2j5uCiqqbl5Q6KSaJbXc-11sK1o7ghhCmzPah0dyxhtmFB0YwVpsPfvBmntN7ySilVRdbLRA1kI8-8x4JNbAxGoOjBMh-UlEwfp3semjsjhDYtBdHfKlIgYzeXR6NoT-4kbnrORGxFTIQWGUwcQcIP660E5saavcC04FThWw4cU3rED1ceYFpZvgUlWL0MELFCsGWTMC5uPErKEVfxWVpSpWqQmIIkUcJfTtZL7DGg2EGIDLwVbZYuYaLbUpKWK35ADDtsdrEjVT-O6VdIWqe2RL8jUIYXqUrVDgvAhJaZp-ty5zMTWk9htgJB-kLmhLkCBfIiQJTA_0EDvNly-KVVN0yZBOMHaV9TZghb88xcK3cGuoKfwNvBnIrzg6HxCevUewym0Uby_2DICyGUiNQeqtGN-DpiGWgodIHG7sG6N5EZKD9N8NaqLgO90EU0fHQJ8FZE-deBQGbaCW8m0Qn2iy6impNY2LqZJQBRYaI-5Hf59QulH1CDG5xtKxbaYCS4UX7gKVrujJScvranyqigxDtxYKqZBm_T7IyPC_xgdCkaXMcio-Fo3mDXoKxeCjoDbfd_c94q-ttDpiiGkBiuGhKAGTqo-sA_EArWcqf7SHYGyvSce8sdJ37iDSZkvCdHvGMDh4nMMFZqZ_uXmFnHn521qx5UzNSkm49H8gDW_Gr0dui_4079SiACZv5TctrS0YjqRlHzkUJSNQgNr6-oUrQRYXY6mzhSdvYooZHWF4sxPF4vXVpqgnY86WahTldZjo9RsvZvr_JMC9jRr61KSgXdlIjTEac6BT_qVYgBObVpqk9NiDjMUxKiag1DX8T6XmNqcVGHSADfjUtJ5pDIfm5FS7nmml6Vg3J3TuREZZxpd3WGi4oi6S65RIWzSBt6nQac4PMh9Ac_X841AcIn3vhHHIEHuBxaMsYeQa5pL9VMDWjkXx0SuvzRme4sD5r2wGL6TPH1mQZ0dKgqhZQ31AUg9dDw9jmfC40E8au98YS3cLbpKwiUTOC0lrGEwG7c9RY1V4grS_MgI-rEgUtHPHZP3lazBwKxwmlgT2ud5qMQjBjJ3nDCX5ibuClOk7Lyd1WdAMdF6Vh25G0bjY1wLRJ8rh3XrULSVh0lI_KnEjaEf0gM8HmZqQc7lOuJlJ44O1lDNTmMEFhVb2_GXTf6az3C4ZnDkc_yxXxRqHJIOz_gp__KYVjeSIorjT8sCz-JMqrle46h0QdsVGnupt7YF3hZfao4K7ob7EafXbmj7lMSfZKgwFOxhml5JQt1vM6S7g3WBWvf2z5_fPfz1-8PbXx9-_P7dTz_Dhktxd_s8PH4Wzr17-9vfv_zw77d_wImQ3l6DF_bNfwAAAP__.polyIAARc8uIB_-dnShnKCPzMnS10cQrnlv6bPzur_nGfrtbnO0JPV7wDGYr7nhmPgkd9U4nMC84x1IiZewp1Q'}"}], "start": 1604116943970, "stop": 1604116943970}, {"name": "响应日志", "status": "passed", "parameters": [{"name": "status_code", "value": "200"}, {"name": "body", "value": "'{\"msg\":\"success\",\"code\":0,\"page\":{\"totalCount\":12562,\"pageSize\":10,\"totalPage\":1257,\"currPage\":1,\"list\":[{\"id\":12746,\"mobile\":\"18105498870\",\"content\":\"SMS_148592322:{\\\"code\\\":\\\"934413\\\"}\",\"createDate\":\"2020-10-31 11:50\",\"createBy\":null},{\"id\":12745,\"mobile\":\"17600000011\",\"content\":\"SMS_148592322:{\\\"code\\\":\\\"490284\\\"}\",\"createDate\":\"2020-10-31 11:50\",\"createBy\":null},{\"id\":12744,\"mobile\":\"18600000011\",\"content\":\"SMS_148612329:{\\\"code\\\":\\\"990024\\\"}\",\"createDate\":\"2020-10-31 11:50\",\"createBy\":null},{\"id\":12743,\"mobile\":\"18660971397\",\"content\":\"SMS_148592322:{\\\"code\\\":\\\"990024\\\"}\",\"createDate\":\"2020-10-31 11:50\",\"createBy\":null},{\"id\":12742,\"mobile\":\"17606531995\",\"content\":\"SMS_148545070:{\\\"code\\\":\\\"514159\\\"}\",\"createDate\":\"2020-10-31 11:32\",\"createBy\":null},{\"id\":12741,\"mobile\":\"15093098153\",\"content\":\"SMS_148545070:{\\\"code\\\":\\\"333860\\\"}\",\"createDate\":\"2020-10-31 11:25\",\"createBy\":null},{\"id\":12740,\"mobile\":\"17606531995\",\"content\":\"SMS_148545070:{\\\"code\\\":\\\"451231\\\"}\",\"createDate\":\"2020-10-31 11:22\",\"createBy\":null},{\"id\":12739,\"mobile\":\"18600000011\",\"content\":\"SMS_148612329:{\\\"code\\\":\\\"990023\\\"}\",\"createDate\":\"2020-10-31 11:17\",\"createBy\":null},{\"id\":12738,\"mobile\":\"18660971397\",\"content\":\"SMS_148592322:{\\\"code\\\":\\\"990023\\\"}\",\"createDate\":\"2020-10-31 11:17\",\"createBy\":null},{\"id\":12737,\"mobile\":\"18660971397\",\"content\":\"SMS_148592322:{\\\"code\\\":\\\"990023\\\"}\",\"createDate\":\"2020-10-31 11:15\",\"createBy\":null}]}}'"}], "start": 1604116944226, "stop": 1604116944226}], "parameters": [{"name": "mobile", "value": "18821768014"}], "start": 1604116943970, "stop": 1604116944226}], "parameters": [{"name": "admin_action", "value": "<action.otc_admin.OtcAdmin object at 0x0000026550CF4588>"}], "start": 1604116943969, "stop": 1604116944226}], "start": 1604116943969, "stop": 1604116944226, "uuid": "3eb359ad-1b41-4f33-8611-8aab7aad00d7", "historyId": "3f6f999f6a333b5c7b2ee6eab47264e3", "testCaseId": "ace19bad33eb0d149fdf22502bea0d9e", "fullName": "case.houtai_duojiekou.test_admin_yanzhnegma.Test_DengLu#test_admin_login", "labels": [{"name": "feature", "value": "后台——短信验证码"}, {"name": "parentSuite", "value": "case.houtai_duojiekou"}, {"name": "suite", "value": "test_admin_yanzhnegma"}, {"name": "subSuite", "value": "Test_DengLu"}, {"name": "host", "value": "ITSK-20200916WO"}, {"name": "thread", "value": "32248-MainThread"}, {"name": "framework", "value": "pytest"}, {"name": "language", "value": "cpython3"}, {"name": "package", "value": "case.houtai_duojiekou.test_admin_yanzhnegma"}]}