{"name": "后台——短信验证码", "status": "passed", "steps": [{"name": "获取短信验证码", "status": "passed", "steps": [{"name": "获取短信验证码", "status": "passed", "steps": [{"name": "请求日志", "status": "passed", "parameters": [{"name": "url", "value": "'https://shendu-dev1.sdpjw.cn/notify/api/v1/memsms/list?platform=zhengshi&time=1604116806190'"}, {"name": "method", "value": "'post'"}, {"name": "body", "value": "{'nojson': 'true', 'mobile': 18821768014, 'page': 1}"}, {"name": "header", "value": "{'Content-Type': 'application/json', 'sd_origin': 'shendu-dev1.sdpjw.cn', 'token': 'eyJhbGciOiJIUzUxMiIsInppcCI6IkRFRiJ9.eNqMWElvJDUU_i997qBkCFnqNhNAQoqYiAzc3ba722mXXeOlJwXihOCGNNw4cIELnObIgf8zBP4Fz0vZLld1gkbKVHl5y_e-t1R_s7gzbNEsyNkKfXRJzo5OV2R9dHpO6NElOj4_enaOT84v4d_F5cViudB2BYdP4IlpPTwhs2hOzo5PT07OLo7Plwt634WF82fwFxaU5HQ43VHVumeNG42xVF1jO4IMXWKrjWypalraunVkzVYq9jWscKbNUve6wa3GUnZ5AWG84gjv3EKj0b4Ugwzegiyr4SXqyEr9WakI7K0Y50ShtWna_gU8jyzxt7N-KdZsEy67dzigWz3ZH7TBCqGdgT-cxnfZcYo2loY7j_jMxFqOfC4XVkiI8gxSFHkXOrsCwdu4gwe5inJkmBSl5cI2GuzCwXKNt5RYTgfba2gUvYOjV0hgypcQYKkALinMlvcQ0bVUrdvSBtRow7D291FrakFcbjJcCYzkCGHYzHk6QcvHRVFNzc0bEpVEs7yea6-DbURzRwhTYHtW6-hYxmjNhKJrK0iDvX83SGu_4ZVUrIqqk40eyEKYf48Bn9waiEDVnmE6LC-Z2Ev3PjZ1RA5vWAyiu1OmRMRoLo9G157YT9zwnI3ciJgKKTCc2oOAG9RfD8qJNX2Fa8GpwLEaPqTwlu2pPsS0sHwLTLJ6GSJggWLNIGNe2HyUkCWs4reyokzVIjUBSaSAu5yulNxlQLOBEBt4KdgqW8REs6EmLVX8hhxw2G5hRap-GteNkrZIbY98QaYOKVSXqi0ShA8pMU3T585lJjaexG4DhPSDzDV1AQrkQ4QsgfmBBnq75vJNqWqaNgnCCda-os4WtOCfv1DoDnYFPYW3gT8T4QVH5xPSq_cYTqGN4v3FlhFALhOp2VOlHfNzwDTUUugAiduFdSsk11J6mOarUV0EfKeLaProEOCriPSpA4fKsBXcSqYV6hNdRjUltbZxMU0CosBCe8zt8N-nlH5MDWJ8vqFUbIuZ4ELxpatgtTtacvLSmiqvihLjwI2lYhq0Sb8_MCL8j9GhYHQZg4yKr3WDWYO-ciHoCLjd9819r-hrC52uGEJqsGJICGrgpOoD-0AsUMuZ6i_dESjbO-Ihf5z0jTuYlPmSEP2OARwuPsdQoZnpX65vEXd-3qZ2XDlTk2IyHs0PWPOr0duh-4I__SuFCJD5K8ltS0srphNJyUcORdkoNLC2rk7RSoDV5WjqTNHZq4hCVlcozvx0sXhtpQna-aiThTpVaT00Ss3Wu7nOPylgT7O2LiUZeFcmQkOc5hz4pF8pBuDUpqU2OS3mMENBjKo5CHUd73OJqc1JFSYNcDMuJZ0HKvOhGSnlnmd6WQrG3TmdG5FxptHVHSYqjqi75BoVwiZt4F0adIrDg9wX8Hw93wgEl3jnG3EMEuR-YMEYewi5prlUPzWglXNxTOT6S2O2tzhgPgiL4TvJ02cW1NmhohBa1lAfgNRDx9PjeCY8HMSD9s4X1sLdoqskXDKB01LCGgazcdtT1FglriDND4ygnwgiFf3CMXlXyRoMzAqniTWhfZ6HSjxiIHPHCXNpbuKuMEXKzttZfQYUE61n1YG7YTQ-xLVA9LlyWLcORVu5n4TEn0rcGPoh3cPjfqYW5FyuI1524uhgDdXsNEZgUbGVHX_Z5K_5DIdrBgc-xx_7RaHGIenwjJ_yL49pdSMpojj-tCzwLM6kmus1jkoXtF2hsZd6a1vgbfGl5qjgbrgfcXrthrbPSPxJhgpDwR6m6ZUk1P02Q7o7WBeodW___Pn9w1-_P7z79eHtD-9_-hk2XIq72x-Gx8_Duffvfvv7lx___e4POBHS22vwwr79DwAA__8.PM28o9_Yvj0FpnZfBXqYXCha_Z3Zvmy77NljIUVtsJ59qrw6T4Uai60v7G9IUMl0b54GXUBvQfsHBdiHqoiUzg'}"}], "start": 1604116806190, "stop": 1604116806190}, {"name": "响应日志", "status": "passed", "parameters": [{"name": "status_code", "value": "200"}, {"name": "body", "value": "'{\"msg\":\"success\",\"code\":0,\"page\":{\"totalCount\":12562,\"pageSize\":10,\"totalPage\":1257,\"currPage\":1,\"list\":[{\"id\":12746,\"mobile\":\"18105498870\",\"content\":\"SMS_148592322:{\\\"code\\\":\\\"934413\\\"}\",\"createDate\":\"2020-10-31 11:50\",\"createBy\":null},{\"id\":12745,\"mobile\":\"17600000011\",\"content\":\"SMS_148592322:{\\\"code\\\":\\\"490284\\\"}\",\"createDate\":\"2020-10-31 11:50\",\"createBy\":null},{\"id\":12744,\"mobile\":\"18600000011\",\"content\":\"SMS_148612329:{\\\"code\\\":\\\"990024\\\"}\",\"createDate\":\"2020-10-31 11:50\",\"createBy\":null},{\"id\":12743,\"mobile\":\"18660971397\",\"content\":\"SMS_148592322:{\\\"code\\\":\\\"990024\\\"}\",\"createDate\":\"2020-10-31 11:50\",\"createBy\":null},{\"id\":12742,\"mobile\":\"17606531995\",\"content\":\"SMS_148545070:{\\\"code\\\":\\\"514159\\\"}\",\"createDate\":\"2020-10-31 11:32\",\"createBy\":null},{\"id\":12741,\"mobile\":\"15093098153\",\"content\":\"SMS_148545070:{\\\"code\\\":\\\"333860\\\"}\",\"createDate\":\"2020-10-31 11:25\",\"createBy\":null},{\"id\":12740,\"mobile\":\"17606531995\",\"content\":\"SMS_148545070:{\\\"code\\\":\\\"451231\\\"}\",\"createDate\":\"2020-10-31 11:22\",\"createBy\":null},{\"id\":12739,\"mobile\":\"18600000011\",\"content\":\"SMS_148612329:{\\\"code\\\":\\\"990023\\\"}\",\"createDate\":\"2020-10-31 11:17\",\"createBy\":null},{\"id\":12738,\"mobile\":\"18660971397\",\"content\":\"SMS_148592322:{\\\"code\\\":\\\"990023\\\"}\",\"createDate\":\"2020-10-31 11:17\",\"createBy\":null},{\"id\":12737,\"mobile\":\"18660971397\",\"content\":\"SMS_148592322:{\\\"code\\\":\\\"990023\\\"}\",\"createDate\":\"2020-10-31 11:15\",\"createBy\":null}]}}'"}], "start": 1604116806397, "stop": 1604116806397}], "parameters": [{"name": "mobile", "value": "18821768014"}], "start": 1604116806190, "stop": 1604116806397}], "parameters": [{"name": "admin_action", "value": "<action.otc_admin.OtcAdmin object at 0x000001CD5CE382E8>"}], "start": 1604116806190, "stop": 1604116806397}], "start": 1604116806190, "stop": 1604116806397, "uuid": "6eea2756-eaa9-452b-834a-4af4ea2a94f4", "historyId": "3f6f999f6a333b5c7b2ee6eab47264e3", "testCaseId": "ace19bad33eb0d149fdf22502bea0d9e", "fullName": "case.houtai_duojiekou.test_admin_yanzhnegma.Test_DengLu#test_admin_login", "labels": [{"name": "feature", "value": "后台——短信验证码"}, {"name": "parentSuite", "value": "case.houtai_duojiekou"}, {"name": "suite", "value": "test_admin_yanzhnegma"}, {"name": "subSuite", "value": "Test_DengLu"}, {"name": "host", "value": "ITSK-20200916WO"}, {"name": "thread", "value": "32872-MainThread"}, {"name": "framework", "value": "pytest"}, {"name": "language", "value": "cpython3"}, {"name": "package", "value": "case.houtai_duojiekou.test_admin_yanzhnegma"}]}