{"name": "后台——短信验证码", "status": "passed", "steps": [{"name": "获取短信验证码", "status": "passed", "steps": [{"name": "获取短信验证码", "status": "passed", "steps": [{"name": "请求日志", "status": "passed", "parameters": [{"name": "url", "value": "'https://shendu-dev1.sdpjw.cn/notify/api/v1/memsms/list?platform=zhengshi&time=1604116976365'"}, {"name": "method", "value": "'post'"}, {"name": "body", "value": "{'nojson': 'true', 'mobile': 18821768014, 'page': 1}"}, {"name": "header", "value": "{'Content-Type': 'application/json', 'sd_origin': 'shendu-dev1.sdpjw.cn', 'token': 'eyJhbGciOiJIUzUxMiIsInppcCI6IkRFRiJ9.eNqMWLtyJDUU_ZeJx5QHvLa3s10DVVS5WBdeyDWSZkaebqlXj1k3FBEFGVVLRkACCUQbEvA_i-EvuHq0pFZrvCR2tx73ce65j55vFneaLZrFKX56cXF5fnlC6NmTk7NTRE8uV-vVyeZ8jc6frs5OV08uFsuFMms4vIInptT4hPSiWZ2fnq1W5yBkuaD3vV-4-HB1YRekaOl4uqeys88KNwpjIfvG9ARpusRGadFR2XS0s-vI6J2Q7GtYaZnSSzWoBncKC9GnBYTxukV4bxcahQ65GKTxDmQZBS9BR1LqzgpJYG_N2pZItNFNNzyH54kl7nbSL_iGbf1l-w4HVKdm-6M2WCG01_CnpeFd9C1FW0P9nUd8ZnwjJj7nC2vEeX4GSYqcC71Zg-Bd2MGjXElbpJngueXcNArswt5yhXeUmJaOtpfQSHoHR68Qx7RdQoCFBLgE17t2gIhuhOzsltKgRmmGlbuPOl0KasU2wRXBiI4QhnXN0xlaLi6SKqpvXpOgJJjl9Fw7HWzLmztCmATbk1pLxzxGG8Yl3RhOGuz8u0FKuQ2npGBVUB1tdEBmwtx7CPjs1kgEKg8M03F5yfhB2PepqRNyOMNCEO2dPCUCRrU8mlx7z37khuNs4EbAlAuO4dQBBNyg4XpUToweClwzTnmOlfAhiXfsQNUxpvnlW2CSUUsfAQMUa0YZdWH1KCFDWMFvaXieqllqApJIAndbupZinwBNBkJs4CVjq-gQ482W6rhU8BtywGK7gxUhh3lct1KYLLUd8hmZeiRRWap2iJN2TIl5mj6zLjO-dSS2GyBkGGVuqA2QJx8iZAnM9zRQu00rXueq5mkTIZxh7SpqtaB5_9yFTLe3y-vJvPX8mQnPOFpPSKfeYTiHNoh3FztGALlEpOZApbLMTwFTUEuhA0RuZ9atkdgI4WCqV6OyCLhOF9B00SHAVx7oUwYO5WHLuBVNy9RHukxqSmxt02IaBQSBmfaQ2_7fp5R-TDVibb2hFGwLmWBD8aWtYKU7SrTkhdFFXmUlxoIbSsU8aLN-f2RE-B-jQ8boPAYJFVfrRrNGffmC1-Fxux-a-0HSVwY6XTaElGCFkBDUwEk5ePaBWKCWNdVduiNQtvfEQf446Rt7MCpzJSH4HQI4XnyGoUIzPbzY3KLW-nkb23HhTEmK2XhUH7Dqq8HbsfuCP8NLiQiQ-SvRmo7mVswnkpyPLRRlLdHI2rI6BSsBVpujsTMFZ68CCkldpjjx08bilRHaa28nnczXqULrsVGqWu9qnX9WwN7P2rKUJOBtmfANcZ5z4JN6KRmAU5oW2-S8mMMMBTEq5iDU9-2QSkxpTqwwcYCruBR1HqnMx2akmHuO6XkpmHbneG5CxkqjKztMUBxQt8k1KYRN3MD7OOhkh0e5z-H5ut4IeCvw3jXiECTIfc-CKfYQckVTqX7fgJbPxSGRyy-Nam-xwHzgF_13kqNPFdTqUJEJzWuoC0DsodPpcToTHg_iUXvrhTVzN-sqEZdE4LgUsYbBbNr2JNVG8itI8yMj6CecCEm_sEzeF7JGA5PCeWLNaJ_moRyPEMjUcfxcmpq4LUyBsnU7i8-AbKJ1rDpy14_Gx7jmiV4rh2XrkLQTh1lI3KnIjbEf0gM8Hiq1IOVyGfG8EwcHS6iq0xiBRcnWZvplk77mExy2GRz5HH_sF4USh6jDMX7OvzSmlY0ki-L00zLDMzsTa67TOCld0Ha5wk7qremAt9mXmqWCvWF_xBmUHdo-I-EnGco1BXuYoleCUPvbDOnvYJ2jzr798-f3D3_9_vD214c3P7z76WfYsClub3_kHz_35969_e3vX37897s_4IRPb6fBCfv2PwAAAP__.S62c5NA8uiyP-JZDG4lFS4a7tNFlafcWKiXrXXvZ5l9izQ1YAfh3XtOaDoSBcXdCxksxod_QhVMmAFlsmWp7YQ'}"}], "start": 1604116976365, "stop": 1604116976365}, {"name": "响应日志", "status": "passed", "parameters": [{"name": "status_code", "value": "200"}, {"name": "body", "value": "'{\"msg\":\"success\",\"code\":0,\"page\":{\"totalCount\":12562,\"pageSize\":10,\"totalPage\":1257,\"currPage\":1,\"list\":[{\"id\":12746,\"mobile\":\"18105498870\",\"content\":\"SMS_148592322:{\\\"code\\\":\\\"934413\\\"}\",\"createDate\":\"2020-10-31 11:50\",\"createBy\":null},{\"id\":12745,\"mobile\":\"17600000011\",\"content\":\"SMS_148592322:{\\\"code\\\":\\\"490284\\\"}\",\"createDate\":\"2020-10-31 11:50\",\"createBy\":null},{\"id\":12744,\"mobile\":\"18600000011\",\"content\":\"SMS_148612329:{\\\"code\\\":\\\"990024\\\"}\",\"createDate\":\"2020-10-31 11:50\",\"createBy\":null},{\"id\":12743,\"mobile\":\"18660971397\",\"content\":\"SMS_148592322:{\\\"code\\\":\\\"990024\\\"}\",\"createDate\":\"2020-10-31 11:50\",\"createBy\":null},{\"id\":12742,\"mobile\":\"17606531995\",\"content\":\"SMS_148545070:{\\\"code\\\":\\\"514159\\\"}\",\"createDate\":\"2020-10-31 11:32\",\"createBy\":null},{\"id\":12741,\"mobile\":\"15093098153\",\"content\":\"SMS_148545070:{\\\"code\\\":\\\"333860\\\"}\",\"createDate\":\"2020-10-31 11:25\",\"createBy\":null},{\"id\":12740,\"mobile\":\"17606531995\",\"content\":\"SMS_148545070:{\\\"code\\\":\\\"451231\\\"}\",\"createDate\":\"2020-10-31 11:22\",\"createBy\":null},{\"id\":12739,\"mobile\":\"18600000011\",\"content\":\"SMS_148612329:{\\\"code\\\":\\\"990023\\\"}\",\"createDate\":\"2020-10-31 11:17\",\"createBy\":null},{\"id\":12738,\"mobile\":\"18660971397\",\"content\":\"SMS_148592322:{\\\"code\\\":\\\"990023\\\"}\",\"createDate\":\"2020-10-31 11:17\",\"createBy\":null},{\"id\":12737,\"mobile\":\"18660971397\",\"content\":\"SMS_148592322:{\\\"code\\\":\\\"990023\\\"}\",\"createDate\":\"2020-10-31 11:15\",\"createBy\":null}]}}'"}], "start": 1604116976574, "stop": 1604116976574}], "parameters": [{"name": "mobile", "value": "18821768014"}], "start": 1604116976365, "stop": 1604116976574}], "parameters": [{"name": "admin_action", "value": "<action.otc_admin.OtcAdmin object at 0x000002D6B87C8DA0>"}], "start": 1604116976365, "stop": 1604116976574}], "start": 1604116976365, "stop": 1604116976574, "uuid": "9224f791-6cd6-41c9-863a-6c4986335700", "historyId": "3f6f999f6a333b5c7b2ee6eab47264e3", "testCaseId": "ace19bad33eb0d149fdf22502bea0d9e", "fullName": "case.houtai_duojiekou.test_admin_yanzhnegma.Test_DengLu#test_admin_login", "labels": [{"name": "feature", "value": "后台——短信验证码"}, {"name": "parentSuite", "value": "case.houtai_duojiekou"}, {"name": "suite", "value": "test_admin_yanzhnegma"}, {"name": "subSuite", "value": "Test_DengLu"}, {"name": "host", "value": "ITSK-20200916WO"}, {"name": "thread", "value": "16140-MainThread"}, {"name": "framework", "value": "pytest"}, {"name": "language", "value": "cpython3"}, {"name": "package", "value": "case.houtai_duojiekou.test_admin_yanzhnegma"}]}