{"name": "后台——短信验证码", "status": "broken", "statusDetails": {"message": "KeyError: 0", "trace": "self = <case.houtai_duojiekou.test_admin_yanzhnegma.Test_DengLu object at 0x00000284144B8E10>\nadmin_action = <action.otc_admin.OtcAdmin object at 0x00000284144B8240>\n\n    @allure.title(\"后台——短信验证码\")\n    @allure.step('获取短信验证码')#测试报告显示步骤\n    def test_admin_login(self, admin_action):\n        ##获取短信验证码\n        admin_login = admin_action.admin_duanxin_yzm(mobile = 18821768014)\n>       print(admin_login[0]['SMS_148545070']['code'])\nE       KeyError: 0\n\ntest_admin_yanzhnegma.py:22: KeyError"}, "steps": [{"name": "获取短信验证码", "status": "broken", "statusDetails": {"message": "KeyError: 0\n", "trace": "  File \"D:\\RJ\\Python\\lib\\site-packages\\allure_commons\\_allure.py\", line 157, in impl\n    return func(*a, **kw)\n  File \"D:\\RJ\\daima\\jieKou\\yaml-pytest\\case\\houtai_duojiekou\\test_admin_yanzhnegma.py\", line 22, in test_admin_login\n    print(admin_login[0]['SMS_148545070']['code'])\n"}, "steps": [{"name": "获取短信验证码", "status": "passed", "steps": [{"name": "请求日志", "status": "passed", "parameters": [{"name": "url", "value": "'https://shendu-dev1.sdpjw.cn/notify/api/v1/memsms/list?platform=zhengshi&time=1604116066725'"}, {"name": "method", "value": "'post'"}, {"name": "body", "value": "{'nojson': 'true', 'mobile': 18821768014, 'page': 1}"}, {"name": "header", "value": "{'Content-Type': 'application/json', 'sd_origin': 'shendu-dev1.sdpjw.cn', 'token': 'eyJhbGciOiJIUzUxMiIsInppcCI6IkRFRiJ9.eNqMWMtyHDUU_ZdZjynbScZ27xIDVVS5iAsH9hpJPSOPWupI6okbihUFO6rCjgUbsgmrLFnwP8HwF1w9WlKre2w2drce93HuuY-e7xa3hi2qRb0-PV-tjunRybP6_Ojpan1xdL66oEcXZ6cEI0yePanPF8uF7tZw-ASemNbDEzKL6mR1_PQE_qzOlgt61_qFs9Pjc7ugJKfD6Zaqxj5rXGmMpWqrriXI0CXutJENVVVDG7uOOrOVin0LK5xps9S9rnCjsZRtWkAYrznCO7tQabTPxSCDtyCr0_ASdCSl7qxUBPbWjHOiUG2qpn8BzyNL3O2kX4qabfxl-w4HdKMn-4M2WCG0NfCH0_AuW07RpqP-zgM-M1HLkc_5whoJkZ9BiiLnQtutQfA27OBBrqIcGSZFbrnoKg12YW-5xltKOk4H20toFL2Fo5dIYMqXEGCpAC4pzJb3ENFaqsZuaQNqtGFYu_uoMaUgLjcJrghGdIQwbOY8naDl4qKopub6DQlKgllOz5XTwTaiuiWEKbA9qbV0zGNUM6Fo3QlSYeffNdLabTglBauC6mijAzIT5t5DwCe3BiJQtWeYDstLJvbSvo9NHZHDGRaCaO_kKREwmsuj0bVH9iM3HGcDNwKmQgoMp_Yg4Br1V4Ny0pm-wDXjlOdYCR9SeMv2VB9iml--ASZ1eukj0AHFqkHGvLD5KKGOsILfqhN5qmapCUgiBdzldK3kLgGaDITYwEvGVtkgJqoNNXGp4DfkgMV2CytS9dO4bpTsstR2yGdkapFCZanaIkH4kBLTNH1uXWZi40hsN0BIP8isqQ2QJx8iZAnM9zTQ25rLN7mqadpECCdYu4o6W9C8f-5Cptvb5fVk3nr-TIRnHJ1PSKfeYTiFNoh3FxtGALlEpGpPlbbMTwHTUEuhA0RuZ9atkayldDDNV6OyCLhOF9B00SHAVxHoUwYO5WHLuBVNy9RHuoxqSmxt42IaBQSBmfaQ2_7f55R-Sg1ifL6hFGwLmWBD8bWtYKU7WnLysjNFXmUlxoIbSsU0aJN-f2BE-B-jQ8boPAYJFVfrBrMGffmC1-Fxu-uru17R1x10umwIKcEKISGogpOq9-wDsUAta6q7dEugbO-Ig_xh0lf2YFTmSkLwOwRwuPgcQ4Vmpn9Z3yBu_byJ7bhwpiTFZDyaH7DmV4O3Q_cFf_pXChEg8zeSdw3NrZhOJDkfORRlo9DA2rI6BSsBVpujsTMFZy8DCkldpjjx08bidSeN185HnczXqULroVFqtt7Ndf5JAXuctWUpScDbMuEb4jTnwCf9SjEApzQttslpMYcZCmJUzEGobXmfSkxpTqwwcYCbcSnqPFCZD81IMfcc0_NSMO7O8dyIjDONruwwQXFA3SbXqBBWcQPv4qCTHR7kvoDnq_lGILjEO9eIQ5Ag9z0LxthDyDVNpfqxAS2fi0Mil18as73FAvOJX_TfSY4-s6DODhWZ0LyGugDEHjqeHscz4eEgHrR3vrBm7mZdJeKSCByXItYwmI3bnqKmU-IS0vzACPqZIFLRryyTd4WswcCkcJpYE9qneSjHIwQydRw_l6YmbgtToOy8ncVnQDbROlYduOtH40Nc80SfK4dl61C0kftJSNypyI2hH9I9PO5nakHK5TLieScODpZQzU5jBBYVW3fjL5v0NZ_gsM3gwOf4Q78olDhEHY7xU_6lMa1sJFkUx5-WGZ7ZmVhzncZR6YK2KzR2Um-6BnibfalZKtgb9kecXtuh7QsSfpKhwlCwh2l6KQm1v82Q9hbWBWrs2z9__nj_1_v7D7_fv_3p4y-_woZNcXv7iX_80p_7-OHd37_9_O8Pf8AJn95OgxP2_X8AAAD__w.TmVPp_bPIpoD3hsfMW_5QJiCrjw7h_BbLnxZpFpn91vGkMQnFR51JSVDiwlQEpgE2enJJViwdw9twQly5m-DnQ'}"}], "start": 1604116066725, "stop": 1604116066725}, {"name": "响应日志", "status": "passed", "parameters": [{"name": "status_code", "value": "200"}, {"name": "body", "value": "'{\"msg\":\"success\",\"code\":0,\"page\":{\"totalCount\":12558,\"pageSize\":10,\"totalPage\":1256,\"currPage\":1,\"list\":[{\"id\":12742,\"mobile\":\"17606531995\",\"content\":\"SMS_148545070:{\\\"code\\\":\\\"514159\\\"}\",\"createDate\":\"2020-10-31 11:32\",\"createBy\":null},{\"id\":12741,\"mobile\":\"15093098153\",\"content\":\"SMS_148545070:{\\\"code\\\":\\\"333860\\\"}\",\"createDate\":\"2020-10-31 11:25\",\"createBy\":null},{\"id\":12740,\"mobile\":\"17606531995\",\"content\":\"SMS_148545070:{\\\"code\\\":\\\"451231\\\"}\",\"createDate\":\"2020-10-31 11:22\",\"createBy\":null},{\"id\":12739,\"mobile\":\"18600000011\",\"content\":\"SMS_148612329:{\\\"code\\\":\\\"990023\\\"}\",\"createDate\":\"2020-10-31 11:17\",\"createBy\":null},{\"id\":12738,\"mobile\":\"18660971397\",\"content\":\"SMS_148592322:{\\\"code\\\":\\\"990023\\\"}\",\"createDate\":\"2020-10-31 11:17\",\"createBy\":null},{\"id\":12737,\"mobile\":\"18660971397\",\"content\":\"SMS_148592322:{\\\"code\\\":\\\"990023\\\"}\",\"createDate\":\"2020-10-31 11:15\",\"createBy\":null},{\"id\":12736,\"mobile\":\"15093098153\",\"content\":\"SMS_148545070:{\\\"code\\\":\\\"813727\\\"}\",\"createDate\":\"2020-10-31 11:02\",\"createBy\":null},{\"id\":12735,\"mobile\":\"17606531995\",\"content\":\"SMS_148545070:{\\\"code\\\":\\\"834660\\\"}\",\"createDate\":\"2020-10-31 10:53\",\"createBy\":null},{\"id\":12734,\"mobile\":\"13565656568\",\"content\":\"SMS_148545070:{\\\"code\\\":\\\"868437\\\"}\",\"createDate\":\"2020-10-31 10:50\",\"createBy\":null},{\"id\":12733,\"mobile\":\"13516320359\",\"content\":\"SMS_148545070:{\\\"code\\\":\\\"731848\\\"}\",\"createDate\":\"2020-10-31 10:48\",\"createBy\":null}]}}'"}], "start": 1604116067072, "stop": 1604116067072}], "parameters": [{"name": "mobile", "value": "18821768014"}], "start": 1604116066725, "stop": 1604116067072}], "parameters": [{"name": "admin_action", "value": "<action.otc_admin.OtcAdmin object at 0x00000284144B8240>"}], "start": 1604116066724, "stop": 1604116067072}], "start": 1604116066724, "stop": 1604116067072, "uuid": "41c3742a-45b6-4ac9-9070-51ff3eb89a65", "historyId": "3f6f999f6a333b5c7b2ee6eab47264e3", "testCaseId": "ace19bad33eb0d149fdf22502bea0d9e", "fullName": "case.houtai_duojiekou.test_admin_yanzhnegma.Test_DengLu#test_admin_login", "labels": [{"name": "feature", "value": "后台——短信验证码"}, {"name": "parentSuite", "value": "case.houtai_duojiekou"}, {"name": "suite", "value": "test_admin_yanzhnegma"}, {"name": "subSuite", "value": "Test_DengLu"}, {"name": "host", "value": "ITSK-20200916WO"}, {"name": "thread", "value": "13036-MainThread"}, {"name": "framework", "value": "pytest"}, {"name": "language", "value": "cpython3"}, {"name": "package", "value": "case.houtai_duojiekou.test_admin_yanzhnegma"}]}