{"name": "后台——短信验证码", "status": "passed", "steps": [{"name": "获取短信验证码", "status": "passed", "steps": [{"name": "获取短信验证码", "status": "passed", "steps": [{"name": "请求日志", "status": "passed", "parameters": [{"name": "url", "value": "'https://shendu-dev1.sdpjw.cn/notify/api/v1/memsms/list?platform=zhengshi&time=1604117017465'"}, {"name": "method", "value": "'post'"}, {"name": "body", "value": "{'nojson': 'true', 'mobile': 18821768014, 'page': 1}"}, {"name": "header", "value": "{'Content-Type': 'application/json', 'sd_origin': 'shendu-dev1.sdpjw.cn', 'token': 'eyJhbGciOiJIUzUxMiIsInppcCI6IkRFRiJ9.eNqMWLtyJDUU_ZeJx5RnmfWjs10DVVS5WBdeyNWSZkYetdQrqWfdUEQUZFRBRkACCUQbEvA_i-EvuHq0pFb32CR2tx73ce65j56vF3eGLaoFqevzs_X68oSs67OT9QVGJ-j02cXJ5eXz1fP15rzGl-vFcqG7Gg6v4IlpPTwhs6hWZ6fr1er8dHWxXND71i-cP1td2AUlOR1Ot1Q19lnjSmMsVVt1LUGGLnGnjWyoqhra2HXUmZ1U7CtY4Uybpe51hRuNpWzTAsK45gjv7UKl0SEXgwzegaxOw0vQkZS6s1IR2KsZ50Shjama_iU8jyxxt5N-KTZs6y_bdzigGz3ZH7TBCqGtgT-chnfZcoq2HfV3HvGZiY0c-Zwv1EiI_AxSFDkX2q4Gwbuwgwe5inJkmBS55aKrNNiFveUa7yjpOB1sL6FR9A6OXiGBKV9CgKUCuKQwO95DRDdSNXZLG1CjDcPa3UeNKQVxuU1wRTCiI4RhM-fpBC0XF0U1NTdvSVASzHJ6rp0OthXVHSFMge1JraVjHqMNE4puOkEq7Py7QVq7DaekYFVQHW10QGbC3HsI-OTWQASqDgzTYXnJxEHa97GpI3I4w0IQ7Z08JQJGc3k0uvbEfuSG42zgRsBUSIHh1AEE3KD-elBOOtMXuGac8hwr4UMK79iB6mNM88u3wKROL30EOqBYNciYFzYfJdQRVvBbdSJP1Sw1AUmkgLuc1kruE6DJQIgNvGRslQ1iotpSE5cKfkMOWGx3sCJVP43rVskuS22HfEamFilUlqodEoQPKTFN0xfWZSa2jsR2A4T0g8wNtQHy5EOELIH5ngZ6t-Hyba5qmjYRwgnWrqLOFjTvn7uQ6fZ2eT2Zt54_E-EZR-cT0ql3GE6hDeLdxYYRQC4RqTpQpS3zU8A01FLoAJHbmXU1khspHUzz1agsAq7TBTRddAjwVQT6lIFDedgybkXTMvWRLqOaElvbuJhGAUFgpj3ktv_3CaUfUYMYn28oBdtCJthQfGErWOmOlpy86kyRV1mJseCGUjEN2qTfHxkR_sfokDE6j0FCxdW6waxBX77gdXjc7vvqvlf0TQedLhtCSrBCSAiq4KTqPftALFDLmuou3REo23viIH-c9JU9GJW5khD8DgEcLr7AUKGZ6V9tbhG3ft7Gdlw4U5JiMh7ND1jzq8HbofuCP_1rhQiQ-UvJu4bmVkwnkpyPHIqyUWhgbVmdgpUAq83R2JmCs1cBhaQuU5z4aWPxppPGa-ejTubrVKH12Cg1W-_mOv-kgD3N2rKUJOBtmfANcZpz4JN-rRiAU5oW2-S0mMMMBTEq5iDUtrxPJaY0J1aYOMDNuBR1HqnMx2akmHuO6XkpGHfneG5ExplGV3aYoDigbpNrVAiruIH3cdDJDg9yX8Lz9XwjEFzivWvEIUiQ-54FY-wh5JqmUv3UgJbPxSGRyy-N2d5igfnAL_rvJEefWVBnh4pMaF5DXQBiDx1Pj-OZ8HgQj9o7X1gzd7OuEnFJBI5LEWsYzMZtT1HTKXEFaX5kBP1YEKno55bJ-0LWYGBSOE2sCe3TPJTjEQKZOo6fS1MTt4UpUHbezuIzIJtoHauO3PWj8TGueaLPlcOydSjayMMkJO5U5MbQD-kBHg8ztSDlchnxvBMHB0uoZqcxAouK1d34yyZ9zSc4bDM48jn-2C8KJQ5Rh2P8lH9pTCsbSRbF8adlhmd2JtZcp3FUuqDtCo2d1NuuAd5mX2qWCvaG_RGn13Zo-5SEn2SoMBTsYZpeSULtbzOkvYN1gRr79s-f3z389fvDu18ffvz-_U8_w4ZNcXv7Q__4mT_3_t1vf__yw7_f_gEnfHo7DU7YN_8BAAD__w.byI7U8oI-9PJezmUJG7dnmb3RgjHtMDUtk2x0ElZFDqrq12aA3LXoHOD5Gpou1Oxj158yYGsuaW5_QoaxPRZhA'}"}], "start": 1604117017465, "stop": 1604117017465}, {"name": "响应日志", "status": "passed", "parameters": [{"name": "status_code", "value": "200"}, {"name": "body", "value": "'{\"msg\":\"success\",\"code\":0,\"page\":{\"totalCount\":12562,\"pageSize\":10,\"totalPage\":1257,\"currPage\":1,\"list\":[{\"id\":12746,\"mobile\":\"18105498870\",\"content\":\"SMS_148592322:{\\\"code\\\":\\\"934413\\\"}\",\"createDate\":\"2020-10-31 11:50\",\"createBy\":null},{\"id\":12745,\"mobile\":\"17600000011\",\"content\":\"SMS_148592322:{\\\"code\\\":\\\"490284\\\"}\",\"createDate\":\"2020-10-31 11:50\",\"createBy\":null},{\"id\":12744,\"mobile\":\"18600000011\",\"content\":\"SMS_148612329:{\\\"code\\\":\\\"990024\\\"}\",\"createDate\":\"2020-10-31 11:50\",\"createBy\":null},{\"id\":12743,\"mobile\":\"18660971397\",\"content\":\"SMS_148592322:{\\\"code\\\":\\\"990024\\\"}\",\"createDate\":\"2020-10-31 11:50\",\"createBy\":null},{\"id\":12742,\"mobile\":\"17606531995\",\"content\":\"SMS_148545070:{\\\"code\\\":\\\"514159\\\"}\",\"createDate\":\"2020-10-31 11:32\",\"createBy\":null},{\"id\":12741,\"mobile\":\"15093098153\",\"content\":\"SMS_148545070:{\\\"code\\\":\\\"333860\\\"}\",\"createDate\":\"2020-10-31 11:25\",\"createBy\":null},{\"id\":12740,\"mobile\":\"17606531995\",\"content\":\"SMS_148545070:{\\\"code\\\":\\\"451231\\\"}\",\"createDate\":\"2020-10-31 11:22\",\"createBy\":null},{\"id\":12739,\"mobile\":\"18600000011\",\"content\":\"SMS_148612329:{\\\"code\\\":\\\"990023\\\"}\",\"createDate\":\"2020-10-31 11:17\",\"createBy\":null},{\"id\":12738,\"mobile\":\"18660971397\",\"content\":\"SMS_148592322:{\\\"code\\\":\\\"990023\\\"}\",\"createDate\":\"2020-10-31 11:17\",\"createBy\":null},{\"id\":12737,\"mobile\":\"18660971397\",\"content\":\"SMS_148592322:{\\\"code\\\":\\\"990023\\\"}\",\"createDate\":\"2020-10-31 11:15\",\"createBy\":null}]}}'"}], "start": 1604117017872, "stop": 1604117017872}], "parameters": [{"name": "mobile", "value": "18821768014"}], "start": 1604117017465, "stop": 1604117017872}], "parameters": [{"name": "admin_action", "value": "<action.otc_admin.OtcAdmin object at 0x0000016A2FDB7128>"}], "start": 1604117017465, "stop": 1604117017872}], "start": 1604117017465, "stop": 1604117017872, "uuid": "cf71b5f3-2f9d-446e-b5e2-1af80a4bf776", "historyId": "3f6f999f6a333b5c7b2ee6eab47264e3", "testCaseId": "ace19bad33eb0d149fdf22502bea0d9e", "fullName": "case.houtai_duojiekou.test_admin_yanzhnegma.Test_DengLu#test_admin_login", "labels": [{"name": "feature", "value": "后台——短信验证码"}, {"name": "parentSuite", "value": "case.houtai_duojiekou"}, {"name": "suite", "value": "test_admin_yanzhnegma"}, {"name": "subSuite", "value": "Test_DengLu"}, {"name": "host", "value": "ITSK-20200916WO"}, {"name": "thread", "value": "28860-MainThread"}, {"name": "framework", "value": "pytest"}, {"name": "language", "value": "cpython3"}, {"name": "package", "value": "case.houtai_duojiekou.test_admin_yanzhnegma"}]}