{"name": "后台——短信验证码", "status": "broken", "statusDetails": {"message": "KeyError: 0", "trace": "self = <case.houtai_duojiekou.test_admin_yanzhnegma.Test_DengLu object at 0x0000024C134F7FD0>\nadmin_action = <action.otc_admin.OtcAdmin object at 0x0000024C134F7278>\n\n    @allure.title(\"后台——短信验证码\")\n    @allure.step('获取短信验证码')#测试报告显示步骤\n    def test_admin_login(self, admin_action):\n        ##获取短信验证码\n        admin_login = admin_action.admin_duanxin_yzm(mobile = 18821768014)\n>       print(admin_login[0]['SMS_148545070'][0]['code'])\nE       KeyError: 0\n\ntest_admin_yanzhnegma.py:22: KeyError"}, "steps": [{"name": "获取短信验证码", "status": "broken", "statusDetails": {"message": "KeyError: 0\n", "trace": "  File \"D:\\RJ\\Python\\lib\\site-packages\\allure_commons\\_allure.py\", line 157, in impl\n    return func(*a, **kw)\n  File \"D:\\RJ\\daima\\jieKou\\yaml-pytest\\case\\houtai_duojiekou\\test_admin_yanzhnegma.py\", line 22, in test_admin_login\n    print(admin_login[0]['SMS_148545070'][0]['code'])\n"}, "steps": [{"name": "获取短信验证码", "status": "passed", "steps": [{"name": "请求日志", "status": "passed", "parameters": [{"name": "url", "value": "'https://shendu-dev1.sdpjw.cn/notify/api/v1/memsms/list?platform=zhengshi&time=1604116058300'"}, {"name": "method", "value": "'post'"}, {"name": "body", "value": "{'nojson': 'true', 'mobile': 18821768014, 'page': 1}"}, {"name": "header", "value": "{'Content-Type': 'application/json', 'sd_origin': 'shendu-dev1.sdpjw.cn', 'token': 'eyJhbGciOiJIUzUxMiIsInppcCI6IkRFRiJ9.eNqMWMtyHDUU_ZdZjymPEyee3iUGqqhyERcO7DWSekYetdSR1BM3FCsKdlSFHQs2sIFVliz4n2D4C64eLanVPTYbu1uP-zj33EfPN4tbwxbVgp4jQtbr-uS0Xl-cPF3hi5PNs83q5PTJ-Zqcrc_Wz1erxXKhuw0ctk9M6-EJmUW1enb6dAV_ztfLBb1r_cLzs9MLu6Akp8PplqrGPmtcaYylaquuJcjQJe60kQ1VVUMbu446s5OKfQ0rnGmz1L2ucKOxlG1aQBhvOMJ7u1BpdMjFIIN3IKvT8BJ0JKXurFQE9jaMc6JQbaqmfwnPI0vc7aRfippt_WX7Dgd0oyf7gzZYIbQ18IfT8C5bTtG2o_7OAz4zUcuRz_nCBgmRn0GKIudC221A8C7s4EGuohwZJkVuuegqDXZhb7nGO0o6TgfbS2gUvYWjl0hgypcQYKkALinMjvcQ0Vqqxm5pA2q0YVi7-6gxpSAutwmuCEZ0hDBs5jydoOXioqim5votCUqCWU7PldPBtqK6JYQpsD2ptXTMY1QzoWjdCVJh59810tptOCUFq4LqaKMDMhPm3kPAJ7cGIlB1YJgOy0smDtK-j00dkcMZFoJo7-QpETCay6PRtUf2IzccZwM3AqZCCgynDiDgGvVXg3LSmb7ANeOU51gJH1J4xw5UH2OaX74BJnV66SPQAcWqQca8sPkooY6wgt-qE3mqZqkJSCIF3OV0o-Q-AZoMhNjAS8ZW2SAmqi01cangN-SAxXYHK1L107huleyy1HbIZ2RqkUJlqdohQfiQEtM0fWFdZmLrSGw3QEg_yKypDZAnH9T7JTDf00Dvai7f5qqmaRMhnGDtKupsQfP-uQuZbm-X15N56_kzEZ5xdD4hnXqH4RTaIN5dbBgB5BKRqgNV2jI_BUxDLYUOELmdWbdBspbSwTRfjcoi4DpdQNNFhwBfRaBPGTiUhy3jVjQtUx_pMqopsbWNi2kUEARm2kNu-3-fUvoxNYjx-YZSsC1kgg3Fl7aCle5oycmrzhR5lZUYC24oFdOgTfr9kRHhf4wOGaPzGCRUXK0bzBr05Qteh8ftrq_uekXfdNDpsiGkBCuEhKAKTqresw_EArWsqe7SLYGyvScO8odJX9mDUZkrCcHvEMDh4gsMFZqZ_lV9g7j18ya248KZkhST8Wh-wJpfDd4O3Rf86V8rRIDMX0neNTS3YjqR5HzkUJSNQgNry-oUrARYbY7GzhScvQwoJHWZ4sRPG4s3nTReOx91Ml-nCq3HRqnZejfX-ScF7HHWlqUkAW_LhG-I05wDn_RrxQCc0rTYJqfFHGYoiFExB6G25X0qMaU5scLEAW7GpajzSGU-NiPF3HNMz0vBuDvHcyMyzjS6ssMExQF1m1yjQljFDbyPg052eJD7Ep6v5huB4BLvXSMOQYLc9ywYYw8h1zSV6scGtHwuDolcfmnM9hYLzEd-0X8nOfrMgjo7VGRC8xrqAhB76Hh6HM-Ex4N41N75wpq5m3WViEsicFyKWMNgNm57ippOiUtI8yMj6CeCSEW_sEzeF7IGA5PCaWJNaJ_moRyPEMjUcfxcmpq4LUyBsvN2Fp8B2UTrWHXkrh-Nj3HNE32uHJatQ9FGHiYhcaciN4Z-SA_weJipBSmXy4jnnTg4WEI1O40RWFRs042_bNLXfILDNoMjn-MP_aJQ4hB1OMZP-ZfGtLKRZFEcf1pmeGZnYs11GkelC9qu0NhJveka4G32pWapYG_YH3F6bYe2z0j4SYYKQ8EepumlJNT-NkPaW1gXqLFv__z5_f1fv9-___X-3Q8ffvoZNmyK29tP_OPn_tyH97_9_cuP_373B5zw6e00OGHf_gcAAP__.-McsZEgeLX72PJCAm30DO5qYmKqJXMgu9eIpfdzWLlo0fmqmLwhObsDNl9ZOgXVQ0EDutIkE3VAA2mU1-OzHtA'}"}], "start": 1604116058301, "stop": 1604116058301}, {"name": "响应日志", "status": "passed", "parameters": [{"name": "status_code", "value": "200"}, {"name": "body", "value": "'{\"msg\":\"success\",\"code\":0,\"page\":{\"totalCount\":12558,\"pageSize\":10,\"totalPage\":1256,\"currPage\":1,\"list\":[{\"id\":12742,\"mobile\":\"17606531995\",\"content\":\"SMS_148545070:{\\\"code\\\":\\\"514159\\\"}\",\"createDate\":\"2020-10-31 11:32\",\"createBy\":null},{\"id\":12741,\"mobile\":\"15093098153\",\"content\":\"SMS_148545070:{\\\"code\\\":\\\"333860\\\"}\",\"createDate\":\"2020-10-31 11:25\",\"createBy\":null},{\"id\":12740,\"mobile\":\"17606531995\",\"content\":\"SMS_148545070:{\\\"code\\\":\\\"451231\\\"}\",\"createDate\":\"2020-10-31 11:22\",\"createBy\":null},{\"id\":12739,\"mobile\":\"18600000011\",\"content\":\"SMS_148612329:{\\\"code\\\":\\\"990023\\\"}\",\"createDate\":\"2020-10-31 11:17\",\"createBy\":null},{\"id\":12738,\"mobile\":\"18660971397\",\"content\":\"SMS_148592322:{\\\"code\\\":\\\"990023\\\"}\",\"createDate\":\"2020-10-31 11:17\",\"createBy\":null},{\"id\":12737,\"mobile\":\"18660971397\",\"content\":\"SMS_148592322:{\\\"code\\\":\\\"990023\\\"}\",\"createDate\":\"2020-10-31 11:15\",\"createBy\":null},{\"id\":12736,\"mobile\":\"15093098153\",\"content\":\"SMS_148545070:{\\\"code\\\":\\\"813727\\\"}\",\"createDate\":\"2020-10-31 11:02\",\"createBy\":null},{\"id\":12735,\"mobile\":\"17606531995\",\"content\":\"SMS_148545070:{\\\"code\\\":\\\"834660\\\"}\",\"createDate\":\"2020-10-31 10:53\",\"createBy\":null},{\"id\":12734,\"mobile\":\"13565656568\",\"content\":\"SMS_148545070:{\\\"code\\\":\\\"868437\\\"}\",\"createDate\":\"2020-10-31 10:50\",\"createBy\":null},{\"id\":12733,\"mobile\":\"13516320359\",\"content\":\"SMS_148545070:{\\\"code\\\":\\\"731848\\\"}\",\"createDate\":\"2020-10-31 10:48\",\"createBy\":null}]}}'"}], "start": 1604116058498, "stop": 1604116058498}], "parameters": [{"name": "mobile", "value": "18821768014"}], "start": 1604116058300, "stop": 1604116058498}], "parameters": [{"name": "admin_action", "value": "<action.otc_admin.OtcAdmin object at 0x0000024C134F7278>"}], "start": 1604116058300, "stop": 1604116058498}], "start": 1604116058300, "stop": 1604116058498, "uuid": "910b57b3-40dc-4419-aea8-d045ac8a57d6", "historyId": "3f6f999f6a333b5c7b2ee6eab47264e3", "testCaseId": "ace19bad33eb0d149fdf22502bea0d9e", "fullName": "case.houtai_duojiekou.test_admin_yanzhnegma.Test_DengLu#test_admin_login", "labels": [{"name": "feature", "value": "后台——短信验证码"}, {"name": "parentSuite", "value": "case.houtai_duojiekou"}, {"name": "suite", "value": "test_admin_yanzhnegma"}, {"name": "subSuite", "value": "Test_DengLu"}, {"name": "host", "value": "ITSK-20200916WO"}, {"name": "thread", "value": "32088-MainThread"}, {"name": "framework", "value": "pytest"}, {"name": "language", "value": "cpython3"}, {"name": "package", "value": "case.houtai_duojiekou.test_admin_yanzhnegma"}]}