{"name": "后台——短信验证码", "status": "broken", "statusDetails": {"message": "KeyError: 'SMS_148592322'", "trace": "self = <case.houtai_duojiekou.test_admin_yanzhnegma.Test_DengLu object at 0x000001CD32A68EB8>\nadmin_action = <action.otc_admin.OtcAdmin object at 0x000001CD32A68240>\n\n    @allure.title(\"后台——短信验证码\")\n    @allure.step('获取短信验证码')#测试报告显示步骤\n    def test_admin_login(self, admin_action):\n        ##获取短信验证码\n        admin_login = admin_action.admin_duanxin_yzm(mobile = 18821768014)\n        print(admin_login)\n>       print(admin_login['data']['page']['list'][0]['SMS_148592322'])\nE       KeyError: 'SMS_148592322'\n\ntest_admin_yanzhnegma.py:23: KeyError"}, "steps": [{"name": "获取短信验证码", "status": "broken", "statusDetails": {"message": "KeyError: 'SMS_148592322'\n", "trace": "  File \"D:\\RJ\\Python\\lib\\site-packages\\allure_commons\\_allure.py\", line 157, in impl\n    return func(*a, **kw)\n  File \"D:\\RJ\\daima\\jieKou\\yaml-pytest\\case\\houtai_duojiekou\\test_admin_yanzhnegma.py\", line 23, in test_admin_login\n    print(admin_login['data']['page']['list'][0]['SMS_148592322'])\n"}, "steps": [{"name": "获取短信验证码", "status": "passed", "steps": [{"name": "请求日志", "status": "passed", "parameters": [{"name": "url", "value": "'https://shendu-dev1.sdpjw.cn/notify/api/v1/memsms/list?platform=zhengshi&time=1604116963239'"}, {"name": "method", "value": "'post'"}, {"name": "body", "value": "{'nojson': 'true', 'mobile': 18821768014, 'page': 1}"}, {"name": "header", "value": "{'Content-Type': 'application/json', 'sd_origin': 'shendu-dev1.sdpjw.cn', 'token': 'eyJhbGciOiJIUzUxMiIsInppcCI6IkRFRiJ9.eNqMWLtyJDUU_ZeJx5THHuzdznYNVFHlYl14IddI6hl51FKvpJ51QxFRkFEFGQEJJBBtSMD_LIa_4OrRklrdY5PY3Xrcx7nnPnq-XtwZtqgWNVldntYXm5P16hydrC_p-gTRzfrk-TPy4dn62er87BQtlgvdbeDwCp6Y1sMTMotqdXG6Xq0unl-slwt63_qFy7PVpV1QktPhdEtVY581rjTGUrVV1xJk6BJ32siGqqqhjV1HndlJxb6CFc60WepeV7jRWMo2LSCMNxzhvV2oNDrkYpDBO5DVaXgJOpJSd1YqAnsbxjlRqDZV07-E55El7nbSL0XNtv6yfYcDutGT_UEbrBDaGvjDaXiXLado21F_5xGfmajlyOd8YYOEyM8gRZFzoe02IHgXdvAgV1GODJMit1x0lQa7sLdc4x0lHaeD7SU0it7B0SskMOVLCLBUAJcUZsd7iGgtVWO3tAE12jCs3X3UmFIQl9sEVwQjOkIYNnOeTtBycVFUU3PzlgQlwSyn59rpYFtR3RHCFNie1Fo65jGqmVC07gSpsPPvBmntNpySglVBdbTRAZkJc-8h4JNbAxGoOjBMh-UlEwdp38emjsjhDAtBtHfylAgYzeXR6NoT-5EbjrOBGwFTIQWGUwcQcIP660E56Uxf4JpxynOshA8pvGMHqo8xzS_fApM6vfQR6IBi1SBjXth8lFBHWMFv1Yk8VbPUBCSRAu5yulFynwBNBkJs4CVjq2wQE9WWmrhU8BtywGK7gxWp-mlct0p2WWo75DMytUihslTtkCB8SIlpmr6wLjOxdSS2GyCkH2TW1AbIkw8RsgTmexroXc3l21zVNG0ihBOsXUWdLWjeP3ch0-3t8noybz1_JsIzjs4npFPvMJxCG8S7iw0jgFwiUnWgSlvmp4BpqKXQASK3M-s2SNZSOpjmq1FZBFynC2i66BDgqwj0KQOH8rBl3IqmZeojXUY1Jba2cTGNAoLATHvIbf_vE0o_ogYxPt9QCraFTLCh-MJWsNIdLTl51Zkir7ISY8ENpWIatEm_PzIi_I_RIWN0HoOEiqt1g1mDvnzB6_C43ffVfa_omw46XTaElGCFkBBUwUnVe_aBWKCWNdVduiNQtvfEQf446St7MCpzJSH4HQI4XHyBoUIz07-qbxG3ft7Gdlw4U5JiMh7ND1jzq8HbofuCP_1rhQiQ-UvJu4bmVkwnkpyPHIqyUWhgbVmdgpUAq83R2JmCs1cBhaQuU5z4aWPxppPGa-ejTubrVKH12Cg1W-_mOv-kgD3N2rKUJOBtmfANcZpz4JN-rRiAU5oW2-S0mMMMBTEq5iDUtrxPJaY0J1aYOMDNuBR1HqnMx2akmHuO6XkpGHfneG5ExplGV3aYoDigbpNrVAiruIH3cdDJDg9yX8Lz9XwjEFzivWvEIUiQ-54FY-wh5JqmUv3UgJbPxSGRyy-N2d5igfnAL_rvJEefWVBnh4pMaF5DXQBiDx1Pj-OZ8HgQj9o7X1gzd7OuEnFJBI5LEWsYzMZtT1HTKXEFaX5kBP1YEKno55bJ-0LWYGBSOE2sCe3TPJTjEQKZOo6fS1MTt4UpUHbezuIzIJtoHauO3PWj8TGueaLPlcOydSjayMMkJO5U5MbQD-kBHg8ztSDlchnxvBMHB0uoZqcxAouKbbrxl036mk9w2GZw5HP8sV8UShyiDsf4Kf_SmFY2kiyK40_LDM_sTKy5TuOodEHbFRo7qbddA7zNvtQsFewN-yNOr-3Q9ikJP8lQYSjYwzS9koTa32ZIewfrAjX27Z8_v3v46_eHd78-_Pj9-59-hg2b4vb2uX_8zJ97_-63v3_54d9v_4ATPr2dBifsm_8AAAD__w.M1n-DhGB8sZ1KqdS9X2M9hUx0WtaYKuf-5MAQcj481uVY1pyF-5zjnUptiqGVfDfh_DVTrmwN66BRo5YkSXh-A'}"}], "start": 1604116963239, "stop": 1604116963239}, {"name": "响应日志", "status": "passed", "parameters": [{"name": "status_code", "value": "200"}, {"name": "body", "value": "'{\"msg\":\"success\",\"code\":0,\"page\":{\"totalCount\":12562,\"pageSize\":10,\"totalPage\":1257,\"currPage\":1,\"list\":[{\"id\":12746,\"mobile\":\"18105498870\",\"content\":\"SMS_148592322:{\\\"code\\\":\\\"934413\\\"}\",\"createDate\":\"2020-10-31 11:50\",\"createBy\":null},{\"id\":12745,\"mobile\":\"17600000011\",\"content\":\"SMS_148592322:{\\\"code\\\":\\\"490284\\\"}\",\"createDate\":\"2020-10-31 11:50\",\"createBy\":null},{\"id\":12744,\"mobile\":\"18600000011\",\"content\":\"SMS_148612329:{\\\"code\\\":\\\"990024\\\"}\",\"createDate\":\"2020-10-31 11:50\",\"createBy\":null},{\"id\":12743,\"mobile\":\"18660971397\",\"content\":\"SMS_148592322:{\\\"code\\\":\\\"990024\\\"}\",\"createDate\":\"2020-10-31 11:50\",\"createBy\":null},{\"id\":12742,\"mobile\":\"17606531995\",\"content\":\"SMS_148545070:{\\\"code\\\":\\\"514159\\\"}\",\"createDate\":\"2020-10-31 11:32\",\"createBy\":null},{\"id\":12741,\"mobile\":\"15093098153\",\"content\":\"SMS_148545070:{\\\"code\\\":\\\"333860\\\"}\",\"createDate\":\"2020-10-31 11:25\",\"createBy\":null},{\"id\":12740,\"mobile\":\"17606531995\",\"content\":\"SMS_148545070:{\\\"code\\\":\\\"451231\\\"}\",\"createDate\":\"2020-10-31 11:22\",\"createBy\":null},{\"id\":12739,\"mobile\":\"18600000011\",\"content\":\"SMS_148612329:{\\\"code\\\":\\\"990023\\\"}\",\"createDate\":\"2020-10-31 11:17\",\"createBy\":null},{\"id\":12738,\"mobile\":\"18660971397\",\"content\":\"SMS_148592322:{\\\"code\\\":\\\"990023\\\"}\",\"createDate\":\"2020-10-31 11:17\",\"createBy\":null},{\"id\":12737,\"mobile\":\"18660971397\",\"content\":\"SMS_148592322:{\\\"code\\\":\\\"990023\\\"}\",\"createDate\":\"2020-10-31 11:15\",\"createBy\":null}]}}'"}], "start": 1604116963436, "stop": 1604116963436}], "parameters": [{"name": "mobile", "value": "18821768014"}], "start": 1604116963239, "stop": 1604116963436}], "parameters": [{"name": "admin_action", "value": "<action.otc_admin.OtcAdmin object at 0x000001CD32A68240>"}], "start": 1604116963239, "stop": 1604116963436}], "start": 1604116963238, "stop": 1604116963436, "uuid": "abde2caa-4c6e-4116-9b78-c1772c160150", "historyId": "3f6f999f6a333b5c7b2ee6eab47264e3", "testCaseId": "ace19bad33eb0d149fdf22502bea0d9e", "fullName": "case.houtai_duojiekou.test_admin_yanzhnegma.Test_DengLu#test_admin_login", "labels": [{"name": "feature", "value": "后台——短信验证码"}, {"name": "parentSuite", "value": "case.houtai_duojiekou"}, {"name": "suite", "value": "test_admin_yanzhnegma"}, {"name": "subSuite", "value": "Test_DengLu"}, {"name": "host", "value": "ITSK-20200916WO"}, {"name": "thread", "value": "32924-MainThread"}, {"name": "framework", "value": "pytest"}, {"name": "language", "value": "cpython3"}, {"name": "package", "value": "case.houtai_duojiekou.test_admin_yanzhnegma"}]}