{"name": "找回密码", "status": "passed", "steps": [{"name": "找回密码", "status": "passed", "steps": [{"name": "前台-找回密码—发送验证码", "status": "passed", "steps": [{"name": "请求日志", "status": "passed", "parameters": [{"name": "url", "value": "'https://shendu-dev1.sdpjw.cn/user/noauth/api/v1/retrPwdGetTelCaptcha?platform=zhengshi&time=1604122912723'"}, {"name": "method", "value": "'post'"}, {"name": "body", "value": "{'messageType': 0, 'mobile': 18821768014}"}, {"name": "header", "value": "{'Content-Type': 'application/json', 'sd_origin': 'shendu-dev1.sdpjw.cn'}"}], "start": 1604122912723, "stop": 1604122912723}, {"name": "响应日志", "status": "passed", "parameters": [{"name": "status_code", "value": "200"}, {"name": "body", "value": "'{\"msg\":\"success\",\"code\":0}'"}], "start": 1604122912952, "stop": 1604122912952}], "parameters": [{"name": "mobile", "value": "18821768014"}], "start": 1604122912723, "stop": 1604122912952}, {"name": "获取短信验证码", "status": "passed", "steps": [{"name": "请求日志", "status": "passed", "parameters": [{"name": "url", "value": "'https://shendu-dev1.sdpjw.cn/notify/api/v1/memsms/list?platform=zhengshi&time=1604122912953'"}, {"name": "method", "value": "'post'"}, {"name": "body", "value": "{'nojson': 'true', 'mobile': 18821768014, 'page': 1}"}, {"name": "header", "value": "{'Content-Type': 'application/json', 'sd_origin': 'shendu-dev1.sdpjw.cn', 'token': 'eyJhbGciOiJIUzUxMiIsInppcCI6IkRFRiJ9.eNqMWLtyJDUU_ZeJxxR-MXZnuwaqqHKxLryQayT1jDxqqVdSz7qhiCjIqFoyAhI2WaINCfifxfAXXD1aUqt7bBK7W4_7OPfcR893izvDFtXifLU6P7_Al0cnp6vV0RmpL44uyOn5ETqpcX15fEbI2eliudDdGg4fwxPTenhCZlEdf_Lx2fHJyeXx6XJB71u_sDpZreyCkpwOp1uqGvuscaUxlqqtupYgQ5e400Y2VFUNbew66sxWKvYtrHCmzVL3usKNxlK2aQFhvOYI7-xCpdE-F4MM3oKsTsNL0JGUurNSEdhbM86JQrWpmv45PI8scbeTfilqtvGX7Tsc0I2e7A_aYIXQ1sAfTsO7bDlFm476O4_4zEQtRz7nC2skRH4GKYqcC223BsHbsIMHuYpyZJgUueWiqzTYhb3lGm8p6TgdbC-hUfQOjl4hgSlfQoClArikMFveQ0RrqRq7pQ2o0YZh7e6jxpSCuNwkuCIY0RHCsJnzdIKWi4uimpqb1yQoCWY5PddOB9uI6o4QpsD2pNbSMY9RzYSidSdIhZ1_N0hrt-GUFKwKqqONDshMmHsPAZ_cGohA1Z5hOiwvmdhL-z42dUQOZ1gIor2Tp0TAaC6PRtee2I_ccJwN3AiYCikwnNqDgBvUXw_KSWf6AteMU55jJXxI4S3bU32IaX75FpjU6aWPQAcUqwYZ88Lmo4Q6wgp-q07kqZqlJiCJFHCX07WSuwRoMhBiAy8ZW2WDmKg21MSlgt-QAxbbLaxI1U_julGyy1LbIZ-RqUUKlaVqiwThQ0pM0_SZdZmJjSOx3QAh_SCzpjZAnnyIkCUw39NAb2suX-eqpmkTIZxg7SrqbEHz_rkLmW5vl9eTeev5MxGecXQ-IZ16h-EU2iDeXWwYAeQSkao9VdoyPwVMQy2FDhC5nVm3RrKW0sE0X43KIuA6XUDTRYcAX0WgTxk4lIct41Y0LVMf6TKqKbG1jYtpFBAEZtpDbvt_n1P6KTWI8fmGUrAtZIINxde2gpXuaMnJi84UeZWVGAtuKBXToE36_YER4X-MDhmj8xgkVFytG8wa9OULXofH7b6v7ntFX3XQ6bIhpAQrhISgCk6q3rMPxAK1rKnu0h2Bsr0jDvLHSV_Zg1GZKwnB7xDA4eIzDBWamf5FfYu49fM2tuPCmZIUk_FofsCaXw3eDt0X_OlfKkSAzN9I3jU0t2I6keR85FCUjUIDa8vqFKwEWG2Oxs4UnL0KKCR1meLETxuLV500XjsfdTJfpwqth0ap2Xo31_knBexp1palJAFvy4RviNOcA5_0S8UAnNK02CanxRxmKIhRMQehtuV9KjGlObHCxAFuxqWo80BlPjQjxdxzTM9Lwbg7x3MjMs40urLDBMUBdZtco0JYxQ28i4NOdniQ-xyer-cbgeAS71wjDkGC3PcsGGMPIdc0leqnBrR8Lg6JXH5pzPYWC8xHftF_Jzn6zII6O1RkQvMa6gIQe-h4ehzPhIeDeNDe-cKauZt1lYhLInBciljDYDZue4qaTokrSPMDI-hngkhFv7JM3hWyBgOTwmliTWif5qEcjxDI1HH8XJqauC1MgbLzdhafAdlE61h14K4fjQ9xzRN9rhyWrUPRRu4nIXGnIjeGfkj38LifqQUpl8uI5504OFhCNTuNEVhUbN2Nv2zS13yCwzaDA5_jj_2iUOIQdTjGT_mXxrSykWRRHH9aZnhmZ2LNdRpHpQvartDYSb3tGuBt9qVmqWBv2B9xem2Hti9I-EmGCkPBHqbplSTU_jZD2jtYF6ixb__8-ePDX-8e3v_-8OanD7_8Chs2xe3tU__4pT_34f3bv3_7-d8f_oATPr2dBifs-_8AAAD__w.JRij_ij6kp6zoVZqfTpXsOqZzhT_A_eCvwx7Gcy-OWMPdRroD3KaYlcRbpRb2iczJB_0IfumoB_G6PCa0_nZQw'}"}], "start": 1604122912953, "stop": 1604122912953}, {"name": "响应日志", "status": "passed", "parameters": [{"name": "status_code", "value": "200"}, {"name": "body", "value": "'{\"msg\":\"success\",\"code\":0,\"page\":{\"totalCount\":12567,\"pageSize\":10,\"totalPage\":1257,\"currPage\":1,\"list\":[{\"id\":12751,\"mobile\":\"18821768014\",\"content\":\"SMS_148545070:{\\\"code\\\":\\\"297419\\\"}\",\"createDate\":\"2020-10-31 13:41\",\"createBy\":null},{\"id\":12750,\"mobile\":\"18608000111\",\"content\":\"SMS_148545070:{\\\"code\\\":\\\"168296\\\"}\",\"createDate\":\"2020-10-31 13:32\",\"createBy\":null},{\"id\":12749,\"mobile\":\"18821768014\",\"content\":\"SMS_148545070:{\\\"code\\\":\\\"607652\\\"}\",\"createDate\":\"2020-10-31 13:30\",\"createBy\":null},{\"id\":12748,\"mobile\":\"18600000011\",\"content\":\"SMS_148545070:{\\\"code\\\":\\\"815976\\\"}\",\"createDate\":\"2020-10-31 13:25\",\"createBy\":null},{\"id\":12747,\"mobile\":\"15093098153\",\"content\":\"SMS_148545070:{\\\"code\\\":\\\"659829\\\"}\",\"createDate\":\"2020-10-31 13:22\",\"createBy\":null},{\"id\":12746,\"mobile\":\"18105498870\",\"content\":\"SMS_148592322:{\\\"code\\\":\\\"934413\\\"}\",\"createDate\":\"2020-10-31 11:50\",\"createBy\":null},{\"id\":12745,\"mobile\":\"17600000011\",\"content\":\"SMS_148592322:{\\\"code\\\":\\\"490284\\\"}\",\"createDate\":\"2020-10-31 11:50\",\"createBy\":null},{\"id\":12744,\"mobile\":\"18600000011\",\"content\":\"SMS_148612329:{\\\"code\\\":\\\"990024\\\"}\",\"createDate\":\"2020-10-31 11:50\",\"createBy\":null},{\"id\":12743,\"mobile\":\"18660971397\",\"content\":\"SMS_148592322:{\\\"code\\\":\\\"990024\\\"}\",\"createDate\":\"2020-10-31 11:50\",\"createBy\":null},{\"id\":12742,\"mobile\":\"17606531995\",\"content\":\"SMS_148545070:{\\\"code\\\":\\\"514159\\\"}\",\"createDate\":\"2020-10-31 11:32\",\"createBy\":null}]}}'"}], "start": 1604122913172, "stop": 1604122913172}], "parameters": [{"name": "mobile", "value": "18821768014"}], "start": 1604122912953, "stop": 1604122913172}], "parameters": [{"name": "first_ad_action", "value": "<action.merchant.Merchant object at 0x000002D08AF9A358>"}, {"name": "admin_action", "value": "<action.otc_admin.OtcAdmin object at 0x000002D08AF9C7F0>"}], "start": 1604122912723, "stop": 1604122913172}], "start": 1604122912723, "stop": 1604122913172, "uuid": "7d4c7144-a8a1-4e06-b13f-7e645e2cd09e", "historyId": "305b7f2012b095ee791988d5d5a29a46", "testCaseId": "b99f82a8b6e45f9a09d3e405035b9ae8", "fullName": "case.qiantai_duo_jiekou.01_yangshi.test_03zhaohuimima.Test#test_denglu", "labels": [{"name": "feature", "value": "找回密码"}, {"name": "parentSuite", "value": "case.qiantai_duo_jiekou.01_yangshi"}, {"name": "suite", "value": "test_03zhaohuimima"}, {"name": "subSuite", "value": "Test"}, {"name": "host", "value": "ITSK-20200916WO"}, {"name": "thread", "value": "32344-MainThread"}, {"name": "framework", "value": "pytest"}, {"name": "language", "value": "cpython3"}, {"name": "package", "value": "case.qiantai_duo_jiekou.01_yangshi.test_03zhaohuimima"}]}