{"name": "找回密码", "status": "passed", "steps": [{"name": "找回密码", "status": "passed", "steps": [{"name": "前台-找回密码—发送验证码", "status": "passed", "steps": [{"name": "请求日志", "status": "passed", "parameters": [{"name": "url", "value": "'https://shendu-dev1.sdpjw.cn/user/noauth/api/v1/retrPwdGetTelCaptcha?platform=zhengshi&time=1604123189448'"}, {"name": "method", "value": "'post'"}, {"name": "body", "value": "{'messageType': 0, 'mobile': 18821768014}"}, {"name": "header", "value": "{'Content-Type': 'application/json', 'sd_origin': 'shendu-dev1.sdpjw.cn'}"}], "start": 1604123189448, "stop": 1604123189448}, {"name": "响应日志", "status": "passed", "parameters": [{"name": "status_code", "value": "200"}, {"name": "body", "value": "'{\"msg\":\"success\",\"code\":0}'"}], "start": 1604123189691, "stop": 1604123189691}], "parameters": [{"name": "mobile", "value": "18821768014"}], "start": 1604123189448, "stop": 1604123189691}, {"name": "获取短信验证码", "status": "passed", "steps": [{"name": "请求日志", "status": "passed", "parameters": [{"name": "url", "value": "'https://shendu-dev1.sdpjw.cn/notify/api/v1/memsms/list?platform=zhengshi&time=1604123189691'"}, {"name": "method", "value": "'post'"}, {"name": "body", "value": "{'nojson': 'true', 'mobile': 18821768014, 'page': 1}"}, {"name": "header", "value": "{'Content-Type': 'application/json', 'sd_origin': 'shendu-dev1.sdpjw.cn', 'token': 'eyJhbGciOiJIUzUxMiIsInppcCI6IkRFRiJ9.eNqMWMtyHDUU_ZdZjyk7dsWZ3iUGqqhyERcO7DWSZkYetdSR1JM0FCsKdlSRHQs2sIFVliz4n2D4C64eLanVGpuN3a3HfZx77qPnm8WdYYtmcU4uL-hThE4QPX92cnF6eXHybLU5Pblc0dXl5ZPLC7Sii-VC92s4fAZPTOvxCZlFc_b09OLsyfnZ6nS5oG87vwD3VnZBSU7H0x1VrX3WuNEYS9U1fUeQoUvcayNbqpqWtnYd9WYnFfsaVjjTZqkH3eBWYym7tIAwXnOE93ah0eiQi0EG70BWr-El6EhK3VmpCOytGedEoY1p2uEFPE8scbeTfik2bOsv23c4oFs92x-1wQqhnYE_nIZ32XGKtj31dx7wmYmNnPicL6yREPkZpChyLnT9GgTvwg4e5SrKkWFS5JaLvtFgF_aWa7yjpOd0tL2ERtE7OHqFBKZ8CQGWCuCSwuz4ABHdSNXaLW1AjTYMa3cftaYUxOU2wRXBiI4Qhk3N0xlaLi6Kampu3pCgJJjl9Fw7HWwrmjtCmALbk1pLxzxGGyYU3fSCNNj5d4O0dhtOScGqoDra6IDMhLn3EPDZrZEIVB0YpuPykomDtO9TUyfkcIaFINo7eUoEjGp5NLn2yH7khuNs4EbAVEiB4dQBBNyg4XpUTnozFLhmnPIcK-FDCu_YgepjTPPLt8CkXi99BHqgWDPKqAurRwn1hBX8Vr3IUzVLTUASKeAup2sl9wnQZCDEBl4ytsoWMdFsqYlLBb8hByy2O1iRapjHdatkn6W2Qz4jU4cUKkvVDgnCx5SYp-lz6zITW0diuwFChlHmhtoAefIhQpbAfE8Dvdtw-SZXNU-bCOEMa1dRqwXN--cuZLq9XV5P5q3nz0x4xtF6Qjr1DsM5tEG8u9gyAsglIjUHqrRlfgqYhloKHSByO7NujeRGSgdTvRqVRcB1uoCmiw4BvopAnzJwKA9bxq1oWqY-0mVSU2JrmxbTKCAIzLSH3Pb_PqX0Y2oQ4_WGUrAtZIINxZe2gpXuaMnJy94UeZWVGAtuKBXzoM36_ZER4X-MDhmj8xgkVFytG80a9eULXofH7e3QvB0Ufd1Dp8uGkBKsEBKCGjipBs8-EAvUsqa6S3cEyvaeOMgfJn1jD0ZlriQEv0MAx4vPMVRoZoaXm1vErZ-3sR0XzpSkmI1H9QGrvhq8Hbsv-DO8UogAmb-SvG9pbsV8Isn5yKEoG4VG1pbVKVgJsNocjZ0pOHsVUEjqMsWJnzYWr3tpvHY-6WS-ThVaj41S1XpX6_yzAvY4a8tSkoC3ZcI3xHnOgU_6lWIATmlabJPzYg4zFMSomINQ1_EhlZjSnFhh4gBXcSnqPFKZj81IMfcc0_NSMO3O8dyEjJVGV3aYoDigbpNrUgibuIH3cdDJDo9yX8Dzdb0RCC7x3jXiECTIfc-CKfYQck1TqX5sQMvn4pDI5ZdGtbdYYD7yi_47ydGnCmp1qMiE5jXUBSD20On0OJ0JjwfxqL31wpq5m3WViEsicFyKWMNgNm17ippeiStI8yMj6CeCSEW_sEzeF7JGA5PCeWLNaJ_moRyPEMjUcfxcmpq4LUyBsnU7i8-AbKJ1rDpy14_Gx7jmiV4rh2XrULSVh1lI3KnIjbEf0gM8Hiq1IOVyGfG8EwcHS6iq0xiBRcXW_fTLJn3NJzhsMzjyOf7QLwolDlGHY_ycf2lMKxtJFsXpp2WGZ3Ym1lyncVK6oO0KjZ3U274F3mZfapYK9ob9EWfQdmj7jISfZKgwFOxhml5JQu1vM6S7g3WBWvv2z5_f3__1-_37X-9_-uHDu59hw6a4vX3uHz_35z68_-3vX37897s_4IRPb6fBCfv2PwAAAP__.CsMJzwuNZBcXXgqDWqtFq0jhhUGD0ipv8om6lpes78GdPEy2f4_DEdnsNaGj9J-fzskJ84mEyBfKfUm44F3eTA'}"}], "start": 1604123189691, "stop": 1604123189691}, {"name": "响应日志", "status": "passed", "parameters": [{"name": "status_code", "value": "200"}, {"name": "body", "value": "'{\"msg\":\"success\",\"code\":0,\"page\":{\"totalCount\":12569,\"pageSize\":10,\"totalPage\":1257,\"currPage\":1,\"list\":[{\"id\":12753,\"mobile\":\"18821768014\",\"content\":\"SMS_148545070:{\\\"code\\\":\\\"788005\\\"}\",\"createDate\":\"2020-10-31 13:46\",\"createBy\":null},{\"id\":12752,\"mobile\":\"15093098152\",\"content\":\"SMS_148545070:{\\\"code\\\":\\\"058731\\\"}\",\"createDate\":\"2020-10-31 13:41\",\"createBy\":null},{\"id\":12751,\"mobile\":\"18821768014\",\"content\":\"SMS_148545070:{\\\"code\\\":\\\"297419\\\"}\",\"createDate\":\"2020-10-31 13:41\",\"createBy\":null},{\"id\":12750,\"mobile\":\"18608000111\",\"content\":\"SMS_148545070:{\\\"code\\\":\\\"168296\\\"}\",\"createDate\":\"2020-10-31 13:32\",\"createBy\":null},{\"id\":12749,\"mobile\":\"18821768014\",\"content\":\"SMS_148545070:{\\\"code\\\":\\\"607652\\\"}\",\"createDate\":\"2020-10-31 13:30\",\"createBy\":null},{\"id\":12748,\"mobile\":\"18600000011\",\"content\":\"SMS_148545070:{\\\"code\\\":\\\"815976\\\"}\",\"createDate\":\"2020-10-31 13:25\",\"createBy\":null},{\"id\":12747,\"mobile\":\"15093098153\",\"content\":\"SMS_148545070:{\\\"code\\\":\\\"659829\\\"}\",\"createDate\":\"2020-10-31 13:22\",\"createBy\":null},{\"id\":12746,\"mobile\":\"18105498870\",\"content\":\"SMS_148592322:{\\\"code\\\":\\\"934413\\\"}\",\"createDate\":\"2020-10-31 11:50\",\"createBy\":null},{\"id\":12745,\"mobile\":\"17600000011\",\"content\":\"SMS_148592322:{\\\"code\\\":\\\"490284\\\"}\",\"createDate\":\"2020-10-31 11:50\",\"createBy\":null},{\"id\":12744,\"mobile\":\"18600000011\",\"content\":\"SMS_148612329:{\\\"code\\\":\\\"990024\\\"}\",\"createDate\":\"2020-10-31 11:50\",\"createBy\":null}]}}'"}], "start": 1604123189886, "stop": 1604123189886}], "parameters": [{"name": "mobile", "value": "18821768014"}], "start": 1604123189691, "stop": 1604123189886}, {"name": "前台-找回密码", "status": "passed", "steps": [{"name": "请求日志", "status": "passed", "parameters": [{"name": "url", "value": "'https://shendu-dev1.sdpjw.cn/user/noauth/api/v1/register?platform=zhengshi&time=1604123189886'"}, {"name": "method", "value": "'post'"}, {"name": "body", "value": "{'captcha': '788005', 'channel': 1, 'inviteCode': 123456, 'mobile': 18821768014, 'name': '', 'password': 123456, 'rePassword': 123456}"}, {"name": "header", "value": "{'Content-Type': 'application/json', 'sd_origin': 'shendu-dev1.sdpjw.cn', 'token': 'eyJhbGciOiJIUzUxMiIsInppcCI6IkRFRiJ9.eNqMWMtyHDUU_ZdZjyk7dsWZ3iUGqqhyERcO7DWSZkYetdSR1JM0FCsKdlSRHQs2sIFVliz4n2D4C64eLanVGpuN3a3HfZx77qPnm8WdYYtmcU4uL-hThE4QPX92cnF6eXHybLU5Pblc0dXl5ZPLC7Sii-VC92s4fAZPTOvxCZlFc_b09OLsyfnZ6nS5oG87vwD3VnZBSU7H0x1VrX3WuNEYS9U1fUeQoUvcayNbqpqWtnYd9WYnFfsaVjjTZqkH3eBWYym7tIAwXnOE93ah0eiQi0EG70BWr-El6EhK3VmpCOytGedEoY1p2uEFPE8scbeTfik2bOsv23c4oFs92x-1wQqhnYE_nIZ32XGKtj31dx7wmYmNnPicL6yREPkZpChyLnT9GgTvwg4e5SrKkWFS5JaLvtFgF_aWa7yjpOd0tL2ERtE7OHqFBKZ8CQGWCuCSwuz4ABHdSNXaLW1AjTYMa3cftaYUxOU2wRXBiI4Qhk3N0xlaLi6Kampu3pCgJJjl9Fw7HWwrmjtCmALbk1pLxzxGGyYU3fSCNNj5d4O0dhtOScGqoDra6IDMhLn3EPDZrZEIVB0YpuPykomDtO9TUyfkcIaFINo7eUoEjGp5NLn2yH7khuNs4EbAVEiB4dQBBNyg4XpUTnozFLhmnPIcK-FDCu_YgepjTPPLt8CkXi99BHqgWDPKqAurRwn1hBX8Vr3IUzVLTUASKeAup2sl9wnQZCDEBl4ytsoWMdFsqYlLBb8hByy2O1iRapjHdatkn6W2Qz4jU4cUKkvVDgnCx5SYp-lz6zITW0diuwFChlHmhtoAefIhQpbAfE8Dvdtw-SZXNU-bCOEMa1dRqwXN--cuZLq9XV5P5q3nz0x4xtF6Qjr1DsM5tEG8u9gyAsglIjUHqrRlfgqYhloKHSByO7NujeRGSgdTvRqVRcB1uoCmiw4BvopAnzJwKA9bxq1oWqY-0mVSU2JrmxbTKCAIzLSH3Pb_PqX0Y2oQ4_WGUrAtZIINxZe2gpXuaMnJy94UeZWVGAtuKBXzoM36_ZER4X-MDhmj8xgkVFytG80a9eULXofH7e3QvB0Ufd1Dp8uGkBKsEBKCGjipBs8-EAvUsqa6S3cEyvaeOMgfJn1jD0ZlriQEv0MAx4vPMVRoZoaXm1vErZ-3sR0XzpSkmI1H9QGrvhq8Hbsv-DO8UogAmb-SvG9pbsV8Isn5yKEoG4VG1pbVKVgJsNocjZ0pOHsVUEjqMsWJnzYWr3tpvHY-6WS-ThVaj41S1XpX6_yzAvY4a8tSkoC3ZcI3xHnOgU_6lWIATmlabJPzYg4zFMSomINQ1_EhlZjSnFhh4gBXcSnqPFKZj81IMfcc0_NSMO3O8dyEjJVGV3aYoDigbpNrUgibuIH3cdDJDo9yX8Dzdb0RCC7x3jXiECTIfc-CKfYQck1TqX5sQMvn4pDI5ZdGtbdYYD7yi_47ydGnCmp1qMiE5jXUBSD20On0OJ0JjwfxqL31wpq5m3WViEsicFyKWMNgNm17ippeiStI8yMj6CeCSEW_sEzeF7JGA5PCeWLNaJ_moRyPEMjUcfxcmpq4LUyBsnU7i8-AbKJ1rDpy14_Gx7jmiV4rh2XrULSVh1lI3KnIjbEf0gM8Hiq1IOVyGfG8EwcHS6iq0xiBRcXW_fTLJn3NJzhsMzjyOf7QLwolDlGHY_ycf2lMKxtJFsXpp2WGZ3Ym1lyncVK6oO0KjZ3U274F3mZfapYK9ob9EWfQdmj7jISfZKgwFOxhml5JQu1vM6S7g3WBWvv2z5_f3__1-_37X-9_-uHDu59hw6a4vX3uHz_35z68_-3vX37897s_4IRPb6fBCfv2PwAAAP__.CsMJzwuNZBcXXgqDWqtFq0jhhUGD0ipv8om6lpes78GdPEy2f4_DEdnsNaGj9J-fzskJ84mEyBfKfUm44F3eTA'}"}], "start": 1604123189886, "stop": 1604123189886}, {"name": "响应日志", "status": "passed", "parameters": [{"name": "status_code", "value": "200"}, {"name": "body", "value": "'{\"msg\":\"验证码已失效，请重新发送\",\"code\":512}'"}], "start": 1604123190110, "stop": 1604123190110}], "parameters": [{"name": "captcha", "value": "'788005'"}, {"name": "mobile", "value": "18821768014"}], "start": 1604123189886, "stop": 1604123190110}], "parameters": [{"name": "first_ad_action", "value": "<action.merchant.Merchant object at 0x0000019DF0C14208>"}, {"name": "admin_action", "value": "<action.otc_admin.OtcAdmin object at 0x0000019DF0C1B5F8>"}], "start": 1604123189448, "stop": 1604123190110}], "start": 1604123189448, "stop": 1604123190110, "uuid": "254457a3-4809-4f7e-a6a1-f22669179073", "historyId": "305b7f2012b095ee791988d5d5a29a46", "testCaseId": "b99f82a8b6e45f9a09d3e405035b9ae8", "fullName": "case.qiantai_duo_jiekou.01_yangshi.test_03zhaohuimima.Test#test_denglu", "labels": [{"name": "feature", "value": "找回密码"}, {"name": "parentSuite", "value": "case.qiantai_duo_jiekou.01_yangshi"}, {"name": "suite", "value": "test_03zhaohuimima"}, {"name": "subSuite", "value": "Test"}, {"name": "host", "value": "ITSK-20200916WO"}, {"name": "thread", "value": "23244-MainThread"}, {"name": "framework", "value": "pytest"}, {"name": "language", "value": "cpython3"}, {"name": "package", "value": "case.qiantai_duo_jiekou.01_yangshi.test_03zhaohuimima"}]}