{"name": "找回密码", "status": "passed", "steps": [{"name": "找回密码", "status": "passed", "steps": [{"name": "前台-找回密码—发送验证码", "status": "passed", "steps": [{"name": "请求日志", "status": "passed", "parameters": [{"name": "url", "value": "'https://shendu-dev1.sdpjw.cn/user/noauth/api/v1/retrPwdGetTelCaptcha?platform=zhengshi&time=1606901386267'"}, {"name": "method", "value": "'post'"}, {"name": "body", "value": "{'messageType': 0, 'mobile': 18821768014}"}, {"name": "header", "value": "{'Content-Type': 'application/json', 'sd_origin': 'shendu-dev1.sdpjw.cn'}"}], "start": 1606901386267, "stop": 1606901386267}, {"name": "响应日志", "status": "passed", "parameters": [{"name": "status_code", "value": "200"}, {"name": "body", "value": "'{\"msg\":\"请勿重复发送验证码\",\"code\":512}'"}], "start": 1606901386483, "stop": 1606901386483}], "parameters": [{"name": "mobile", "value": "18821768014"}], "start": 1606901386267, "stop": 1606901386483}, {"name": "获取短信验证码", "status": "passed", "steps": [{"name": "请求日志", "status": "passed", "parameters": [{"name": "url", "value": "'https://shendu-dev1.sdpjw.cn/notify/api/v1/memsms/list?platform=zhengshi&time=1606901388483&nojson=true&mobile=18821768014&page=1'"}, {"name": "method", "value": "'get'"}, {"name": "body", "value": "{}"}, {"name": "header", "value": "{'Content-Type': 'application/json', 'sd_origin': 'shendu-dev1.sdpjw.cn', 'token': 'eyJhbGciOiJIUzUxMiIsInppcCI6IkRFRiJ9.eNqMWM1u7DQUfpdZgTRFndJ22ux6C0igilvRAmuP7cy4k9i5tjNtQEhICCRWlB1bFogVsEOIu7gvQ-l9DI5_4jhO0sumTezjc46_852fzJezG81m2ezk4HCxf5KTPUzzo73D5fJkDx0cLPeOD_ZPFyd4eXx6gGfzmapXIMzp7RkpGf_o82tYY0rBmiLVza15Q3qWLY73j0_3F--eLOczelfZheXR_vHCLEhRUHNiAdIVlaU9jTOFsZBVVlcEaTrHtdKipDIraWnWUa03QrIvYKVgSs9VozJcKixE1S0gjFcFwluzkCm0i9UgjTegq1bw4m10Rq2skAT2VqwoiES5zsrmGTz3PLGnO_uC52ztDpt3EFClGuy31mCF0ErDn4L6d1EVFK1r6s48cWfGc9G7c7ywQpzHMkhSZK9Q1StQvPE7uNUraYE0Ezz2nNeZAr-w81zhDSV1QVvfU2gkvQHRc8QxLeYQYCEBLsH1pmggormQpdlSGswozbCy51GpU0WFWHdwBTDCRQjDeuymA7RsXCRVVF_eEm_Eu2XtXFgbbM2zG0KYBN87s4aOcYxyxiXNa04ybO93iZSyG9ZIwipvOvhogYyU2Xcf8MGplghU7him7fKc8Z0w731Xe-SwjvkgmjNxSniMxvKod-wN-4EblrOeGx5TLjgGqR0ouETNRWuc1LpJcI045TiWwock3rAdVVNMc8tXwKRazV0EaqBY1uoYVzYeJVQTlvBb1jxO1Sg1AUkkgbsFXUmx7QDtHITYwEvEVlEixrM11WEp4TfkgMF2AytCNsO4rqWoo9S2yEdkqpBEaanaIE6KNiWGaXpmrsz42pLYbICSptWZUxMgRz5EyByY72igNnkhbmNTw7QJEA6wthV1tKC5-40Hx6xiUVaxV85j50GEg2PWwGzE3vFUtY5ZdIege_X2YMkIYNpRLNtRqUxOdKFUUGWhNwTWR96tkMiFsACO16m0PNge6HG2cSPAZO6JlYYUxQGNWBdci8wHIvWqTWh6_TIbFHiFkXWf9e7fB5S-RzVixXirSXjoc8SE4lNT29LrKFGQ57VOMi4qPgZcX0SGQRtMAhPDw_8YKiKuxzHoULFVsHWrtRedcjOHqU2thDPqgLxrsrtG0hc1NMVoXknR8zEiKANJ2Tg6gh3gmvHdHrohUOG3xMbg6SzIjGAwZquHB8JHtD14hqGYM908z69QYS5-FTp3cpmUJYNJanwWG1_1t20bNdynuZaIALs_E0Vd0tiL4fASE7SA-q0lammcFjLvJcBqkjY0MX_Zc49CZy4y3BHWxOJFLbSzXvSang1DanVq6hotjWNDwqCivZnGaW3pgDd1w_NzkIRwJ3UtGYCTuhY66rDuw7gFMUpGJlRVRdPVnNSdUHLCrDdypWBzolRPjVMhOy3T49rQb-RBrkfGkZ6Ythxv2KNukqtXGbOwgbdhJoqEW73P4PlivDPwQuCt7dk-SJD7jgV97CHkina1-02zXDxC-0ROP0pGm40B5p2p8tYHdXT-iJTGRdUGIDTV_qDZHx-ngzjp73hhja4btZmAS0fgsBSwhhmu3wcl1bXk55DmE9Pq-5wIST8xTN4muloHO4PDxBrQvhudYjx8ILue5EbYrqubwuQpO-5n8sUQDb-WVRNn3RQ9xTVH9LFymLYOSUuxG4TESgVutP2Q7uBxN1ILulxOIx73an_BFKrR8YzAomSruv8R1H34d3CYZjDx5f7Ujw8pDsGGZfyQf93cljaSKIr9r9AIz0gm1FxrsVe6oO1yha3Wq7oE3kYfdYYK5oT59adRZor7kPhfbzgqKTy-_vPbx79_ffz958f77x5-_Ak2TCobqcMj9_yxF3x1__r-l3_--u3h1TcgBUa3RurEPXqhf79--fjyB1Blfh4SyupZukcv8fD9H0HoLafzbRB2lcE6Z36MghXKNQW8mKLngtB2_av_AAAA__8.F5Vi3C5Z0h47YLeLE_jvlUJVsyz5_atUtY5MNogAGU0vQA65RjoOAPyIEA0kdNh5X08sPW3Stdr1TtzzVnLRpQ'}"}], "start": 1606901388483, "stop": 1606901388483}, {"name": "响应日志", "status": "passed", "parameters": [{"name": "status_code", "value": "200"}, {"name": "body", "value": "'{\"msg\":\"success\",\"code\":0,\"page\":{\"totalCount\":16,\"pageSize\":10,\"totalPage\":2,\"currPage\":1,\"list\":[{\"id\":12791,\"mobile\":\"18821768014\",\"content\":\"SMS_148545070:{\\\"code\\\":\\\"811939\\\"}\",\"createDate\":\"2020-11-02 16:45\",\"createBy\":null},{\"id\":12785,\"mobile\":\"18821768014\",\"content\":\"SMS_148545070:{\\\"code\\\":\\\"228915\\\"}\",\"createDate\":\"2020-11-02 16:29\",\"createBy\":null},{\"id\":12773,\"mobile\":\"18821768014\",\"content\":\"SMS_148545070:{\\\"code\\\":\\\"411452\\\"}\",\"createDate\":\"2020-10-31 18:09\",\"createBy\":null},{\"id\":12772,\"mobile\":\"18821768014\",\"content\":\"SMS_148545070:{\\\"code\\\":\\\"686202\\\"}\",\"createDate\":\"2020-10-31 18:09\",\"createBy\":null},{\"id\":12771,\"mobile\":\"18821768014\",\"content\":\"SMS_148545070:{\\\"code\\\":\\\"732175\\\"}\",\"createDate\":\"2020-10-31 18:08\",\"createBy\":null},{\"id\":12761,\"mobile\":\"18821768014\",\"content\":\"SMS_148545070:{\\\"code\\\":\\\"661859\\\"}\",\"createDate\":\"2020-10-31 14:33\",\"createBy\":null},{\"id\":12760,\"mobile\":\"18821768014\",\"content\":\"SMS_148545070:{\\\"code\\\":\\\"767605\\\"}\",\"createDate\":\"2020-10-31 14:31\",\"createBy\":null},{\"id\":12759,\"mobile\":\"18821768014\",\"content\":\"SMS_148545070:{\\\"code\\\":\\\"748271\\\"}\",\"createDate\":\"2020-10-31 14:17\",\"createBy\":null},{\"id\":12758,\"mobile\":\"18821768014\",\"content\":\"SMS_148545070:{\\\"code\\\":\\\"611995\\\"}\",\"createDate\":\"2020-10-31 14:13\",\"createBy\":null},{\"id\":12756,\"mobile\":\"18821768014\",\"content\":\"SMS_148545070:{\\\"code\\\":\\\"165079\\\"}\",\"createDate\":\"2020-10-31 14:11\",\"createBy\":null}]}}'"}], "start": 1606901388676, "stop": 1606901388676}], "parameters": [{"name": "mobile", "value": "18821768014"}], "start": 1606901388483, "stop": 1606901388676}, {"name": "前台-找回密码", "status": "passed", "steps": [{"name": "请求日志", "status": "passed", "parameters": [{"name": "url", "value": "'https://shendu-dev1.sdpjw.cn/user/noauth/api/v1/retrPwdAndSetPwd?platform=zhengshi&time=1606901388677'"}, {"name": "method", "value": "'post'"}, {"name": "body", "value": "{'captcha': '811939', 'mobile': 18821768014, 'password': 123456, 'rePassword': 123456}"}, {"name": "header", "value": "{'Content-Type': 'application/json', 'sd_origin': 'shendu-dev1.sdpjw.cn', 'token': 'eyJhbGciOiJIUzUxMiIsInppcCI6IkRFRiJ9.eNqMWM1u7DQUfpdZgTRFndJ22ux6C0igilvRAmuP7cy4k9i5tjNtQEhICCRWlB1bFogVsEOIu7gvQ-l9DI5_4jhO0sumTezjc46_852fzJezG81m2ezk4HCxf5KTPUzzo73D5fJkDx0cLPeOD_ZPFyd4eXx6gGfzmapXIMzp7RkpGf_o82tYY0rBmiLVza15Q3qWLY73j0_3F--eLOczelfZheXR_vHCLEhRUHNiAdIVlaU9jTOFsZBVVlcEaTrHtdKipDIraWnWUa03QrIvYKVgSs9VozJcKixE1S0gjFcFwluzkCm0i9UgjTegq1bw4m10Rq2skAT2VqwoiES5zsrmGTz3PLGnO_uC52ztDpt3EFClGuy31mCF0ErDn4L6d1EVFK1r6s48cWfGc9G7c7ywQpzHMkhSZK9Q1StQvPE7uNUraYE0Ezz2nNeZAr-w81zhDSV1QVvfU2gkvQHRc8QxLeYQYCEBLsH1pmggormQpdlSGswozbCy51GpU0WFWHdwBTDCRQjDeuymA7RsXCRVVF_eEm_Eu2XtXFgbbM2zG0KYBN87s4aOcYxyxiXNa04ybO93iZSyG9ZIwipvOvhogYyU2Xcf8MGplghU7him7fKc8Z0w731Xe-SwjvkgmjNxSniMxvKod-wN-4EblrOeGx5TLjgGqR0ouETNRWuc1LpJcI045TiWwock3rAdVVNMc8tXwKRazV0EaqBY1uoYVzYeJVQTlvBb1jxO1Sg1AUkkgbsFXUmx7QDtHITYwEvEVlEixrM11WEp4TfkgMF2AytCNsO4rqWoo9S2yEdkqpBEaanaIE6KNiWGaXpmrsz42pLYbICSptWZUxMgRz5EyByY72igNnkhbmNTw7QJEA6wthV1tKC5-40Hx6xiUVaxV85j50GEg2PWwGzE3vFUtY5ZdIege_X2YMkIYNpRLNtRqUxOdKFUUGWhNwTWR96tkMiFsACO16m0PNge6HG2cSPAZO6JlYYUxQGNWBdci8wHIvWqTWh6_TIbFHiFkXWf9e7fB5S-RzVixXirSXjoc8SE4lNT29LrKFGQ57VOMi4qPgZcX0SGQRtMAhPDw_8YKiKuxzHoULFVsHWrtRedcjOHqU2thDPqgLxrsrtG0hc1NMVoXknR8zEiKANJ2Tg6gh3gmvHdHrohUOG3xMbg6SzIjGAwZquHB8JHtD14hqGYM908z69QYS5-FTp3cpmUJYNJanwWG1_1t20bNdynuZaIALs_E0Vd0tiL4fASE7SA-q0lammcFjLvJcBqkjY0MX_Zc49CZy4y3BHWxOJFLbSzXvSang1DanVq6hotjWNDwqCivZnGaW3pgDd1w_NzkIRwJ3UtGYCTuhY66rDuw7gFMUpGJlRVRdPVnNSdUHLCrDdypWBzolRPjVMhOy3T49rQb-RBrkfGkZ6Ythxv2KNukqtXGbOwgbdhJoqEW73P4PlivDPwQuCt7dk-SJD7jgV97CHkina1-02zXDxC-0ROP0pGm40B5p2p8tYHdXT-iJTGRdUGIDTV_qDZHx-ngzjp73hhja4btZmAS0fgsBSwhhmu3wcl1bXk55DmE9Pq-5wIST8xTN4muloHO4PDxBrQvhudYjx8ILue5EbYrqubwuQpO-5n8sUQDb-WVRNn3RQ9xTVH9LFymLYOSUuxG4TESgVutP2Q7uBxN1ILulxOIx73an_BFKrR8YzAomSruv8R1H34d3CYZjDx5f7Ujw8pDsGGZfyQf93cljaSKIr9r9AIz0gm1FxrsVe6oO1yha3Wq7oE3kYfdYYK5oT59adRZor7kPhfbzgqKTy-_vPbx79_ffz958f77x5-_Ak2TCobqcMj9_yxF3x1__r-l3_--u3h1TcgBUa3RurEPXqhf79--fjyB1Blfh4SyupZukcv8fD9H0HoLafzbRB2lcE6Z36MghXKNQW8mKLngtB2_av_AAAA__8.F5Vi3C5Z0h47YLeLE_jvlUJVsyz5_atUtY5MNogAGU0vQA65RjoOAPyIEA0kdNh5X08sPW3Stdr1TtzzVnLRpQ'}"}], "start": 1606901388677, "stop": 1606901388677}, {"name": "响应日志", "status": "passed", "parameters": [{"name": "status_code", "value": "200"}, {"name": "body", "value": "'{\"msg\":\"验证码错误\",\"code\":512}'"}], "start": 1606901388880, "stop": 1606901388880}], "parameters": [{"name": "captcha", "value": "'811939'"}, {"name": "mobile", "value": "18821768014"}], "start": 1606901388677, "stop": 1606901388880}], "parameters": [{"name": "first_ad_action", "value": "<action.merchant.Merchant object at 0x000001A2796B2160>"}, {"name": "admin_action", "value": "<action.otc_admin.OtcAdmin object at 0x000001A2796B22B0>"}], "start": 1606901386267, "stop": 1606901388880}], "start": 1606901386267, "stop": 1606901388880, "uuid": "c1a4464d-d4ef-43a4-98a2-44f3689bdcf3", "historyId": "305b7f2012b095ee791988d5d5a29a46", "testCaseId": "b99f82a8b6e45f9a09d3e405035b9ae8", "fullName": "case.qiantai_duo_jiekou.01_yangshi.test_03zhaohuimima.Test#test_denglu", "labels": [{"name": "feature", "value": "找回密码"}, {"name": "parentSuite", "value": "case.qiantai_duo_jiekou.01_yangshi"}, {"name": "suite", "value": "test_03zhaohuimima"}, {"name": "subSuite", "value": "Test"}, {"name": "host", "value": "ITSK-20200916WO"}, {"name": "thread", "value": "103860-MainThread"}, {"name": "framework", "value": "pytest"}, {"name": "language", "value": "cpython3"}, {"name": "package", "value": "case.qiantai_duo_jiekou.01_yangshi.test_03zhaohuimima"}]}