{"name": "找回密码", "status": "passed", "steps": [{"name": "找回密码", "status": "passed", "steps": [{"name": "前台-找回密码—发送验证码", "status": "passed", "steps": [{"name": "请求日志", "status": "passed", "parameters": [{"name": "url", "value": "'https://shendu-dev1.sdpjw.cn/user/noauth/api/v1/retrPwdGetTelCaptcha?platform=zhengshi&time=1604126008314'"}, {"name": "method", "value": "'post'"}, {"name": "body", "value": "{'messageType': 0, 'mobile': 18821768014}"}, {"name": "header", "value": "{'Content-Type': 'application/json', 'sd_origin': 'shendu-dev1.sdpjw.cn'}"}], "start": 1604126008314, "stop": 1604126008314}, {"name": "响应日志", "status": "passed", "parameters": [{"name": "status_code", "value": "200"}, {"name": "body", "value": "'{\"msg\":\"success\",\"code\":0}'"}], "start": 1604126008543, "stop": 1604126008543}], "parameters": [{"name": "mobile", "value": "18821768014"}], "start": 1604126008314, "stop": 1604126008543}, {"name": "获取短信验证码", "status": "passed", "steps": [{"name": "请求日志", "status": "passed", "parameters": [{"name": "url", "value": "'https://shendu-dev1.sdpjw.cn/notify/api/v1/memsms/list?platform=zhengshi&time=1604126013544&nojson=true&mobile=18821768014&page=1'"}, {"name": "method", "value": "'get'"}, {"name": "body", "value": "{}"}, {"name": "header", "value": "{'Content-Type': 'application/json', 'sd_origin': 'shendu-dev1.sdpjw.cn', 'token': 'eyJhbGciOiJIUzUxMiIsInppcCI6IkRFRiJ9.eNqMWDlzJDUU_i8Tjynfu-5s10AVVS7WhRdyjaSZka2WenXMuqGIKMioWjICEkgg2pCA_7MY_gVPR0tqdY9NYnfreMf3vnf0fLO4NWzRLNAZOT6iq5MD-gyfHJxe0OODFcFnByero9Oz80P6_OIMLZYLbVdw-AiemNbDEzKL5uj88PTo-Pzw8GK5oPddWHh2cvjcLSjJ6XC6o6p1zxo3GmOpusZ2BBm6xFYb2VLVtLR168iarVTsa1jhTJul7nWDW42l7PICwnjFEb5zC41Gu1IMMngLsqyGl6gjK_VnpSKwt2KcE4XWpmn7l_A8ssTfzvqlWLNNuOze4YBu9WR_0AYrhHYG_nAa32XHKdpYGu484jMTaznyuVxYISHKM0hR5F3o7AoEb-MOHuQqypFhUpSWC9tosAsHyzXeUmI5HWyvoVH0Fo5eIoEpX0KApQK4pDBb3kNE11K1bksbUKMNw9rfR62pBXG5yXAlMJIjhGEz5-kELR8XRTU1129JVBLN8nquvA62Ec0tIUyB7Vmto2MZozUTiq6tIA32_l0jrf2GV1KxKqpONnogC2H-PQZ8cmsgAlU7humwvGRiJ9372NQRObxhMYjuTpkSEaO5PBpde2I_ccNzNnIjYiqkwHBqBwKuUX81KCfW9BWuBacCx2r4kMJbtqN6H9PC8g0wyepliIAFijWDjHlh81FClrCK38qKMlWL1AQkkQLucrpS8i4Dmg2E2MBLwVbZIiaaDTVpqeI35IDDdgsrUvXTuG6UtEVqe-QLMnVIobpUbZEgfEiJaZq-cC4zsfEkdhsgpB9krqkLUCAfImQJzA800Ns1l29LVdO0SRBOsPYVdbagBf_8hUJ3sCvoKbwN_JkILzg6n5BevcdwCm0U7y-2jABymUjNjirtmJ8DpqGWQgdI3C6sWyG5ltLDNF-N6iLgO11E00eHAF9FpE8dOFSGreBWMq1Qn-gyqimptY2LaRIQBRbaY26Hf59S-jE1iPH5hlKxLWaCC8WXroLV7mjJyStrqrwqSowDN5aKadAm_X7PiPA_RoeC0WUMMiq-1g1mDfrKhaAj4HbfN_e9om8sdLpiCKnBiiEhqIGTqg_sA7FALWeqv3RLoGzfEQ_546Rv3MGkzJeE6HcM4HDxBYYKzUz_an2DuPPzJrXjypmaFJPxaH7Aml-N3g7dF_zpXytEgMxfSW5bWloxnUhKPnIoykahgbV1dYpWAqwuR1Nnis5eRhSyukJx5qeLxRsrTdDOR50s1KlK675RarbezXX-SQF7mrV1KcnAuzIRGuI058An_VoxAKc2LbXJaTGHGQpiVM1BqOt4n0tMbU6qMGmAm3Ep6dxTmffNSCn3PNPLUjDuzunciIwzja7uMFFxRN0l16gQNmkD36VBpzg8yH0Jz1fzjUBwie98I45BgtwPLBhjDyHXNJfqpwa0ci6OiVx_acz2FgfMR2ExfCd5-syCOjtUFELLGuoDkHroeHocz4T7g7jX3vnCWrhbdJWESyZwWkpYw2A2bnuKGqvEJaT5nhH0E0Gkol84Jt9VsgYDs8JpYk1on-ehEo8YyNxxwlyam7grTJGy83ZWnwHFROtZteduGI33cS0Qfa4c1q1D0VbuJiHxpxI3hn5Id_C4m6kFOZfriJedODpYQzU7jRFYVGxlx182-Ws-w-GawZ7P8cd-UahxSDo846f8y2Na3UiKKI4_LQs8izOp5nqNo9IFbVdo7KXe2BZ4W3ypOSq4G-5HnF67oe0zEn-SocJQsIdpeikJdb_NkO4W1gVq3ds_f37_8NfvD-9_fXj3w4effoYNl-Lu9kl4_Dyc-_D-t79_-fHf7_6AEyG9vQYv7Nv_AAAA__8.OasdqaXlIUc6fwbHOxthfOxYGW8u_MGDmmUBTOETA7mWpzuwBn0snpeaGKk8kScCbiskrWXw2TVtQCyjxI4Dgw'}"}], "start": 1604126013544, "stop": 1604126013544}, {"name": "响应日志", "status": "passed", "parameters": [{"name": "status_code", "value": "200"}, {"name": "body", "value": "'{\"msg\":\"success\",\"code\":0,\"page\":{\"totalCount\":11,\"pageSize\":10,\"totalPage\":2,\"currPage\":1,\"list\":[{\"id\":12761,\"mobile\":\"18821768014\",\"content\":\"SMS_148545070:{\\\"code\\\":\\\"661859\\\"}\",\"createDate\":\"2020-10-31 14:33\",\"createBy\":null},{\"id\":12760,\"mobile\":\"18821768014\",\"content\":\"SMS_148545070:{\\\"code\\\":\\\"767605\\\"}\",\"createDate\":\"2020-10-31 14:31\",\"createBy\":null},{\"id\":12759,\"mobile\":\"18821768014\",\"content\":\"SMS_148545070:{\\\"code\\\":\\\"748271\\\"}\",\"createDate\":\"2020-10-31 14:17\",\"createBy\":null},{\"id\":12758,\"mobile\":\"18821768014\",\"content\":\"SMS_148545070:{\\\"code\\\":\\\"611995\\\"}\",\"createDate\":\"2020-10-31 14:13\",\"createBy\":null},{\"id\":12756,\"mobile\":\"18821768014\",\"content\":\"SMS_148545070:{\\\"code\\\":\\\"165079\\\"}\",\"createDate\":\"2020-10-31 14:11\",\"createBy\":null},{\"id\":12755,\"mobile\":\"18821768014\",\"content\":\"SMS_148545070:{\\\"code\\\":\\\"272356\\\"}\",\"createDate\":\"2020-10-31 14:06\",\"createBy\":null},{\"id\":12753,\"mobile\":\"18821768014\",\"content\":\"SMS_148545070:{\\\"code\\\":\\\"788005\\\"}\",\"createDate\":\"2020-10-31 13:46\",\"createBy\":null},{\"id\":12751,\"mobile\":\"18821768014\",\"content\":\"SMS_148545070:{\\\"code\\\":\\\"297419\\\"}\",\"createDate\":\"2020-10-31 13:41\",\"createBy\":null},{\"id\":12749,\"mobile\":\"18821768014\",\"content\":\"SMS_148545070:{\\\"code\\\":\\\"607652\\\"}\",\"createDate\":\"2020-10-31 13:30\",\"createBy\":null},{\"id\":12731,\"mobile\":\"18821768014\",\"content\":\"SMS_148545070:{\\\"code\\\":\\\"715723\\\"}\",\"createDate\":\"2020-10-31 10:44\",\"createBy\":null}]}}'"}], "start": 1604126013752, "stop": 1604126013752}], "parameters": [{"name": "mobile", "value": "18821768014"}], "start": 1604126013544, "stop": 1604126013752}, {"name": "前台-找回密码", "status": "passed", "steps": [{"name": "请求日志", "status": "passed", "parameters": [{"name": "url", "value": "'https://shendu-dev1.sdpjw.cn/user/noauth/api/v1/retrPwdAndSetPwd?platform=zhengshi&time=1604126013752'"}, {"name": "method", "value": "'post'"}, {"name": "body", "value": "{'captcha': '661859', 'mobile': 18821768014, 'password': 123456, 'rePassword': 123456}"}, {"name": "header", "value": "{'Content-Type': 'application/json', 'sd_origin': 'shendu-dev1.sdpjw.cn', 'token': 'eyJhbGciOiJIUzUxMiIsInppcCI6IkRFRiJ9.eNqMWDlzJDUU_i8Tjynfu-5s10AVVS7WhRdyjaSZka2WenXMuqGIKMioWjICEkgg2pCA_7MY_gVPR0tqdY9NYnfreMf3vnf0fLO4NWzRLNAZOT6iq5MD-gyfHJxe0OODFcFnByero9Oz80P6_OIMLZYLbVdw-AiemNbDEzKL5uj88PTo-Pzw8GK5oPddWHh2cvjcLSjJ6XC6o6p1zxo3GmOpusZ2BBm6xFYb2VLVtLR168iarVTsa1jhTJul7nWDW42l7PICwnjFEb5zC41Gu1IMMngLsqyGl6gjK_VnpSKwt2KcE4XWpmn7l_A8ssTfzvqlWLNNuOze4YBu9WR_0AYrhHYG_nAa32XHKdpYGu484jMTaznyuVxYISHKM0hR5F3o7AoEb-MOHuQqypFhUpSWC9tosAsHyzXeUmI5HWyvoVH0Fo5eIoEpX0KApQK4pDBb3kNE11K1bksbUKMNw9rfR62pBXG5yXAlMJIjhGEz5-kELR8XRTU1129JVBLN8nquvA62Ec0tIUyB7Vmto2MZozUTiq6tIA32_l0jrf2GV1KxKqpONnogC2H-PQZ8cmsgAlU7humwvGRiJ9372NQRObxhMYjuTpkSEaO5PBpde2I_ccNzNnIjYiqkwHBqBwKuUX81KCfW9BWuBacCx2r4kMJbtqN6H9PC8g0wyepliIAFijWDjHlh81FClrCK38qKMlWL1AQkkQLucrpS8i4Dmg2E2MBLwVbZIiaaDTVpqeI35IDDdgsrUvXTuG6UtEVqe-QLMnVIobpUbZEgfEiJaZq-cC4zsfEkdhsgpB9krqkLUCAfImQJzA800Ns1l29LVdO0SRBOsPYVdbagBf_8hUJ3sCvoKbwN_JkILzg6n5BevcdwCm0U7y-2jABymUjNjirtmJ8DpqGWQgdI3C6sWyG5ltLDNF-N6iLgO11E00eHAF9FpE8dOFSGreBWMq1Qn-gyqimptY2LaRIQBRbaY26Hf59S-jE1iPH5hlKxLWaCC8WXroLV7mjJyStrqrwqSowDN5aKadAm_X7PiPA_RoeC0WUMMiq-1g1mDfrKhaAj4HbfN_e9om8sdLpiCKnBiiEhqIGTqg_sA7FALWeqv3RLoGzfEQ_546Rv3MGkzJeE6HcM4HDxBYYKzUz_an2DuPPzJrXjypmaFJPxaH7Aml-N3g7dF_zpXytEgMxfSW5bWloxnUhKPnIoykahgbV1dYpWAqwuR1Nnis5eRhSyukJx5qeLxRsrTdDOR50s1KlK675RarbezXX-SQF7mrV1KcnAuzIRGuI058An_VoxAKc2LbXJaTGHGQpiVM1BqOt4n0tMbU6qMGmAm3Ep6dxTmffNSCn3PNPLUjDuzunciIwzja7uMFFxRN0l16gQNmkD36VBpzg8yH0Jz1fzjUBwie98I45BgtwPLBhjDyHXNJfqpwa0ci6OiVx_acz2FgfMR2ExfCd5-syCOjtUFELLGuoDkHroeHocz4T7g7jX3vnCWrhbdJWESyZwWkpYw2A2bnuKGqvEJaT5nhH0E0Gkol84Jt9VsgYDs8JpYk1on-ehEo8YyNxxwlyam7grTJGy83ZWnwHFROtZteduGI33cS0Qfa4c1q1D0VbuJiHxpxI3hn5Id_C4m6kFOZfriJedODpYQzU7jRFYVGxlx182-Ws-w-GawZ7P8cd-UahxSDo846f8y2Na3UiKKI4_LQs8izOp5nqNo9IFbVdo7KXe2BZ4W3ypOSq4G-5HnF67oe0zEn-SocJQsIdpeikJdb_NkO4W1gVq3ds_f37_8NfvD-9_fXj3w4effoYNl-Lu9kl4_Dyc-_D-t79_-fHf7_6AEyG9vQYv7Nv_AAAA__8.OasdqaXlIUc6fwbHOxthfOxYGW8u_MGDmmUBTOETA7mWpzuwBn0snpeaGKk8kScCbiskrWXw2TVtQCyjxI4Dgw'}"}], "start": 1604126013753, "stop": 1604126013753}, {"name": "响应日志", "status": "passed", "parameters": [{"name": "status_code", "value": "200"}, {"name": "body", "value": "'{\"msg\":\"success\",\"code\":0}'"}], "start": 1604126014008, "stop": 1604126014008}], "parameters": [{"name": "captcha", "value": "'661859'"}, {"name": "mobile", "value": "18821768014"}], "start": 1604126013752, "stop": 1604126014008}], "parameters": [{"name": "first_ad_action", "value": "<action.merchant.Merchant object at 0x0000025D26853470>"}, {"name": "admin_action", "value": "<action.otc_admin.OtcAdmin object at 0x0000025D268555F8>"}], "start": 1604126008314, "stop": 1604126014008}], "start": 1604126008314, "stop": 1604126014008, "uuid": "525c9028-ce35-45ae-9c3d-7196321c7919", "historyId": "305b7f2012b095ee791988d5d5a29a46", "testCaseId": "b99f82a8b6e45f9a09d3e405035b9ae8", "fullName": "case.qiantai_duo_jiekou.01_yangshi.test_03zhaohuimima.Test#test_denglu", "labels": [{"name": "feature", "value": "找回密码"}, {"name": "parentSuite", "value": "case.qiantai_duo_jiekou.01_yangshi"}, {"name": "suite", "value": "test_03zhaohuimima"}, {"name": "subSuite", "value": "Test"}, {"name": "host", "value": "ITSK-20200916WO"}, {"name": "thread", "value": "33260-MainThread"}, {"name": "framework", "value": "pytest"}, {"name": "language", "value": "cpython3"}, {"name": "package", "value": "case.qiantai_duo_jiekou.01_yangshi.test_03zhaohuimima"}]}