{"name": "找回密码", "status": "passed", "steps": [{"name": "找回密码", "status": "passed", "steps": [{"name": "获取短信验证码", "status": "passed", "steps": [{"name": "请求日志", "status": "passed", "parameters": [{"name": "url", "value": "'https://shendu-dev1.sdpjw.cn/notify/api/v1/memsms/list?platform=zhengshi&time=1604123701131'"}, {"name": "method", "value": "'post'"}, {"name": "body", "value": "{'nojson': 'true', 'mobile': 18821768014, 'page': 1}"}, {"name": "header", "value": "{'Content-Type': 'application/json', 'sd_origin': 'shendu-dev1.sdpjw.cn', 'token': 'eyJhbGciOiJIUzUxMiIsInppcCI6IkRFRiJ9.eNqMWLtyJDUU_ZeJx5TH42dnuwaqqHKxLryQayTNjDxqqVdSz7qhiCjIqFoyAhJIINqQgP9ZDH_B1aMltbrHJrG79biPc8999HwzuzdsVs3I5fIMX63Pjy6vzlZHp8fnF0dXZ8eLo-Xl6fnJyTldLMnpbD7T7QoOL-CJad0_ITOrFufHp4uT5cXxYj6jD41fuDi5PLMLSnLan26oqu2zxpXGWKqmahuCDJ3jVhtZU1XVtLbrqDVbqdjXsMKZNnPd6QrXGkvZpAWE8YojvLMLlUb7XAwyeAuyWg0vQUdS6s5KRWBvxTgnCq1NVXcv4Xlgibud9EuxZht_2b7DAV3r0X6vDVYIbQz84TS8y4ZTtGmpv_OEz0ys5cDnfGGFhMjPIEWRc6FpVyB4G3ZwL1dRjgyTIrdctJUGu7C3XOMtJS2nve0lNIrew9FrJDDlcwiwVACXFGbLO4joWqrabmkDarRhWLv7qDalIC43Ca4IRnSEMGymPB2h5eKiqKbm9i0JSoJZTs-N08E2oronhCmwPam1dMxjtGZC0XUrSIWdf7dIa7fhlBSsCqqjjQ7ITJh7DwEf3eqJQNWeYdovz5nYS_s-NHVADmdYCKK9k6dEwGgqjwbXntmP3HCcDdwImAopMJzag4Bb1N30yklrugLXjFOeYyV8SOEt21N9iGl--Q6Y1Oq5j0ALFKt6GdPCpqOEWsIKfqtW5KmapSYgiRRwl9OVkrsEaDIQYgMvGVtljZioNtTEpYLfkAMW2y2sSNWN47pRss1S2yGfkalBCpWlaosE4X1KjNP0hXWZiY0jsd0AIV0vc01tgDz5ECFzYL6ngd6uuXybqxqnTYRwhLWrqJMFzfvnLmS6vV1eT-at589IeMbR6YR06h2GY2iDeHexZgSQS0Sq9lRpy_wUMA21FDpA5HZm3QrJtZQOpulqVBYB1-kCmi46BPgqAn3KwKE8bBm3ommZ-kiXQU2JrW1YTKOAIDDTHnLb__uU0o-pQYxPN5SCbSETbCi-tBWsdEdLTl61psirrMRYcEOpGAdt1O8PjAj_Y3TIGJ3HIKHial1vVq8vX_A6PG4PXfXQKfqmhU6XDSElWCEkBFVwUnWefSAWqGVNdZfuCZTtHXGQP036yh6MylxJCH6HAPYXX2Co0Mx0r9Z3iFs_72I7LpwpSTEaj6YHrOnV4G3ffcGf7rVCBMj8leRtTXMrxhNJzkcORdko1LO2rE7BSoDV5mjsTMHZ64BCUpcpTvy0sXjTSuO180En83Wq0HpolJqsd1Odf1TAnmdtWUoS8LZM-IY4zjnwSb9WDMApTYttclzMYYaCGBVzEGoa3qUSU5oTK0wc4CZcijoPVOZDM1LMPcf0vBQMu3M8NyDjRKMrO0xQHFC3yTUohFXcwLs46GSHe7kv4flmuhEILvHONeIQJMh9z4Ih9hByTVOpfm5Ay-fikMjll8Zkb7HAfOQX_XeSo88kqJNDRSY0r6EuALGHDqfH4Ux4OIgH7Z0urJm7WVeJuCQCx6WINQxmw7anqGmVuIY0PzCCfiKIVPQLy-RdIas3MCkcJ9aI9mkeyvEIgUwdx8-lqYnbwhQoO21n8RmQTbSOVQfu-tH4ENc80afKYdk6FK3lfhQSdypyo--HdA-P-4lakHK5jHjeiYODJVST0xiBRcVW7fDLJn3NJzhsMzjwOf7ULwolDlGHY_yYf2lMKxtJFsXhp2WGZ3Ym1lyncVC6oO0KjZ3Uu7YG3mZfapYK9ob9EafTdmj7jISfZKgwFOxhml5LQu1vM6S5h3WBavv2z5_fP_71--P7Xx_f_fDhp59hw6a4vb30j5_7cx_e__b3Lz_--90fcMKnt9PghH37HwAAAP__.lxT1ry13L-HiVUobjPzhg7bq3_DbfLIf9ZwNbacYLIGDSQ4DvLJvq32HoxYzExOlAaiy3scnZCrzU5znovowmg'}"}], "start": 1604123701131, "stop": 1604123701131}, {"name": "响应日志", "status": "passed", "parameters": [{"name": "status_code", "value": "200"}, {"name": "body", "value": "'{\"msg\":\"success\",\"code\":0,\"page\":{\"totalCount\":12570,\"pageSize\":10,\"totalPage\":1257,\"currPage\":1,\"list\":[{\"id\":12754,\"mobile\":\"18600008888\",\"content\":\"SMS_148545070:{\\\"code\\\":\\\"172170\\\"}\",\"createDate\":\"2020-10-31 13:46\",\"createBy\":null},{\"id\":12753,\"mobile\":\"18821768014\",\"content\":\"SMS_148545070:{\\\"code\\\":\\\"788005\\\"}\",\"createDate\":\"2020-10-31 13:46\",\"createBy\":null},{\"id\":12752,\"mobile\":\"15093098152\",\"content\":\"SMS_148545070:{\\\"code\\\":\\\"058731\\\"}\",\"createDate\":\"2020-10-31 13:41\",\"createBy\":null},{\"id\":12751,\"mobile\":\"18821768014\",\"content\":\"SMS_148545070:{\\\"code\\\":\\\"297419\\\"}\",\"createDate\":\"2020-10-31 13:41\",\"createBy\":null},{\"id\":12750,\"mobile\":\"18608000111\",\"content\":\"SMS_148545070:{\\\"code\\\":\\\"168296\\\"}\",\"createDate\":\"2020-10-31 13:32\",\"createBy\":null},{\"id\":12749,\"mobile\":\"18821768014\",\"content\":\"SMS_148545070:{\\\"code\\\":\\\"607652\\\"}\",\"createDate\":\"2020-10-31 13:30\",\"createBy\":null},{\"id\":12748,\"mobile\":\"18600000011\",\"content\":\"SMS_148545070:{\\\"code\\\":\\\"815976\\\"}\",\"createDate\":\"2020-10-31 13:25\",\"createBy\":null},{\"id\":12747,\"mobile\":\"15093098153\",\"content\":\"SMS_148545070:{\\\"code\\\":\\\"659829\\\"}\",\"createDate\":\"2020-10-31 13:22\",\"createBy\":null},{\"id\":12746,\"mobile\":\"18105498870\",\"content\":\"SMS_148592322:{\\\"code\\\":\\\"934413\\\"}\",\"createDate\":\"2020-10-31 11:50\",\"createBy\":null},{\"id\":12745,\"mobile\":\"17600000011\",\"content\":\"SMS_148592322:{\\\"code\\\":\\\"490284\\\"}\",\"createDate\":\"2020-10-31 11:50\",\"createBy\":null}]}}'"}], "start": 1604123701358, "stop": 1604123701358}], "parameters": [{"name": "mobile", "value": "18821768014"}], "start": 1604123701131, "stop": 1604123701359}, {"name": "前台-找回密码", "status": "passed", "steps": [{"name": "请求日志", "status": "passed", "parameters": [{"name": "url", "value": "'https://shendu-dev1.sdpjw.cn/user/noauth/api/v1/register?platform=zhengshi&time=1604123701359'"}, {"name": "method", "value": "'post'"}, {"name": "body", "value": "{'captcha': '172170', 'channel': 1, 'inviteCode': 123456, 'mobile': 18821768014, 'name': '', 'password': 123456, 'rePassword': 123456}"}, {"name": "header", "value": "{'Content-Type': 'application/json', 'sd_origin': 'shendu-dev1.sdpjw.cn', 'token': 'eyJhbGciOiJIUzUxMiIsInppcCI6IkRFRiJ9.eNqMWLtyJDUU_ZeJx5TH42dnuwaqqHKxLryQayTNjDxqqVdSz7qhiCjIqFoyAhJIINqQgP9ZDH_B1aMltbrHJrG79biPc8999HwzuzdsVs3I5fIMX63Pjy6vzlZHp8fnF0dXZ8eLo-Xl6fnJyTldLMnpbD7T7QoOL-CJad0_ITOrFufHp4uT5cXxYj6jD41fuDi5PLMLSnLan26oqu2zxpXGWKqmahuCDJ3jVhtZU1XVtLbrqDVbqdjXsMKZNnPd6QrXGkvZpAWE8YojvLMLlUb7XAwyeAuyWg0vQUdS6s5KRWBvxTgnCq1NVXcv4Xlgibud9EuxZht_2b7DAV3r0X6vDVYIbQz84TS8y4ZTtGmpv_OEz0ys5cDnfGGFhMjPIEWRc6FpVyB4G3ZwL1dRjgyTIrdctJUGu7C3XOMtJS2nve0lNIrew9FrJDDlcwiwVACXFGbLO4joWqrabmkDarRhWLv7qDalIC43Ca4IRnSEMGymPB2h5eKiqKbm9i0JSoJZTs-N08E2oronhCmwPam1dMxjtGZC0XUrSIWdf7dIa7fhlBSsCqqjjQ7ITJh7DwEf3eqJQNWeYdovz5nYS_s-NHVADmdYCKK9k6dEwGgqjwbXntmP3HCcDdwImAopMJzag4Bb1N30yklrugLXjFOeYyV8SOEt21N9iGl--Q6Y1Oq5j0ALFKt6GdPCpqOEWsIKfqtW5KmapSYgiRRwl9OVkrsEaDIQYgMvGVtljZioNtTEpYLfkAMW2y2sSNWN47pRss1S2yGfkalBCpWlaosE4X1KjNP0hXWZiY0jsd0AIV0vc01tgDz5ECFzYL6ngd6uuXybqxqnTYRwhLWrqJMFzfvnLmS6vV1eT-at589IeMbR6YR06h2GY2iDeHexZgSQS0Sq9lRpy_wUMA21FDpA5HZm3QrJtZQOpulqVBYB1-kCmi46BPgqAn3KwKE8bBm3ommZ-kiXQU2JrW1YTKOAIDDTHnLb__uU0o-pQYxPN5SCbSETbCi-tBWsdEdLTl61psirrMRYcEOpGAdt1O8PjAj_Y3TIGJ3HIKHial1vVq8vX_A6PG4PXfXQKfqmhU6XDSElWCEkBFVwUnWefSAWqGVNdZfuCZTtHXGQP036yh6MylxJCH6HAPYXX2Co0Mx0r9Z3iFs_72I7LpwpSTEaj6YHrOnV4G3ffcGf7rVCBMj8leRtTXMrxhNJzkcORdko1LO2rE7BSoDV5mjsTMHZ64BCUpcpTvy0sXjTSuO180En83Wq0HpolJqsd1Odf1TAnmdtWUoS8LZM-IY4zjnwSb9WDMApTYttclzMYYaCGBVzEGoa3qUSU5oTK0wc4CZcijoPVOZDM1LMPcf0vBQMu3M8NyDjRKMrO0xQHFC3yTUohFXcwLs46GSHe7kv4flmuhEILvHONeIQJMh9z4Ih9hByTVOpfm5Ay-fikMjll8Zkb7HAfOQX_XeSo88kqJNDRSY0r6EuALGHDqfH4Ux4OIgH7Z0urJm7WVeJuCQCx6WINQxmw7anqGmVuIY0PzCCfiKIVPQLy-RdIas3MCkcJ9aI9mkeyvEIgUwdx8-lqYnbwhQoO21n8RmQTbSOVQfu-tH4ENc80afKYdk6FK3lfhQSdypyo--HdA-P-4lakHK5jHjeiYODJVST0xiBRcVW7fDLJn3NJzhsMzjwOf7ULwolDlGHY_yYf2lMKxtJFsXhp2WGZ3Ym1lyncVC6oO0KjZ3Uu7YG3mZfapYK9ob9EafTdmj7jISfZKgwFOxhml5LQu1vM6S5h3WBavv2z5_fP_71--P7Xx_f_fDhp59hw6a4vb30j5_7cx_e__b3Lz_--90fcMKnt9PghH37HwAAAP__.lxT1ry13L-HiVUobjPzhg7bq3_DbfLIf9ZwNbacYLIGDSQ4DvLJvq32HoxYzExOlAaiy3scnZCrzU5znovowmg'}"}], "start": 1604123701359, "stop": 1604123701359}, {"name": "响应日志", "status": "passed", "parameters": [{"name": "status_code", "value": "200"}, {"name": "body", "value": "'{\"msg\":\"验证码已失效，请重新发送\",\"code\":512}'"}], "start": 1604123701645, "stop": 1604123701645}], "parameters": [{"name": "captcha", "value": "'172170'"}, {"name": "mobile", "value": "18821768014"}], "start": 1604123701359, "stop": 1604123701645}], "parameters": [{"name": "first_ad_action", "value": "<action.merchant.Merchant object at 0x00000198D7895860>"}, {"name": "admin_action", "value": "<action.otc_admin.OtcAdmin object at 0x00000198D788B908>"}], "start": 1604123701131, "stop": 1604123701645}], "start": 1604123701131, "stop": 1604123701646, "uuid": "bcc2a64f-0189-4a5e-b44e-faead240bafb", "historyId": "305b7f2012b095ee791988d5d5a29a46", "testCaseId": "b99f82a8b6e45f9a09d3e405035b9ae8", "fullName": "case.qiantai_duo_jiekou.01_yangshi.test_03zhaohuimima.Test#test_denglu", "labels": [{"name": "feature", "value": "找回密码"}, {"name": "parentSuite", "value": "case.qiantai_duo_jiekou.01_yangshi"}, {"name": "suite", "value": "test_03zhaohuimima"}, {"name": "subSuite", "value": "Test"}, {"name": "host", "value": "ITSK-20200916WO"}, {"name": "thread", "value": "31292-MainThread"}, {"name": "framework", "value": "pytest"}, {"name": "language", "value": "cpython3"}, {"name": "package", "value": "case.qiantai_duo_jiekou.01_yangshi.test_03zhaohuimima"}]}