{"name": "找回密码", "status": "passed", "steps": [{"name": "找回密码", "status": "passed", "steps": [{"name": "前台-找回密码—发送验证码", "status": "passed", "steps": [{"name": "请求日志", "status": "passed", "parameters": [{"name": "url", "value": "'https://shendu-dev1.sdpjw.cn/user/noauth/api/v1/retrPwdGetTelCaptcha?platform=zhengshi&time=1604123238292'"}, {"name": "method", "value": "'post'"}, {"name": "body", "value": "{'messageType': 0, 'mobile': 18821768014}"}, {"name": "header", "value": "{'Content-Type': 'application/json', 'sd_origin': 'shendu-dev1.sdpjw.cn'}"}], "start": 1604123238292, "stop": 1604123238292}, {"name": "响应日志", "status": "passed", "parameters": [{"name": "status_code", "value": "200"}, {"name": "body", "value": "'{\"msg\":\"请勿重复发送验证码\",\"code\":512}'"}], "start": 1604123238646, "stop": 1604123238646}], "parameters": [{"name": "mobile", "value": "18821768014"}], "start": 1604123238292, "stop": 1604123238646}, {"name": "获取短信验证码", "status": "passed", "steps": [{"name": "请求日志", "status": "passed", "parameters": [{"name": "url", "value": "'https://shendu-dev1.sdpjw.cn/notify/api/v1/memsms/list?platform=zhengshi&time=1604123241647'"}, {"name": "method", "value": "'post'"}, {"name": "body", "value": "{'nojson': 'true', 'mobile': 18821768014, 'page': 1}"}, {"name": "header", "value": "{'Content-Type': 'application/json', 'sd_origin': 'shendu-dev1.sdpjw.cn', 'token': 'eyJhbGciOiJIUzUxMiIsInppcCI6IkRFRiJ9.eNqMWElz5DQU_i997lDZpsn4NhOgiqoUkyIDd1mSu5XYkkdLTwzFiYIbVXDjwAUucJojB_7PEPgXPC2WZNmdcElsLW_53vcW99erW81W1aqhzVmNN8dHF-d1c3T-nDw7qp9t8NEFPd7UJ5vNBuNmtV4pU8PhE3hiSo1PSK-qk83x-cnp2enZ8_WK3vd-4cPTi2O7IEVLx9M9lZ19VrhSGAvZV6YnSNM1NkqLjsqqo51dR0bvhGRfwUrLlF6rQVW4U1iIPi0gjOsW4Tu7UCm0z8UgjXcgyyh4CTqSUndWSAJ7NWtbIlGjq254Cc8TS9ztpF_whm39ZfsOB1SnZvujNlghtNfwp6XhXfQtRVtD_Z1HfGa8EROf84UacZ6fQZIi50JvahC8Czt4lCtpizQTPLecm0qBXdhbrvCOEtPS0fYSGklv4egl4pi2awiwkACX4HrXDhDRRsjObikNapRmWLn7qNOloFZsE1wRjOgIYVgveTpDy8VFUkX19VsSlASznJ4rp4NteXVLCJNge1Jr6ZjHqGFc0sZwUmHn3zVSym04JQWrgupoowMyE-beQ8Bnt0YiULlnmI7La8b3wr5PTZ2QwxkWgmjv5CkRMFrKo8m1J_YjNxxnAzcCplxwDKf2IOAaDVejcmL0UOCaccpzrIQPSbxje6oOMc0v3wCTjFr7CBigWDXKWBa2HCVkCCv4LQ3PUzVLTUASSeBuS2sp7hKgyUCIDbxkbBUdYrzaUh2XCn5DDlhsd7Ai5DCP61YKk6W2Qz4jU48kKkvVDnHSjikxT9MX1mXGt47EdgOEDKPMhtoAefIhQtbAfE8DtWta8TZXNU-bCOEMa1dRFwua989dyHR7u7yezFvPn5nwjKPLCenUOwzn0Abx7mLHCCCXiFTtqVSW-SlgCmopdIDI7cy6GolGCAfTcjUqi4DrdAFNFx0CfOWBPmXgUB62jFvRtEx9pMukpsTWNi2mUUAQmGkPue3_fULpR1Qj1i43lIJtIRNsKL6wFax0R4mWvDK6yKusxFhwQ6mYB23W7w-MCP9jdMgYnccgoeJq3WjWqC9f8Do8bvdDdT9I-sZAp8uGkBKsEBKCKjgpB88-EAvUsqa6S7cEyvYdcZA_TvrKHozKXEkIfocAjhdfYKjQTA-vmhvUWj9vYjsunClJMRuPlges5dXg7dh9wZ_htUQEyPylaE1HcyvmE0nOxxaKspZoZG1ZnYKVAKvN0diZgrOXAYWkLlOc-Glj8cYI7bW3k07m61Sh9dAotVjvljr_rIA9zdqylCTgbZnwDXGec-CTei0ZgFOaFtvkvJjDDAUxKuYg1PftkEpMaU6sMHGAW3Ap6jxQmQ_NSDH3HNPzUjDtzvHchIwLja7sMEFxQN0m16QQVnED38VBJzs8yn0Jz1fLjYC3At-5RhyCBLnvWTDFHkKuaCrVTw1o-VwcErn80ljsLRaYD_yi_05y9FkEdXGoyITmNdQFIPbQ6fQ4nQkPB_GgvcuFNXM36yoRl0TguBSxhsFs2vYk1UbyS0jzAyPox5wIST-3TL4rZI0GJoXzxJrRPs1DOR4hkKnj-Lk0NXFbmAJll-0sPgOyidax6sBdPxof4pon-lI5LFuHpJ3Yz0LiTkVujP2Q7uFxv1ALUi6XEc87cXCwhGpxGiOwKFltpl826Ws-wWGbwYHP8cd-UShxiDoc4-f8S2Na2UiyKE4_LTM8szOx5jqNk9IFbZcr7KTemA54m32pWSrYG_ZHnEHZoe1TEn6SoVxTsIcpeikItb_NkP4W1jnq7Ns_f3738NfvD-9-ffjx-_c__QwbNsXt7TP_-Jk_9_7db3__8sO_3_4BJ3x6Ow1O2Df_AQAA__8.ReR0LgY_bRBcLdxZ1swmZR_ubpq2rHDFhwhTg7-_GTusIwMvaDCZb7dxkJagA2vCkDRD_UqP0C5GVFdDjQo_yQ'}"}], "start": 1604123241647, "stop": 1604123241647}, {"name": "响应日志", "status": "passed", "parameters": [{"name": "status_code", "value": "200"}, {"name": "body", "value": "'{\"msg\":\"success\",\"code\":0,\"page\":{\"totalCount\":12570,\"pageSize\":10,\"totalPage\":1257,\"currPage\":1,\"list\":[{\"id\":12754,\"mobile\":\"18600008888\",\"content\":\"SMS_148545070:{\\\"code\\\":\\\"172170\\\"}\",\"createDate\":\"2020-10-31 13:46\",\"createBy\":null},{\"id\":12753,\"mobile\":\"18821768014\",\"content\":\"SMS_148545070:{\\\"code\\\":\\\"788005\\\"}\",\"createDate\":\"2020-10-31 13:46\",\"createBy\":null},{\"id\":12752,\"mobile\":\"15093098152\",\"content\":\"SMS_148545070:{\\\"code\\\":\\\"058731\\\"}\",\"createDate\":\"2020-10-31 13:41\",\"createBy\":null},{\"id\":12751,\"mobile\":\"18821768014\",\"content\":\"SMS_148545070:{\\\"code\\\":\\\"297419\\\"}\",\"createDate\":\"2020-10-31 13:41\",\"createBy\":null},{\"id\":12750,\"mobile\":\"18608000111\",\"content\":\"SMS_148545070:{\\\"code\\\":\\\"168296\\\"}\",\"createDate\":\"2020-10-31 13:32\",\"createBy\":null},{\"id\":12749,\"mobile\":\"18821768014\",\"content\":\"SMS_148545070:{\\\"code\\\":\\\"607652\\\"}\",\"createDate\":\"2020-10-31 13:30\",\"createBy\":null},{\"id\":12748,\"mobile\":\"18600000011\",\"content\":\"SMS_148545070:{\\\"code\\\":\\\"815976\\\"}\",\"createDate\":\"2020-10-31 13:25\",\"createBy\":null},{\"id\":12747,\"mobile\":\"15093098153\",\"content\":\"SMS_148545070:{\\\"code\\\":\\\"659829\\\"}\",\"createDate\":\"2020-10-31 13:22\",\"createBy\":null},{\"id\":12746,\"mobile\":\"18105498870\",\"content\":\"SMS_148592322:{\\\"code\\\":\\\"934413\\\"}\",\"createDate\":\"2020-10-31 11:50\",\"createBy\":null},{\"id\":12745,\"mobile\":\"17600000011\",\"content\":\"SMS_148592322:{\\\"code\\\":\\\"490284\\\"}\",\"createDate\":\"2020-10-31 11:50\",\"createBy\":null}]}}'"}], "start": 1604123241931, "stop": 1604123241931}], "parameters": [{"name": "mobile", "value": "18821768014"}], "start": 1604123241647, "stop": 1604123241931}, {"name": "前台-找回密码", "status": "passed", "steps": [{"name": "请求日志", "status": "passed", "parameters": [{"name": "url", "value": "'https://shendu-dev1.sdpjw.cn/user/noauth/api/v1/register?platform=zhengshi&time=1604123241932'"}, {"name": "method", "value": "'post'"}, {"name": "body", "value": "{'captcha': '172170', 'channel': 1, 'inviteCode': 123456, 'mobile': 18821768014, 'name': '', 'password': 123456, 'rePassword': 123456}"}, {"name": "header", "value": "{'Content-Type': 'application/json', 'sd_origin': 'shendu-dev1.sdpjw.cn', 'token': 'eyJhbGciOiJIUzUxMiIsInppcCI6IkRFRiJ9.eNqMWElz5DQU_i997lDZpsn4NhOgiqoUkyIDd1mSu5XYkkdLTwzFiYIbVXDjwAUucJojB_7PEPgXPC2WZNmdcElsLW_53vcW99erW81W1aqhzVmNN8dHF-d1c3T-nDw7qp9t8NEFPd7UJ5vNBuNmtV4pU8PhE3hiSo1PSK-qk83x-cnp2enZ8_WK3vd-4cPTi2O7IEVLx9M9lZ19VrhSGAvZV6YnSNM1NkqLjsqqo51dR0bvhGRfwUrLlF6rQVW4U1iIPi0gjOsW4Tu7UCm0z8UgjXcgyyh4CTqSUndWSAJ7NWtbIlGjq254Cc8TS9ztpF_whm39ZfsOB1SnZvujNlghtNfwp6XhXfQtRVtD_Z1HfGa8EROf84UacZ6fQZIi50JvahC8Czt4lCtpizQTPLecm0qBXdhbrvCOEtPS0fYSGklv4egl4pi2awiwkACX4HrXDhDRRsjObikNapRmWLn7qNOloFZsE1wRjOgIYVgveTpDy8VFUkX19VsSlASznJ4rp4NteXVLCJNge1Jr6ZjHqGFc0sZwUmHn3zVSym04JQWrgupoowMyE-beQ8Bnt0YiULlnmI7La8b3wr5PTZ2QwxkWgmjv5CkRMFrKo8m1J_YjNxxnAzcCplxwDKf2IOAaDVejcmL0UOCaccpzrIQPSbxje6oOMc0v3wCTjFr7CBigWDXKWBa2HCVkCCv4LQ3PUzVLTUASSeBuS2sp7hKgyUCIDbxkbBUdYrzaUh2XCn5DDlhsd7Ai5DCP61YKk6W2Qz4jU48kKkvVDnHSjikxT9MX1mXGt47EdgOEDKPMhtoAefIhQtbAfE8DtWta8TZXNU-bCOEMa1dRFwua989dyHR7u7yezFvPn5nwjKPLCenUOwzn0Abx7mLHCCCXiFTtqVSW-SlgCmopdIDI7cy6GolGCAfTcjUqi4DrdAFNFx0CfOWBPmXgUB62jFvRtEx9pMukpsTWNi2mUUAQmGkPue3_fULpR1Qj1i43lIJtIRNsKL6wFax0R4mWvDK6yKusxFhwQ6mYB23W7w-MCP9jdMgYnccgoeJq3WjWqC9f8Do8bvdDdT9I-sZAp8uGkBKsEBKCKjgpB88-EAvUsqa6S7cEyvYdcZA_TvrKHozKXEkIfocAjhdfYKjQTA-vmhvUWj9vYjsunClJMRuPlges5dXg7dh9wZ_htUQEyPylaE1HcyvmE0nOxxaKspZoZG1ZnYKVAKvN0diZgrOXAYWkLlOc-Glj8cYI7bW3k07m61Sh9dAotVjvljr_rIA9zdqylCTgbZnwDXGec-CTei0ZgFOaFtvkvJjDDAUxKuYg1PftkEpMaU6sMHGAW3Ap6jxQmQ_NSDH3HNPzUjDtzvHchIwLja7sMEFxQN0m16QQVnED38VBJzs8yn0Jz1fLjYC3At-5RhyCBLnvWTDFHkKuaCrVTw1o-VwcErn80ljsLRaYD_yi_05y9FkEdXGoyITmNdQFIPbQ6fQ4nQkPB_GgvcuFNXM36yoRl0TguBSxhsFs2vYk1UbyS0jzAyPox5wIST-3TL4rZI0GJoXzxJrRPs1DOR4hkKnj-Lk0NXFbmAJll-0sPgOyidax6sBdPxof4pon-lI5LFuHpJ3Yz0LiTkVujP2Q7uFxv1ALUi6XEc87cXCwhGpxGiOwKFltpl826Ws-wWGbwYHP8cd-UShxiDoc4-f8S2Na2UiyKE4_LTM8szOx5jqNk9IFbZcr7KTemA54m32pWSrYG_ZHnEHZoe1TEn6SoVxTsIcpeikItb_NkP4W1jnq7Ns_f3738NfvD-9-ffjx-_c__QwbNsXt7TP_-Jk_9_7db3__8sO_3_4BJ3x6Ow1O2Df_AQAA__8.ReR0LgY_bRBcLdxZ1swmZR_ubpq2rHDFhwhTg7-_GTusIwMvaDCZb7dxkJagA2vCkDRD_UqP0C5GVFdDjQo_yQ'}"}], "start": 1604123241932, "stop": 1604123241932}, {"name": "响应日志", "status": "passed", "parameters": [{"name": "status_code", "value": "200"}, {"name": "body", "value": "'{\"msg\":\"验证码已失效，请重新发送\",\"code\":512}'"}], "start": 1604123242272, "stop": 1604123242272}], "parameters": [{"name": "captcha", "value": "'172170'"}, {"name": "mobile", "value": "18821768014"}], "start": 1604123241932, "stop": 1604123242272}], "parameters": [{"name": "first_ad_action", "value": "<action.merchant.Merchant object at 0x000001CF556F3668>"}, {"name": "admin_action", "value": "<action.otc_admin.OtcAdmin object at 0x000001CF556E95F8>"}], "start": 1604123238292, "stop": 1604123242272}], "start": 1604123238292, "stop": 1604123242272, "uuid": "956156a8-c280-4707-b553-65aa92fd5e96", "historyId": "305b7f2012b095ee791988d5d5a29a46", "testCaseId": "b99f82a8b6e45f9a09d3e405035b9ae8", "fullName": "case.qiantai_duo_jiekou.01_yangshi.test_03zhaohuimima.Test#test_denglu", "labels": [{"name": "feature", "value": "找回密码"}, {"name": "parentSuite", "value": "case.qiantai_duo_jiekou.01_yangshi"}, {"name": "suite", "value": "test_03zhaohuimima"}, {"name": "subSuite", "value": "Test"}, {"name": "host", "value": "ITSK-20200916WO"}, {"name": "thread", "value": "32212-MainThread"}, {"name": "framework", "value": "pytest"}, {"name": "language", "value": "cpython3"}, {"name": "package", "value": "case.qiantai_duo_jiekou.01_yangshi.test_03zhaohuimima"}]}