{"name": "找回密码", "status": "failed", "statusDetails": {"message": "AssertionError: assert '验证码错误' == 'success'\n  - 验证码错误\n  + success", "trace": "self = <test_03zhaohuimima.Test object at 0x00000231E42B0128>\nfirst_ad_action = <action.merchant.Merchant object at 0x00000231E42B4080>\nadmin_action = <action.otc_admin.OtcAdmin object at 0x00000231E4280BE0>\n\n    @allure.title(\"找回密码\")\n    @allure.step('找回密码')#测试报告显示步骤\n    def test_denglu(self, first_ad_action,admin_action):\n        #找回密码 - 发送验证码\n        zhaohui_password_fayzm = first_ad_action.zhaohui_password_fayzm(mobile=18821768014)\n        print(zhaohui_password_fayzm)\n        time.sleep(2)\n        assert zhaohui_password_fayzm['status_code'] == 200\n    \n        #获取验证码\n        admin_login = admin_action.admin_duanxin_yzm(mobile=18821768014)\n        yzm = admin_login['data']['page']['list'][0]['content'][23:29]\n        # print(admin_login['data']['page']['list'][0])\n        print(yzm)\n        #找回密码\n        zhaohui_password = first_ad_action.zhaohui_password(captcha = yzm,mobile=18821768014)\n        print(zhaohui_password)\n        # print(admin_login)\n        # print(admin_login['data']['page']['list'][0]['content'])\n        # print(admin_login['data']['page']['list'][0]['content'][23:29])\n        assert zhaohui_password['status_code'] == 200\n>       assert zhaohui_password['data']['msg'] == 'success'\nE       AssertionError: assert '验证码错误' == 'success'\nE         - 验证码错误\nE         + success\n\ntest_03zhaohuimima.py:39: AssertionError"}, "steps": [{"name": "找回密码", "status": "failed", "statusDetails": {"message": "AssertionError: assert '验证码错误' == 'success'\n  - 验证码错误\n  + success\n", "trace": "  File \"D:\\RJ\\Python\\lib\\site-packages\\allure_commons\\_allure.py\", line 157, in impl\n    return func(*a, **kw)\n  File \"D:\\RJ\\daima\\xin_yaml_test\\case\\qiantai_duo_jiekou\\01_yangshi\\test_03zhaohuimima.py\", line 39, in test_denglu\n    assert zhaohui_password['data']['msg'] == 'success'\n"}, "steps": [{"name": "前台-找回密码—发送验证码", "status": "passed", "steps": [{"name": "请求日志", "status": "passed", "parameters": [{"name": "url", "value": "'https://shendu-dev1.sdpjw.cn/user/noauth/api/v1/retrPwdGetTelCaptcha?platform=zhengshi&time=1606901350189'"}, {"name": "method", "value": "'post'"}, {"name": "body", "value": "{'messageType': 0, 'mobile': 18821768014}"}, {"name": "header", "value": "{'Content-Type': 'application/json', 'sd_origin': 'shendu-dev1.sdpjw.cn'}"}], "start": 1606901350189, "stop": 1606901350189}, {"name": "响应日志", "status": "passed", "parameters": [{"name": "status_code", "value": "200"}, {"name": "body", "value": "'{\"msg\":\"success\",\"code\":0}'"}], "start": 1606901350675, "stop": 1606901350675}], "parameters": [{"name": "mobile", "value": "18821768014"}], "start": 1606901350189, "stop": 1606901350675}, {"name": "获取短信验证码", "status": "passed", "steps": [{"name": "请求日志", "status": "passed", "parameters": [{"name": "url", "value": "'https://shendu-dev1.sdpjw.cn/notify/api/v1/memsms/list?platform=zhengshi&time=1606901352675&nojson=true&mobile=18821768014&page=1'"}, {"name": "method", "value": "'get'"}, {"name": "body", "value": "{}"}, {"name": "header", "value": "{'Content-Type': 'application/json', 'sd_origin': 'shendu-dev1.sdpjw.cn', 'token': 'eyJhbGciOiJIUzUxMiIsInppcCI6IkRFRiJ9.eNqMWEtv7DQU_i-zAmmKZujzZtdbQAJV3IoWWHtsZ8adxM61nWkDQkJCILGi7NiyQKyAHULcxf0zlN6fwfEjjuMkLZs2sY_POf7Odx6ZL2fXms2y2cnJu3j_gOzv5Suc7x2s8HLvhC7I3mKBnh3lmCBCjmfzmapXIMzpzSkpGf_o8ytYY0rBmiLV9Y15Q3qWLY8WR88Wy_3D5XxGbyu7cHy4OFqaBSkKak4sQbqisrSncaYwFrLK6oogTee4VlqUVGYlLc06qvVGSPYFrBRM6blqVIZLhYWougWE8apAeGsWMoV2sRqk8QZ01QpevI3OqJUVksDeihUFkSjXWdk8h-eeJ_Z0Z1_wnK3dYfMOAqpUg_3WGqwQWmn4U1D_LqqConVN3ZlH7sx4Lnp3jhdWiPNYBkmK7BWqegWKN34Ht3olLZBmgsee8zpT4Bd2niu8oaQuaOt7Co2k1yB6hjimxRwCLCTAJbjeFA1ENBeyNFtKgxmlGVb2PCp1qqgQ6w6uAEa4CGFYj910gJaNi6SK6osb4o14t6ydc2uDrXl2TQiT4Htn1tAxjlHOuKR5zUmG7f0ukFJ2wxpJWOVNBx8tkJEy--4DPjjVEoHKHcO0XZ4zvhPmve9qjxzWMR9EcyZOCY_RWB71jj2xH7hhOeu54THlgmOQ2oGCC9Sct8ZJrZsE14hTjmMpfEjiDdtRNcU0t3wJTKrV3EWgBoplrY5xZeNRQjVhCb9lzeNUjVITkEQSuFvQlRTbDtDOQYgNvERsFSViPFtTHZYSfkMOGGw3sCJkM4zrWoo6Sm2LfESmCkmUlqoN4qRoU2KYpqfmyoyvLYnNBihpWp05NQFy5IP6PgfmOxqoTV6Im9jUMG0ChAOsbUUdLWjufuPBMatYlFXslfPYeRDh4Jg1MBuxdzxVrWMW3SHoXr09WDICmHYUy3ZUKpMTXSgVVFnoDYH1kXcrJHIhLIDjdSotD7YHepxt3AgwmXtipSFFcUAj1gXXIvOBSL1qE5pev8wGBV5hZN1nvfv3AaXvUY1YMd5qEh76HDGh-NTUtvQ6ShTkRa2TjIuKjwHXF5Fh0AaTwMTw8D-GiojrcQw6VGwVbN1q7UWn3MxhalMr4Yw6IG-b7LaR9GUNTTGaV1L0fIwIykBSNo6OYAe4Zny3h64JVPgtsTF4PAsyIxiM2erhgfARbQ-eYijmTDcv8ktUmItfhs6dXCZlyWCSGp_Fxlf9bdtGDfdpriQiwO7PRFGXNPZiOLzEBC2gfmuJWhqnhcx7CbCapA1NzF_2zKPQmYsMd4Q1sXhZC-2sF72mZ8OQWp2aukZL49iQMKhoT9M4rS0d8KZueH4OkhDupK4kA3BS10JHHdZ9GLcgRsnIhKqqaLqak7oTSk6Y9UauFGxOlOqpcSpkp2V6XBv6jTzI9cg40hPTluMNe9RNcvUqYxY28DbMRJFwq_c5PJ-PdwZeCLy1PdsHCXLfsaCPPYRc0a52PzXLxSO0T-T0o2S02Rhg3pkqb31QR-ePSGlcVG0AQlPtD5r98XE6iJP-jhfW6LpRmwm4dAQOSwFrmOH6fVBSXUt-Bmk-Ma2-z4mQ9BPD5G2iq3WwMzhMrAHtu9EpxsMHsutJboTturopTJ6y434mXwzR8GtZNXHWTdFTXHNEHyuHaeuQtBS7QUisVOBG2w_pDh53I7Wgy-U04nGv9hdMoRodzwgsSraq-x9B3Yd_B4dpBhNf7o_9-JDiEGxYxg_5181taSOJotj_Co3wjGRCzbUWe6UL2i5X2Gq9rEvgbfRRZ6hgTphffxplprgPif_1hqOSwuObP799-PvXh99_frj77v7Hn2DDpLKROjh0zx97wdd3b-5--eev3-5ffwNSYHRrpE7coxf69-tXD69-AFXm5yGhrJ5j9-gl7r__Iwi95XS-DcKuMljnzI9RsEK5poAXU_RMENquf_UfAAAA__8.0hlnO0Y82jnyegeiVhLGcC-MkN4MH5aBSTT-6qU97nPqmc9p7fQvYLULXQ40x841j-jgY1CCIoIRzoudi2OTnQ'}"}], "start": 1606901352675, "stop": 1606901352675}, {"name": "响应日志", "status": "passed", "parameters": [{"name": "status_code", "value": "200"}, {"name": "body", "value": "'{\"msg\":\"success\",\"code\":0,\"page\":{\"totalCount\":16,\"pageSize\":10,\"totalPage\":2,\"currPage\":1,\"list\":[{\"id\":12791,\"mobile\":\"18821768014\",\"content\":\"SMS_148545070:{\\\"code\\\":\\\"811939\\\"}\",\"createDate\":\"2020-11-02 16:45\",\"createBy\":null},{\"id\":12785,\"mobile\":\"18821768014\",\"content\":\"SMS_148545070:{\\\"code\\\":\\\"228915\\\"}\",\"createDate\":\"2020-11-02 16:29\",\"createBy\":null},{\"id\":12773,\"mobile\":\"18821768014\",\"content\":\"SMS_148545070:{\\\"code\\\":\\\"411452\\\"}\",\"createDate\":\"2020-10-31 18:09\",\"createBy\":null},{\"id\":12772,\"mobile\":\"18821768014\",\"content\":\"SMS_148545070:{\\\"code\\\":\\\"686202\\\"}\",\"createDate\":\"2020-10-31 18:09\",\"createBy\":null},{\"id\":12771,\"mobile\":\"18821768014\",\"content\":\"SMS_148545070:{\\\"code\\\":\\\"732175\\\"}\",\"createDate\":\"2020-10-31 18:08\",\"createBy\":null},{\"id\":12761,\"mobile\":\"18821768014\",\"content\":\"SMS_148545070:{\\\"code\\\":\\\"661859\\\"}\",\"createDate\":\"2020-10-31 14:33\",\"createBy\":null},{\"id\":12760,\"mobile\":\"18821768014\",\"content\":\"SMS_148545070:{\\\"code\\\":\\\"767605\\\"}\",\"createDate\":\"2020-10-31 14:31\",\"createBy\":null},{\"id\":12759,\"mobile\":\"18821768014\",\"content\":\"SMS_148545070:{\\\"code\\\":\\\"748271\\\"}\",\"createDate\":\"2020-10-31 14:17\",\"createBy\":null},{\"id\":12758,\"mobile\":\"18821768014\",\"content\":\"SMS_148545070:{\\\"code\\\":\\\"611995\\\"}\",\"createDate\":\"2020-10-31 14:13\",\"createBy\":null},{\"id\":12756,\"mobile\":\"18821768014\",\"content\":\"SMS_148545070:{\\\"code\\\":\\\"165079\\\"}\",\"createDate\":\"2020-10-31 14:11\",\"createBy\":null}]}}'"}], "start": 1606901352886, "stop": 1606901352886}], "parameters": [{"name": "mobile", "value": "18821768014"}], "start": 1606901352675, "stop": 1606901352886}, {"name": "前台-找回密码", "status": "passed", "steps": [{"name": "请求日志", "status": "passed", "parameters": [{"name": "url", "value": "'https://shendu-dev1.sdpjw.cn/user/noauth/api/v1/retrPwdAndSetPwd?platform=zhengshi&time=1606901352887'"}, {"name": "method", "value": "'post'"}, {"name": "body", "value": "{'captcha': '811939', 'mobile': 18821768014, 'password': 123456, 'rePassword': 123456}"}, {"name": "header", "value": "{'Content-Type': 'application/json', 'sd_origin': 'shendu-dev1.sdpjw.cn', 'token': 'eyJhbGciOiJIUzUxMiIsInppcCI6IkRFRiJ9.eNqMWEtv7DQU_i-zAmmKZujzZtdbQAJV3IoWWHtsZ8adxM61nWkDQkJCILGi7NiyQKyAHULcxf0zlN6fwfEjjuMkLZs2sY_POf7Odx6ZL2fXms2y2cnJu3j_gOzv5Suc7x2s8HLvhC7I3mKBnh3lmCBCjmfzmapXIMzpzSkpGf_o8ytYY0rBmiLV9Y15Q3qWLY8WR88Wy_3D5XxGbyu7cHy4OFqaBSkKak4sQbqisrSncaYwFrLK6oogTee4VlqUVGYlLc06qvVGSPYFrBRM6blqVIZLhYWougWE8apAeGsWMoV2sRqk8QZ01QpevI3OqJUVksDeihUFkSjXWdk8h-eeJ_Z0Z1_wnK3dYfMOAqpUg_3WGqwQWmn4U1D_LqqConVN3ZlH7sx4Lnp3jhdWiPNYBkmK7BWqegWKN34Ht3olLZBmgsee8zpT4Bd2niu8oaQuaOt7Co2k1yB6hjimxRwCLCTAJbjeFA1ENBeyNFtKgxmlGVb2PCp1qqgQ6w6uAEa4CGFYj910gJaNi6SK6osb4o14t6ydc2uDrXl2TQiT4Htn1tAxjlHOuKR5zUmG7f0ukFJ2wxpJWOVNBx8tkJEy--4DPjjVEoHKHcO0XZ4zvhPmve9qjxzWMR9EcyZOCY_RWB71jj2xH7hhOeu54THlgmOQ2oGCC9Sct8ZJrZsE14hTjmMpfEjiDdtRNcU0t3wJTKrV3EWgBoplrY5xZeNRQjVhCb9lzeNUjVITkEQSuFvQlRTbDtDOQYgNvERsFSViPFtTHZYSfkMOGGw3sCJkM4zrWoo6Sm2LfESmCkmUlqoN4qRoU2KYpqfmyoyvLYnNBihpWp05NQFy5IP6PgfmOxqoTV6Im9jUMG0ChAOsbUUdLWjufuPBMatYlFXslfPYeRDh4Jg1MBuxdzxVrWMW3SHoXr09WDICmHYUy3ZUKpMTXSgVVFnoDYH1kXcrJHIhLIDjdSotD7YHepxt3AgwmXtipSFFcUAj1gXXIvOBSL1qE5pev8wGBV5hZN1nvfv3AaXvUY1YMd5qEh76HDGh-NTUtvQ6ShTkRa2TjIuKjwHXF5Fh0AaTwMTw8D-GiojrcQw6VGwVbN1q7UWn3MxhalMr4Yw6IG-b7LaR9GUNTTGaV1L0fIwIykBSNo6OYAe4Zny3h64JVPgtsTF4PAsyIxiM2erhgfARbQ-eYijmTDcv8ktUmItfhs6dXCZlyWCSGp_Fxlf9bdtGDfdpriQiwO7PRFGXNPZiOLzEBC2gfmuJWhqnhcx7CbCapA1NzF_2zKPQmYsMd4Q1sXhZC-2sF72mZ8OQWp2aukZL49iQMKhoT9M4rS0d8KZueH4OkhDupK4kA3BS10JHHdZ9GLcgRsnIhKqqaLqak7oTSk6Y9UauFGxOlOqpcSpkp2V6XBv6jTzI9cg40hPTluMNe9RNcvUqYxY28DbMRJFwq_c5PJ-PdwZeCLy1PdsHCXLfsaCPPYRc0a52PzXLxSO0T-T0o2S02Rhg3pkqb31QR-ePSGlcVG0AQlPtD5r98XE6iJP-jhfW6LpRmwm4dAQOSwFrmOH6fVBSXUt-Bmk-Ma2-z4mQ9BPD5G2iq3WwMzhMrAHtu9EpxsMHsutJboTturopTJ6y434mXwzR8GtZNXHWTdFTXHNEHyuHaeuQtBS7QUisVOBG2w_pDh53I7Wgy-U04nGv9hdMoRodzwgsSraq-x9B3Yd_B4dpBhNf7o_9-JDiEGxYxg_5181taSOJotj_Co3wjGRCzbUWe6UL2i5X2Gq9rEvgbfRRZ6hgTphffxplprgPif_1hqOSwuObP799-PvXh99_frj77v7Hn2DDpLKROjh0zx97wdd3b-5--eev3-5ffwNSYHRrpE7coxf69-tXD69-AFXm5yGhrJ5j9-gl7r__Iwi95XS-DcKuMljnzI9RsEK5poAXU_RMENquf_UfAAAA__8.0hlnO0Y82jnyegeiVhLGcC-MkN4MH5aBSTT-6qU97nPqmc9p7fQvYLULXQ40x841j-jgY1CCIoIRzoudi2OTnQ'}"}], "start": 1606901352887, "stop": 1606901352887}, {"name": "响应日志", "status": "passed", "parameters": [{"name": "status_code", "value": "200"}, {"name": "body", "value": "'{\"msg\":\"验证码错误\",\"code\":512}'"}], "start": 1606901353360, "stop": 1606901353360}], "parameters": [{"name": "captcha", "value": "'811939'"}, {"name": "mobile", "value": "18821768014"}], "start": 1606901352887, "stop": 1606901353360}], "parameters": [{"name": "first_ad_action", "value": "<action.merchant.Merchant object at 0x00000231E42B4080>"}, {"name": "admin_action", "value": "<action.otc_admin.OtcAdmin object at 0x00000231E4280BE0>"}], "start": 1606901350189, "stop": 1606901353361}], "start": 1606901350189, "stop": 1606901353361, "uuid": "09c1157f-ba0f-42b9-8d47-b657b7bfdf76", "historyId": "305b7f2012b095ee791988d5d5a29a46", "testCaseId": "b99f82a8b6e45f9a09d3e405035b9ae8", "fullName": "case.qiantai_duo_jiekou.01_yangshi.test_03zhaohuimima.Test#test_denglu", "labels": [{"name": "feature", "value": "找回密码"}, {"name": "parentSuite", "value": "case.qiantai_duo_jiekou.01_yangshi"}, {"name": "suite", "value": "test_03zhaohuimima"}, {"name": "subSuite", "value": "Test"}, {"name": "host", "value": "ITSK-20200916WO"}, {"name": "thread", "value": "44020-MainThread"}, {"name": "framework", "value": "pytest"}, {"name": "language", "value": "cpython3"}, {"name": "package", "value": "case.qiantai_duo_jiekou.01_yangshi.test_03zhaohuimima"}]}