{"name": "找回密码", "status": "passed", "steps": [{"name": "找回密码", "status": "passed", "steps": [{"name": "获取短信验证码", "status": "passed", "steps": [{"name": "请求日志", "status": "passed", "parameters": [{"name": "url", "value": "'https://shendu-dev1.sdpjw.cn/notify/api/v1/memsms/list?platform=zhengshi&time=1604123267905'"}, {"name": "method", "value": "'post'"}, {"name": "body", "value": "{'nojson': 'true', 'mobile': 18821768014, 'page': 1}"}, {"name": "header", "value": "{'Content-Type': 'application/json', 'sd_origin': 'shendu-dev1.sdpjw.cn', 'token': 'eyJhbGciOiJIUzUxMiIsInppcCI6IkRFRiJ9.eNqMWMty5DQU_Zded6h0JhUy3s0EqKIqxaTIwF6W5G6lZckjyT0xFCsKdlTBjgUb2MBqliz4nyHwF1w9LMmyO2GT2Hrcx7nnPtxfr-4MW1WrZrO5JHVzdkIaenFy3pyfn1xuMDp5fvH8skb12eZ006zWK93XcHgDT0zr8QmZVbW5OD3fnD07u7hcr-h95xc-PLs8tQtKcjqe7qhq7bPGlcZYqq7qO4IMXeNeG9lSVbW0teuoNzup2Fewwpk2az3oCrcaS9mlBYRxzRHe24VKo0MuBhm8A1m9hpegIyl1Z6UisFczzolCjana4SU8Tyxxt5N-KRq29ZftOxzQrZ7tj9pghdDOwB9Ow7vsOEXbnvo7j_jMRCMnPucLNRIiP4MURc6Frq9B8C7s4FGuohwZJkVuuegrDXZhb7nGO0p6TkfbS2gUvYOjV0hgytcQYKkALinMjg8Q0Uaq1m5pA2q0YVi7-6g1pSAutwmuCEZ0hDBsljydoeXioqim5uYtCUqCWU7PtdPBtqK6I4QpsD2ptXTMY9QwoWjTC1Jh598N0tptOCUFq4LqaKMDMhPm3kPAZ7dGIlB1YJiOy2smDtK-T02dkMMZFoJo7-QpETBayqPJtSf2IzccZwM3AqZCCgynDiDgBg3Xo3LSm6HANeOU51gJH1J4xw5UH2OaX74FJvV67SPQA8WqUcaysOUooZ6wgt-qF3mqZqkJSCIF3OW0VnKfAE0GQmzgJWOrbBET1ZaauFTwG3LAYruDFamGeVy3SvZZajvkMzJ1SKGyVO2QIHxMiXmavrAuM7F1JLYbIGQYZTbUBsiTDxGyBuZ7Guhdw-XbXNU8bSKEM6xdRV0saN4_dyHT7e3yejJvPX9mwjOOLiekU-8wnEMbxLuLLSOAXCJSdaBKW-angGmopdABIrcz62okGykdTMvVqCwCrtMFNF10CPBVBPqUgUN52DJuRdMy9ZEuk5oSW9u0mEYBQWCmPeS2__cJpR9RgxhfbigF20Im2FB8YStY6Y6WnLzqTZFXWYmx4IZSMQ_arN8fGRH-x-iQMTqPQULF1brRrFFfvuB1eNzuh-p-UPRND50uG0JKsEJICKrgpBo8-0AsUMua6i7dESjbe-Igf5z0lT0YlbmSEPwOARwvvsBQoZkZXjW3iFs_b2M7LpwpSTEbj5YHrOXV4O3YfcGf4bVCBMj8peR9S3Mr5hNJzkcORdkoNLK2rE7BSoDV5mjsTMHZq4BCUpcpTvy0sXjTS-O180kn83Wq0HpslFqsd0udf1bAnmZtWUoS8LZM-IY4zznwSb9WDMApTYttcl7MYYaCGBVzEOo6PqQSU5oTK0wc4BZcijqPVOZjM1LMPcf0vBRMu3M8NyHjQqMrO0xQHFC3yTUphFXcwPs46GSHR7kv4fl6uREILvHeNeIQJMh9z4Ip9hByTVOpfmpAy-fikMjll8Zib7HAfOAX_XeSo88iqItDRSY0r6EuALGHTqfH6Ux4PIhH7V0urJm7WVeJuCQCx6WINQxm07anqOmVuII0PzKCfiyIVPRzy-R9IWs0MCmcJ9aM9mkeyvEIgUwdx8-lqYnbwhQou2xn8RmQTbSOVUfu-tH4GNc80ZfKYdk6FG3lYRYSdypyY-yH9ACPh4VakHK5jHjeiYODJVSL0xiBRcXqfvplk77mExy2GRz5HH_sF4USh6jDMX7OvzSmlY0ki-L00zLDMzsTa67TOCld0HaFxk7qbd8Cb7MvNUsFe8P-iDNoO7R9SsJPMlQYCvYwTa8kofa3GdLdwbpArX3758_vHv76_eHdrw8_fv_-p59hw6a4vf3MP37mz71_99vfv_zw77d_wAmf3k6DE_bNfwAAAP__.EVkH3Ew67xJ2qtvHYuIrPz52QQlhs4q7jI3kAi5znHCsotKxYatc7Ew8QOJinWTwu38wepbV7WGW9FqXbuL59A'}"}], "start": 1604123267905, "stop": 1604123267905}, {"name": "响应日志", "status": "passed", "parameters": [{"name": "status_code", "value": "200"}, {"name": "body", "value": "'{\"msg\":\"success\",\"code\":0,\"page\":{\"totalCount\":12570,\"pageSize\":10,\"totalPage\":1257,\"currPage\":1,\"list\":[{\"id\":12754,\"mobile\":\"18600008888\",\"content\":\"SMS_148545070:{\\\"code\\\":\\\"172170\\\"}\",\"createDate\":\"2020-10-31 13:46\",\"createBy\":null},{\"id\":12753,\"mobile\":\"18821768014\",\"content\":\"SMS_148545070:{\\\"code\\\":\\\"788005\\\"}\",\"createDate\":\"2020-10-31 13:46\",\"createBy\":null},{\"id\":12752,\"mobile\":\"15093098152\",\"content\":\"SMS_148545070:{\\\"code\\\":\\\"058731\\\"}\",\"createDate\":\"2020-10-31 13:41\",\"createBy\":null},{\"id\":12751,\"mobile\":\"18821768014\",\"content\":\"SMS_148545070:{\\\"code\\\":\\\"297419\\\"}\",\"createDate\":\"2020-10-31 13:41\",\"createBy\":null},{\"id\":12750,\"mobile\":\"18608000111\",\"content\":\"SMS_148545070:{\\\"code\\\":\\\"168296\\\"}\",\"createDate\":\"2020-10-31 13:32\",\"createBy\":null},{\"id\":12749,\"mobile\":\"18821768014\",\"content\":\"SMS_148545070:{\\\"code\\\":\\\"607652\\\"}\",\"createDate\":\"2020-10-31 13:30\",\"createBy\":null},{\"id\":12748,\"mobile\":\"18600000011\",\"content\":\"SMS_148545070:{\\\"code\\\":\\\"815976\\\"}\",\"createDate\":\"2020-10-31 13:25\",\"createBy\":null},{\"id\":12747,\"mobile\":\"15093098153\",\"content\":\"SMS_148545070:{\\\"code\\\":\\\"659829\\\"}\",\"createDate\":\"2020-10-31 13:22\",\"createBy\":null},{\"id\":12746,\"mobile\":\"18105498870\",\"content\":\"SMS_148592322:{\\\"code\\\":\\\"934413\\\"}\",\"createDate\":\"2020-10-31 11:50\",\"createBy\":null},{\"id\":12745,\"mobile\":\"17600000011\",\"content\":\"SMS_148592322:{\\\"code\\\":\\\"490284\\\"}\",\"createDate\":\"2020-10-31 11:50\",\"createBy\":null}]}}'"}], "start": 1604123268121, "stop": 1604123268121}], "parameters": [{"name": "mobile", "value": "18821768014"}], "start": 1604123267905, "stop": 1604123268121}, {"name": "前台-找回密码", "status": "passed", "steps": [{"name": "请求日志", "status": "passed", "parameters": [{"name": "url", "value": "'https://shendu-dev1.sdpjw.cn/user/noauth/api/v1/register?platform=zhengshi&time=1604123268121'"}, {"name": "method", "value": "'post'"}, {"name": "body", "value": "{'captcha': '172170', 'channel': 1, 'inviteCode': 123456, 'mobile': 18821768014, 'name': '', 'password': 123456, 'rePassword': 123456}"}, {"name": "header", "value": "{'Content-Type': 'application/json', 'sd_origin': 'shendu-dev1.sdpjw.cn', 'token': 'eyJhbGciOiJIUzUxMiIsInppcCI6IkRFRiJ9.eNqMWMty5DQU_Zded6h0JhUy3s0EqKIqxaTIwF6W5G6lZckjyT0xFCsKdlTBjgUb2MBqliz4nyHwF1w9LMmyO2GT2Hrcx7nnPtxfr-4MW1WrZrO5JHVzdkIaenFy3pyfn1xuMDp5fvH8skb12eZ006zWK93XcHgDT0zr8QmZVbW5OD3fnD07u7hcr-h95xc-PLs8tQtKcjqe7qhq7bPGlcZYqq7qO4IMXeNeG9lSVbW0teuoNzup2Fewwpk2az3oCrcaS9mlBYRxzRHe24VKo0MuBhm8A1m9hpegIyl1Z6UisFczzolCjana4SU8Tyxxt5N-KRq29ZftOxzQrZ7tj9pghdDOwB9Ow7vsOEXbnvo7j_jMRCMnPucLNRIiP4MURc6Frq9B8C7s4FGuohwZJkVuuegrDXZhb7nGO0p6TkfbS2gUvYOjV0hgytcQYKkALinMjg8Q0Uaq1m5pA2q0YVi7-6g1pSAutwmuCEZ0hDBsljydoeXioqim5uYtCUqCWU7PtdPBtqK6I4QpsD2ptXTMY9QwoWjTC1Jh598N0tptOCUFq4LqaKMDMhPm3kPAZ7dGIlB1YJiOy2smDtK-T02dkMMZFoJo7-QpETBayqPJtSf2IzccZwM3AqZCCgynDiDgBg3Xo3LSm6HANeOU51gJH1J4xw5UH2OaX74FJvV67SPQA8WqUcaysOUooZ6wgt-qF3mqZqkJSCIF3OW0VnKfAE0GQmzgJWOrbBET1ZaauFTwG3LAYruDFamGeVy3SvZZajvkMzJ1SKGyVO2QIHxMiXmavrAuM7F1JLYbIGQYZTbUBsiTDxGyBuZ7Guhdw-XbXNU8bSKEM6xdRV0saN4_dyHT7e3yejJvPX9mwjOOLiekU-8wnEMbxLuLLSOAXCJSdaBKW-angGmopdABIrcz62okGykdTMvVqCwCrtMFNF10CPBVBPqUgUN52DJuRdMy9ZEuk5oSW9u0mEYBQWCmPeS2__cJpR9RgxhfbigF20Im2FB8YStY6Y6WnLzqTZFXWYmx4IZSMQ_arN8fGRH-x-iQMTqPQULF1brRrFFfvuB1eNzuh-p-UPRND50uG0JKsEJICKrgpBo8-0AsUMua6i7dESjbe-Igf5z0lT0YlbmSEPwOARwvvsBQoZkZXjW3iFs_b2M7LpwpSTEbj5YHrOXV4O3YfcGf4bVCBMj8peR9S3Mr5hNJzkcORdkoNLK2rE7BSoDV5mjsTMHZq4BCUpcpTvy0sXjTS-O180kn83Wq0HpslFqsd0udf1bAnmZtWUoS8LZM-IY4zznwSb9WDMApTYttcl7MYYaCGBVzEOo6PqQSU5oTK0wc4BZcijqPVOZjM1LMPcf0vBRMu3M8NyHjQqMrO0xQHFC3yTUphFXcwPs46GSHR7kv4fl6uREILvHeNeIQJMh9z4Ip9hByTVOpfmpAy-fikMjll8Zib7HAfOAX_XeSo88iqItDRSY0r6EuALGHTqfH6Ux4PIhH7V0urJm7WVeJuCQCx6WINQxm07anqOmVuII0PzKCfiyIVPRzy-R9IWs0MCmcJ9aM9mkeyvEIgUwdx8-lqYnbwhQou2xn8RmQTbSOVUfu-tH4GNc80ZfKYdk6FG3lYRYSdypyY-yH9ACPh4VakHK5jHjeiYODJVSL0xiBRcXqfvplk77mExy2GRz5HH_sF4USh6jDMX7OvzSmlY0ki-L00zLDMzsTa67TOCld0HaFxk7qbd8Cb7MvNUsFe8P-iDNoO7R9SsJPMlQYCvYwTa8kofa3GdLdwbpArX3758_vHv76_eHdrw8_fv_-p59hw6a4vf3MP37mz71_99vfv_zw77d_wAmf3k6DE_bNfwAAAP__.EVkH3Ew67xJ2qtvHYuIrPz52QQlhs4q7jI3kAi5znHCsotKxYatc7Ew8QOJinWTwu38wepbV7WGW9FqXbuL59A'}"}], "start": 1604123268121, "stop": 1604123268121}, {"name": "响应日志", "status": "passed", "parameters": [{"name": "status_code", "value": "200"}, {"name": "body", "value": "'{\"msg\":\"验证码已失效，请重新发送\",\"code\":512}'"}], "start": 1604123268419, "stop": 1604123268419}], "parameters": [{"name": "captcha", "value": "'172170'"}, {"name": "mobile", "value": "18821768014"}], "start": 1604123268121, "stop": 1604123268419}], "parameters": [{"name": "first_ad_action", "value": "<action.merchant.Merchant object at 0x000002661CB9A2B0>"}, {"name": "admin_action", "value": "<action.otc_admin.OtcAdmin object at 0x000002661CBCB9E8>"}], "start": 1604123267905, "stop": 1604123268419}], "start": 1604123267905, "stop": 1604123268419, "uuid": "ec951bf5-8a31-4dfe-a435-5adec984e5ad", "historyId": "305b7f2012b095ee791988d5d5a29a46", "testCaseId": "b99f82a8b6e45f9a09d3e405035b9ae8", "fullName": "case.qiantai_duo_jiekou.01_yangshi.test_03zhaohuimima.Test#test_denglu", "labels": [{"name": "feature", "value": "找回密码"}, {"name": "parentSuite", "value": "case.qiantai_duo_jiekou.01_yangshi"}, {"name": "suite", "value": "test_03zhaohuimima"}, {"name": "subSuite", "value": "Test"}, {"name": "host", "value": "ITSK-20200916WO"}, {"name": "thread", "value": "29664-MainThread"}, {"name": "framework", "value": "pytest"}, {"name": "language", "value": "cpython3"}, {"name": "package", "value": "case.qiantai_duo_jiekou.01_yangshi.test_03zhaohuimima"}]}