{"name": "找回密码", "status": "passed", "steps": [{"name": "找回密码", "status": "passed", "steps": [{"name": "前台-找回密码—发送验证码", "status": "passed", "steps": [{"name": "请求日志", "status": "passed", "parameters": [{"name": "url", "value": "'https://shendu-dev1.sdpjw.cn/user/noauth/api/v1/retrPwdGetTelCaptcha?platform=zhengshi&time=1604305784105'"}, {"name": "method", "value": "'post'"}, {"name": "body", "value": "{'messageType': 0, 'mobile': 18821768014}"}, {"name": "header", "value": "{'Content-Type': 'application/json', 'sd_origin': 'shendu-dev1.sdpjw.cn'}"}], "start": 1604305784105, "stop": 1604305784105}, {"name": "响应日志", "status": "passed", "parameters": [{"name": "status_code", "value": "200"}, {"name": "body", "value": "'{\"msg\":\"success\",\"code\":0}'"}], "start": 1604305784699, "stop": 1604305784699}], "parameters": [{"name": "mobile", "value": "18821768014"}], "start": 1604305784105, "stop": 1604305784699}, {"name": "获取短信验证码", "status": "passed", "steps": [{"name": "请求日志", "status": "passed", "parameters": [{"name": "url", "value": "'https://shendu-dev1.sdpjw.cn/notify/api/v1/memsms/list?platform=zhengshi&time=1604305789700&nojson=true&mobile=18821768014&page=1'"}, {"name": "method", "value": "'get'"}, {"name": "body", "value": "{}"}, {"name": "header", "value": "{'Content-Type': 'application/json', 'sd_origin': 'shendu-dev1.sdpjw.cn', 'token': 'eyJhbGciOiJIUzUxMiIsInppcCI6IkRFRiJ9.eNqMWMtyHDUU_ZdZjylPPMFO7xIDVVS5iAsH9hpJPSOPWupI6okbihUFO6pgx4INbJJVliz4n2D4C64eLanVPTYbu1uP-zj33EfPt4tbwxbV4pzU5_XmCT1ZreDP-nR1enKB1puTc3JBnuD1ev3sDC2WC91t4PAKnpjWwxMyi2r18en67PTp-cV6uaB3rV94tjp9aheU5HQ43VLV2GeNK42xVG3VtQQZusSdNrKhqmpoY9dRZ3ZSsW9ghTNtlrrXFW40lrJNCwjjDUd4bxcqjQ65GGTwDmR1Gl6CjqTUnZWKwN6GcU4Uqk3V9C_geWSJu530S1Gzrb9s3-GAbvRkf9AGK4S2Bv5wGt5lyynadtTfecBnJmo58jlf2CAh8jNIUeRcaLsNCN6FHTzIVZQjw6TILRddpcEu7C3XeEdJx-lgewmNordw9BIJTPkSAiwVwCWF2fEeIlpL1dgtbUCNNgxrdx81phTE5TbBFcGIjhCGzZynE7RcXBTV1Fy_IUFJMMvpuXI62FZUt4QwBbYntZaOeYxqJhStO0Eq7Py7Rlq7DaekYFVQHW10QGbC3HsI-OTWQASqDgzTYXnJxEHa97GpI3I4w0IQ7Z08JQJGc3k0uvbIfuSG42zgRsBUSIHh1AEEXKP-alBOOtMXuGac8hwr4UMK79iB6mNM88s3wKROL30EOqBYNciYFzYfJdQRVvBbdSJP1Sw1AUmkgLucbpTcJ0CTgRAbeMnYKhvERLWlJi4V_IYcsNjuYEWqfhrXrZJdltoO-YxMLVKoLFU7JAgfUmKaps-ty0xsHYntBgjpB5k1tQHy5EOELIH5ngZ6V3P5Jlc1TZsI4QRrV1FnC5r3z13IdHu7vJ7MW8-fifCMo_MJ6dQ7DKfQBvHuYsMIIJeIVB2o0pb5KWAaail0gMjtzLoNkrWUDqb5alQWAdfpApouOgT4KgJ9ysChPGwZt6JpmfpIl1FNia1tXEyjgCAw0x5y2__7jNJPqEGMzzeUgm0hE2wovrIVrHRHS05edqbIq6zEWHBDqZgGbdLvj4wI_2N0yBidxyCh4mrdYNagL1_wOjxud3111yv6uoNOlw0hJVghJARVcFL1nn0gFqhlTXWXbgmU7T1xkD9M-soejMpcSQh-hwAOF59jqNDM9C_rG8StnzexHRfOlKSYjEfzA9b8avB26L7gT_9KIQJk_lryrqG5FdOJJOcjh6JsFBpYW1anYCXAanM0dqbg7GVAIanLFCd-2li87qTx2vmok_k6VWg9NkrN1ru5zj8pYI-ztiwlCXhbJnxDnOYc-KRfKQbglKbFNjkt5jBDQYyKOQi1Le9TiSnNiRUmDnAzLkWdRyrzsRkp5p5jel4Kxt05nhuRcabRlR0mKA6o2-QaFcIqbuB9HHSyw4PcF_B8Nd8IBJd47xpxCBLkvmfBGHsIuaapVD82oOVzcUjk8ktjtrdYYD7yi_47ydFnFtTZoSITmtdQF4DYQ8fT43gmPB7Eo_bOF9bM3ayrRFwSgeNSxBoGs3HbU9R0SlxCmh8ZQT8VRCr6pWXyvpA1GJgUThNrQvs0D-V4hECmjuPn0tTEbWEKlJ23s_gMyCZax6ojd_1ofIxrnuhz5bBsHYo28jAJiTsVuTH0Q3qAx8NMLUi5XEY878TBwRKq2WmMwKJim278ZZO-5hMcthkc-Rx_6BeFEoeowzF-yr80ppWNJIvi-NMywzM7E2uu0zgqXdB2hcZO6k3XAG-zLzVLBXvD_ojTazu0fU7CTzJUGAr2ME0vJaH2txnS3sK6QI19--fPH-7_env__vf7n3_88MuvsGFT3N4-849f-HMf3v_x928__fv9Ozjh09tpcMK--w8AAP__.h_nocUCgOHiswZ5jR7q6fLpVpO_NtPZkijrcX4yuxxDIGNWWzT67sL3quHkZ9yHFt-5nG9eLmYf_FqIh4id22g'}"}], "start": 1604305789700, "stop": 1604305789700}, {"name": "响应日志", "status": "passed", "parameters": [{"name": "status_code", "value": "200"}, {"name": "body", "value": "'{\"msg\":\"success\",\"code\":0,\"page\":{\"totalCount\":15,\"pageSize\":10,\"totalPage\":2,\"currPage\":1,\"list\":[{\"id\":12785,\"mobile\":\"18821768014\",\"content\":\"SMS_148545070:{\\\"code\\\":\\\"228915\\\"}\",\"createDate\":\"2020-11-02 16:29\",\"createBy\":null},{\"id\":12773,\"mobile\":\"18821768014\",\"content\":\"SMS_148545070:{\\\"code\\\":\\\"411452\\\"}\",\"createDate\":\"2020-10-31 18:09\",\"createBy\":null},{\"id\":12772,\"mobile\":\"18821768014\",\"content\":\"SMS_148545070:{\\\"code\\\":\\\"686202\\\"}\",\"createDate\":\"2020-10-31 18:09\",\"createBy\":null},{\"id\":12771,\"mobile\":\"18821768014\",\"content\":\"SMS_148545070:{\\\"code\\\":\\\"732175\\\"}\",\"createDate\":\"2020-10-31 18:08\",\"createBy\":null},{\"id\":12761,\"mobile\":\"18821768014\",\"content\":\"SMS_148545070:{\\\"code\\\":\\\"661859\\\"}\",\"createDate\":\"2020-10-31 14:33\",\"createBy\":null},{\"id\":12760,\"mobile\":\"18821768014\",\"content\":\"SMS_148545070:{\\\"code\\\":\\\"767605\\\"}\",\"createDate\":\"2020-10-31 14:31\",\"createBy\":null},{\"id\":12759,\"mobile\":\"18821768014\",\"content\":\"SMS_148545070:{\\\"code\\\":\\\"748271\\\"}\",\"createDate\":\"2020-10-31 14:17\",\"createBy\":null},{\"id\":12758,\"mobile\":\"18821768014\",\"content\":\"SMS_148545070:{\\\"code\\\":\\\"611995\\\"}\",\"createDate\":\"2020-10-31 14:13\",\"createBy\":null},{\"id\":12756,\"mobile\":\"18821768014\",\"content\":\"SMS_148545070:{\\\"code\\\":\\\"165079\\\"}\",\"createDate\":\"2020-10-31 14:11\",\"createBy\":null},{\"id\":12755,\"mobile\":\"18821768014\",\"content\":\"SMS_148545070:{\\\"code\\\":\\\"272356\\\"}\",\"createDate\":\"2020-10-31 14:06\",\"createBy\":null}]}}'"}], "start": 1604305789902, "stop": 1604305789902}], "parameters": [{"name": "mobile", "value": "18821768014"}], "start": 1604305789700, "stop": 1604305789902}, {"name": "前台-找回密码", "status": "passed", "steps": [{"name": "请求日志", "status": "passed", "parameters": [{"name": "url", "value": "'https://shendu-dev1.sdpjw.cn/user/noauth/api/v1/retrPwdAndSetPwd?platform=zhengshi&time=1604305789902'"}, {"name": "method", "value": "'post'"}, {"name": "body", "value": "{'captcha': '228915', 'mobile': 18821768014, 'password': 123456, 'rePassword': 123456}"}, {"name": "header", "value": "{'Content-Type': 'application/json', 'sd_origin': 'shendu-dev1.sdpjw.cn', 'token': 'eyJhbGciOiJIUzUxMiIsInppcCI6IkRFRiJ9.eNqMWMtyHDUU_ZdZjylPPMFO7xIDVVS5iAsH9hpJPSOPWupI6okbihUFO6pgx4INbJJVliz4n2D4C64eLanVPTYbu1uP-zj33EfPt4tbwxbV4pzU5_XmCT1ZreDP-nR1enKB1puTc3JBnuD1ev3sDC2WC91t4PAKnpjWwxMyi2r18en67PTp-cV6uaB3rV94tjp9aheU5HQ43VLV2GeNK42xVG3VtQQZusSdNrKhqmpoY9dRZ3ZSsW9ghTNtlrrXFW40lrJNCwjjDUd4bxcqjQ65GGTwDmR1Gl6CjqTUnZWKwN6GcU4Uqk3V9C_geWSJu530S1Gzrb9s3-GAbvRkf9AGK4S2Bv5wGt5lyynadtTfecBnJmo58jlf2CAh8jNIUeRcaLsNCN6FHTzIVZQjw6TILRddpcEu7C3XeEdJx-lgewmNordw9BIJTPkSAiwVwCWF2fEeIlpL1dgtbUCNNgxrdx81phTE5TbBFcGIjhCGzZynE7RcXBTV1Fy_IUFJMMvpuXI62FZUt4QwBbYntZaOeYxqJhStO0Eq7Py7Rlq7DaekYFVQHW10QGbC3HsI-OTWQASqDgzTYXnJxEHa97GpI3I4w0IQ7Z08JQJGc3k0uvbIfuSG42zgRsBUSIHh1AEEXKP-alBOOtMXuGac8hwr4UMK79iB6mNM88s3wKROL30EOqBYNciYFzYfJdQRVvBbdSJP1Sw1AUmkgLucbpTcJ0CTgRAbeMnYKhvERLWlJi4V_IYcsNjuYEWqfhrXrZJdltoO-YxMLVKoLFU7JAgfUmKaps-ty0xsHYntBgjpB5k1tQHy5EOELIH5ngZ6V3P5Jlc1TZsI4QRrV1FnC5r3z13IdHu7vJ7MW8-fifCMo_MJ6dQ7DKfQBvHuYsMIIJeIVB2o0pb5KWAaail0gMjtzLoNkrWUDqb5alQWAdfpApouOgT4KgJ9ysChPGwZt6JpmfpIl1FNia1tXEyjgCAw0x5y2__7jNJPqEGMzzeUgm0hE2wovrIVrHRHS05edqbIq6zEWHBDqZgGbdLvj4wI_2N0yBidxyCh4mrdYNagL1_wOjxud3111yv6uoNOlw0hJVghJARVcFL1nn0gFqhlTXWXbgmU7T1xkD9M-soejMpcSQh-hwAOF59jqNDM9C_rG8StnzexHRfOlKSYjEfzA9b8avB26L7gT_9KIQJk_lryrqG5FdOJJOcjh6JsFBpYW1anYCXAanM0dqbg7GVAIanLFCd-2li87qTx2vmok_k6VWg9NkrN1ru5zj8pYI-ztiwlCXhbJnxDnOYc-KRfKQbglKbFNjkt5jBDQYyKOQi1Le9TiSnNiRUmDnAzLkWdRyrzsRkp5p5jel4Kxt05nhuRcabRlR0mKA6o2-QaFcIqbuB9HHSyw4PcF_B8Nd8IBJd47xpxCBLkvmfBGHsIuaapVD82oOVzcUjk8ktjtrdYYD7yi_47ydFnFtTZoSITmtdQF4DYQ8fT43gmPB7Eo_bOF9bM3ayrRFwSgeNSxBoGs3HbU9R0SlxCmh8ZQT8VRCr6pWXyvpA1GJgUThNrQvs0D-V4hECmjuPn0tTEbWEKlJ23s_gMyCZax6ojd_1ofIxrnuhz5bBsHYo28jAJiTsVuTH0Q3qAx8NMLUi5XEY878TBwRKq2WmMwKJim278ZZO-5hMcthkc-Rx_6BeFEoeowzF-yr80ppWNJIvi-NMywzM7E2uu0zgqXdB2hcZO6k3XAG-zLzVLBXvD_ojTazu0fU7CTzJUGAr2ME0vJaH2txnS3sK6QI19--fPH-7_env__vf7n3_88MuvsGFT3N4-849f-HMf3v_x928__fv9Ozjh09tpcMK--w8AAP__.h_nocUCgOHiswZ5jR7q6fLpVpO_NtPZkijrcX4yuxxDIGNWWzT67sL3quHkZ9yHFt-5nG9eLmYf_FqIh4id22g'}"}], "start": 1604305789902, "stop": 1604305789903}, {"name": "响应日志", "status": "passed", "parameters": [{"name": "status_code", "value": "200"}, {"name": "body", "value": "'{\"msg\":\"success\",\"code\":0}'"}], "start": 1604305790255, "stop": 1604305790255}], "parameters": [{"name": "captcha", "value": "'228915'"}, {"name": "mobile", "value": "18821768014"}], "start": 1604305789902, "stop": 1604305790255}], "parameters": [{"name": "first_ad_action", "value": "<action.merchant.Merchant object at 0x0000020C862BEA90>"}, {"name": "admin_action", "value": "<action.otc_admin.OtcAdmin object at 0x0000020C8631AF28>"}], "start": 1604305784105, "stop": 1604305790255}], "start": 1604305784105, "stop": 1604305790255, "uuid": "da8fdac5-6bd2-437b-bd62-3fd999013dc4", "historyId": "305b7f2012b095ee791988d5d5a29a46", "testCaseId": "b99f82a8b6e45f9a09d3e405035b9ae8", "fullName": "case.qiantai_duo_jiekou.01_yangshi.test_03zhaohuimima.Test#test_denglu", "labels": [{"name": "feature", "value": "找回密码"}, {"name": "parentSuite", "value": "case.qiantai_duo_jiekou.01_yangshi"}, {"name": "suite", "value": "test_03zhaohuimima"}, {"name": "subSuite", "value": "Test"}, {"name": "host", "value": "ITSK-20200916WO"}, {"name": "thread", "value": "34268-MainThread"}, {"name": "framework", "value": "pytest"}, {"name": "language", "value": "cpython3"}, {"name": "package", "value": "case.qiantai_duo_jiekou.01_yangshi.test_03zhaohuimima"}]}