{"name": "找回密码", "status": "passed", "steps": [{"name": "找回密码", "status": "passed", "steps": [{"name": "获取短信验证码", "status": "passed", "steps": [{"name": "请求日志", "status": "passed", "parameters": [{"name": "url", "value": "'https://shendu-dev1.sdpjw.cn/notify/api/v1/memsms/list?platform=zhengshi&time=1604123316932'"}, {"name": "method", "value": "'post'"}, {"name": "body", "value": "{'nojson': 'true', 'mobile': 18821768014, 'page': 1}"}, {"name": "header", "value": "{'Content-Type': 'application/json', 'sd_origin': 'shendu-dev1.sdpjw.cn', 'token': 'eyJhbGciOiJIUzUxMiIsInppcCI6IkRFRiJ9.eNqMWDlzJDUU_i8Tj6md9UlnuwaqqHKxLryQayTNjGy11Ktj1g1FREFGFWQEJJBAtCEB_2cx_AuejpbU6h6bxO7W8Y7vfe_o-Xpxa9iiWaxO0bMTckGOzs_OTo9OPjyhRxcYnx-Rk9XqjDyn5PiULJYLbdfuMDwxrYcnZBbN6uzZyer58fHqfLmg911YOH9-sXILSnI6nO6oat2zxo3GWKqusR1Bhi6x1Ua2VDUtbd06smYnFfsKVjjTZql73eBWYym7vIAwXnOE79xCo9G-FIMM3oEsq-El6shK_VmpCOytGedEoY1p2v4lPI8s8bezfik2bBsuu3c4oFs92R-0wQqhnYE_nMZ32XGKtpaGO4_4zMRGjnwuF9ZIiPIMUhR5Fzq7BsG7uIMHuYpyZJgUpeXCNhrswsFyjXeUWE4H22toFL2Fo5dIYMqXEGCpAC4pzI73ENGNVK3b0gbUaMOw9vdRa2pBXG4zXAmM5Ahh2Mx5OkHLx0VRTc31WxKVRLO8niuvg21Fc0sIU2B7VuvoWMZow4SiGytIg71_10hrv-GVVKyKqpONHshCmH-PAZ_cGohA1Z5hOiwvmdhL9z42dUQOb1gMortTpkTEaC6PRtee2E_c8JyN3IiYCikwnNqDgGvUXw3KiTV9hWvBqcCxGj6k8I7tqT7EtLB8A0yyehkiYIFizSBjXth8lJAlrOK3sqJM1SI1AUmkgLucrpW8y4BmAyE28FKwVbaIiWZLTVqq-A054LDdwYpU_TSuWyVtkdoe-YJMHVKoLlU7JAgfUmKapi-cy0xsPYndBgjpB5kb6gIUyIcIWQLzAw30bsPl21LVNG0ShBOsfUWdLWjBP3-h0B3sCnoKbwN_JsILjs4npFfvMZxCG8X7iy0jgFwmUrOnSjvm54BpqKXQARK3C-vWSG6k9DDNV6O6CPhOF9H00SHAVxHpUwcOlWEruJVMK9QnuoxqSmpt42KaBESBhfaY2-HfJ5R-RA1ifL6hVGyLmeBC8YWrYLU7WnLyypoqr4oS48CNpWIatEm_PzAi_I_RoWB0GYOMiq91g1mDvnIh6Ai43ffNfa_oGwudrhhCarBiSAhq4KTqA_tALFDLmeov3RIo23fEQ_446Rt3MCnzJSH6HQM4XHyBoUIz07_a3CDu_LxJ7bhypibFZDyaH7DmV6O3Q_cFf_rXChEg85eS25aWVkwnkpKPHIqyUWhgbV2dopUAq8vR1Jmis5cRhayuUJz56WLxxkoTtPNRJwt1qtJ6aJSarXdznX9SwJ5mbV1KMvCuTISGOM058Em_VgzAqU1LbXJazGGGghhVcxDqOt7nElObkypMGuBmXEo6D1TmQzNSyj3P9LIUjLtzOjci40yjqztMVBxRd8k1KoRN2sB3adApDg9yX8Lz1XwjEFziO9-IY5Ag9wMLxthDyDXNpfqpAa2ci2Mi118as73FAfNBWAzfSZ4-s6DODhWF0LKG-gCkHjqeHscz4eEgHrR3vrAW7hZdJeGSCZyWEtYwmI3bnqLGKnEJaX5gBP1YEKno547Jd5WswcCscJpYE9rneajEIwYyd5wwl-Ym7gpTpOy8ndVnQDHRelYduBtG40NcC0SfK4d161C0lftJSPypxI2hH9I9PO5nakHO5TriZSeODtZQzU5jBBYVW9vxl03-ms9wuGZw4HP8sV8UahySDs_4Kf_ymFY3kiKK40_LAs_iTKq5XuOodEHbFRp7qTe2Bd4WX2qOCu6G-xGn125o-5TEn2SoMBTsYZpeSkLdbzOku4V1gVr39s-f3z389fvDu18ffvz-_U8_w4ZLcXf7ODx-Fs69f_fb37_88O-3f8CJkN5egxf2zX8AAAD__w.fFpraIWcOLneMQxuC4bDH8BmvX00PgAF45V4tuQEFy7EOvYv-KMBP_4jVU787bmyfPgBn4boQu1XIS4UQX3qPQ'}"}], "start": 1604123316932, "stop": 1604123316932}, {"name": "响应日志", "status": "passed", "parameters": [{"name": "status_code", "value": "200"}, {"name": "body", "value": "'{\"msg\":\"success\",\"code\":0,\"page\":{\"totalCount\":12570,\"pageSize\":10,\"totalPage\":1257,\"currPage\":1,\"list\":[{\"id\":12754,\"mobile\":\"18600008888\",\"content\":\"SMS_148545070:{\\\"code\\\":\\\"172170\\\"}\",\"createDate\":\"2020-10-31 13:46\",\"createBy\":null},{\"id\":12753,\"mobile\":\"18821768014\",\"content\":\"SMS_148545070:{\\\"code\\\":\\\"788005\\\"}\",\"createDate\":\"2020-10-31 13:46\",\"createBy\":null},{\"id\":12752,\"mobile\":\"15093098152\",\"content\":\"SMS_148545070:{\\\"code\\\":\\\"058731\\\"}\",\"createDate\":\"2020-10-31 13:41\",\"createBy\":null},{\"id\":12751,\"mobile\":\"18821768014\",\"content\":\"SMS_148545070:{\\\"code\\\":\\\"297419\\\"}\",\"createDate\":\"2020-10-31 13:41\",\"createBy\":null},{\"id\":12750,\"mobile\":\"18608000111\",\"content\":\"SMS_148545070:{\\\"code\\\":\\\"168296\\\"}\",\"createDate\":\"2020-10-31 13:32\",\"createBy\":null},{\"id\":12749,\"mobile\":\"18821768014\",\"content\":\"SMS_148545070:{\\\"code\\\":\\\"607652\\\"}\",\"createDate\":\"2020-10-31 13:30\",\"createBy\":null},{\"id\":12748,\"mobile\":\"18600000011\",\"content\":\"SMS_148545070:{\\\"code\\\":\\\"815976\\\"}\",\"createDate\":\"2020-10-31 13:25\",\"createBy\":null},{\"id\":12747,\"mobile\":\"15093098153\",\"content\":\"SMS_148545070:{\\\"code\\\":\\\"659829\\\"}\",\"createDate\":\"2020-10-31 13:22\",\"createBy\":null},{\"id\":12746,\"mobile\":\"18105498870\",\"content\":\"SMS_148592322:{\\\"code\\\":\\\"934413\\\"}\",\"createDate\":\"2020-10-31 11:50\",\"createBy\":null},{\"id\":12745,\"mobile\":\"17600000011\",\"content\":\"SMS_148592322:{\\\"code\\\":\\\"490284\\\"}\",\"createDate\":\"2020-10-31 11:50\",\"createBy\":null}]}}'"}], "start": 1604123317162, "stop": 1604123317162}], "parameters": [{"name": "mobile", "value": "18821768014"}], "start": 1604123316932, "stop": 1604123317162}, {"name": "前台-找回密码", "status": "passed", "steps": [{"name": "请求日志", "status": "passed", "parameters": [{"name": "url", "value": "'https://shendu-dev1.sdpjw.cn/user/noauth/api/v1/register?platform=zhengshi&time=1604123317163'"}, {"name": "method", "value": "'post'"}, {"name": "body", "value": "{'captcha': '172170', 'channel': 1, 'inviteCode': 123456, 'mobile': 18821768014, 'name': '', 'password': 123456, 'rePassword': 123456}"}, {"name": "header", "value": "{'Content-Type': 'application/json', 'sd_origin': 'shendu-dev1.sdpjw.cn', 'token': 'eyJhbGciOiJIUzUxMiIsInppcCI6IkRFRiJ9.eNqMWDlzJDUU_i8Tj6md9UlnuwaqqHKxLryQayTNjGy11Ktj1g1FREFGFWQEJJBAtCEB_2cx_AuejpbU6h6bxO7W8Y7vfe_o-Xpxa9iiWaxO0bMTckGOzs_OTo9OPjyhRxcYnx-Rk9XqjDyn5PiULJYLbdfuMDwxrYcnZBbN6uzZyer58fHqfLmg911YOH9-sXILSnI6nO6oat2zxo3GWKqusR1Bhi6x1Ua2VDUtbd06smYnFfsKVjjTZql73eBWYym7vIAwXnOE79xCo9G-FIMM3oEsq-El6shK_VmpCOytGedEoY1p2v4lPI8s8bezfik2bBsuu3c4oFs92R-0wQqhnYE_nMZ32XGKtpaGO4_4zMRGjnwuF9ZIiPIMUhR5Fzq7BsG7uIMHuYpyZJgUpeXCNhrswsFyjXeUWE4H22toFL2Fo5dIYMqXEGCpAC4pzI73ENGNVK3b0gbUaMOw9vdRa2pBXG4zXAmM5Ahh2Mx5OkHLx0VRTc31WxKVRLO8niuvg21Fc0sIU2B7VuvoWMZow4SiGytIg71_10hrv-GVVKyKqpONHshCmH-PAZ_cGohA1Z5hOiwvmdhL9z42dUQOb1gMortTpkTEaC6PRtee2E_c8JyN3IiYCikwnNqDgGvUXw3KiTV9hWvBqcCxGj6k8I7tqT7EtLB8A0yyehkiYIFizSBjXth8lJAlrOK3sqJM1SI1AUmkgLucrpW8y4BmAyE28FKwVbaIiWZLTVqq-A054LDdwYpU_TSuWyVtkdoe-YJMHVKoLlU7JAgfUmKapi-cy0xsPYndBgjpB5kb6gIUyIcIWQLzAw30bsPl21LVNG0ShBOsfUWdLWjBP3-h0B3sCnoKbwN_JsILjs4npFfvMZxCG8X7iy0jgFwmUrOnSjvm54BpqKXQARK3C-vWSG6k9DDNV6O6CPhOF9H00SHAVxHpUwcOlWEruJVMK9QnuoxqSmpt42KaBESBhfaY2-HfJ5R-RA1ifL6hVGyLmeBC8YWrYLU7WnLyypoqr4oS48CNpWIatEm_PzAi_I_RoWB0GYOMiq91g1mDvnIh6Ai43ffNfa_oGwudrhhCarBiSAhq4KTqA_tALFDLmeov3RIo23fEQ_446Rt3MCnzJSH6HQM4XHyBoUIz07_a3CDu_LxJ7bhypibFZDyaH7DmV6O3Q_cFf_rXChEg85eS25aWVkwnkpKPHIqyUWhgbV2dopUAq8vR1Jmis5cRhayuUJz56WLxxkoTtPNRJwt1qtJ6aJSarXdznX9SwJ5mbV1KMvCuTISGOM058Em_VgzAqU1LbXJazGGGghhVcxDqOt7nElObkypMGuBmXEo6D1TmQzNSyj3P9LIUjLtzOjci40yjqztMVBxRd8k1KoRN2sB3adApDg9yX8Lz1XwjEFziO9-IY5Ag9wMLxthDyDXNpfqpAa2ci2Mi118as73FAfNBWAzfSZ4-s6DODhWF0LKG-gCkHjqeHscz4eEgHrR3vrAW7hZdJeGSCZyWEtYwmI3bnqLGKnEJaX5gBP1YEKno547Jd5WswcCscJpYE9rneajEIwYyd5wwl-Ym7gpTpOy8ndVnQDHRelYduBtG40NcC0SfK4d161C0lftJSPypxI2hH9I9PO5nakHO5TriZSeODtZQzU5jBBYVW9vxl03-ms9wuGZw4HP8sV8UahySDs_4Kf_ymFY3kiKK40_LAs_iTKq5XuOodEHbFRp7qTe2Bd4WX2qOCu6G-xGn125o-5TEn2SoMBTsYZpeSkLdbzOku4V1gVr39s-f3z389fvDu18ffvz-_U8_w4ZLcXf7ODx-Fs69f_fb37_88O-3f8CJkN5egxf2zX8AAAD__w.fFpraIWcOLneMQxuC4bDH8BmvX00PgAF45V4tuQEFy7EOvYv-KMBP_4jVU787bmyfPgBn4boQu1XIS4UQX3qPQ'}"}], "start": 1604123317163, "stop": 1604123317163}, {"name": "响应日志", "status": "passed", "parameters": [{"name": "status_code", "value": "200"}, {"name": "body", "value": "'{\"msg\":\"验证码已失效，请重新发送\",\"code\":512}'"}], "start": 1604123317390, "stop": 1604123317390}], "parameters": [{"name": "captcha", "value": "'172170'"}, {"name": "mobile", "value": "18821768014"}], "start": 1604123317163, "stop": 1604123317390}], "parameters": [{"name": "first_ad_action", "value": "<action.merchant.Merchant object at 0x000001F5DC0E55F8>"}, {"name": "admin_action", "value": "<action.otc_admin.OtcAdmin object at 0x000001F5DC0E3AC8>"}], "start": 1604123316932, "stop": 1604123317390}], "start": 1604123316932, "stop": 1604123317390, "uuid": "e5974a16-4242-4716-8cf3-8c3c75e073d6", "historyId": "305b7f2012b095ee791988d5d5a29a46", "testCaseId": "b99f82a8b6e45f9a09d3e405035b9ae8", "fullName": "case.qiantai_duo_jiekou.01_yangshi.test_03zhaohuimima.Test#test_denglu", "labels": [{"name": "feature", "value": "找回密码"}, {"name": "parentSuite", "value": "case.qiantai_duo_jiekou.01_yangshi"}, {"name": "suite", "value": "test_03zhaohuimima"}, {"name": "subSuite", "value": "Test"}, {"name": "host", "value": "ITSK-20200916WO"}, {"name": "thread", "value": "8044-MainThread"}, {"name": "framework", "value": "pytest"}, {"name": "language", "value": "cpython3"}, {"name": "package", "value": "case.qiantai_duo_jiekou.01_yangshi.test_03zhaohuimima"}]}