{"name": "找回密码", "status": "passed", "steps": [{"name": "找回密码", "status": "passed", "steps": [{"name": "前台-找回密码—发送验证码", "status": "passed", "steps": [{"name": "请求日志", "status": "passed", "parameters": [{"name": "url", "value": "'https://shendu-dev1.sdpjw.cn/user/noauth/api/v1/retrPwdGetTelCaptcha?platform=zhengshi&time=1604306738265'"}, {"name": "method", "value": "'post'"}, {"name": "body", "value": "{'messageType': 0, 'mobile': 18821768014}"}, {"name": "header", "value": "{'Content-Type': 'application/json', 'sd_origin': 'shendu-dev1.sdpjw.cn'}"}], "start": 1604306738265, "stop": 1604306738265}, {"name": "响应日志", "status": "passed", "parameters": [{"name": "status_code", "value": "200"}, {"name": "body", "value": "'{\"msg\":\"success\",\"code\":0}'"}], "start": 1604306738504, "stop": 1604306738504}], "parameters": [{"name": "mobile", "value": "18821768014"}], "start": 1604306738265, "stop": 1604306738504}, {"name": "获取短信验证码", "status": "passed", "steps": [{"name": "请求日志", "status": "passed", "parameters": [{"name": "url", "value": "'https://shendu-dev1.sdpjw.cn/notify/api/v1/memsms/list?platform=zhengshi&time=1604306740504&nojson=true&mobile=18821768014&page=1'"}, {"name": "method", "value": "'get'"}, {"name": "body", "value": "{}"}, {"name": "header", "value": "{'Content-Type': 'application/json', 'sd_origin': 'shendu-dev1.sdpjw.cn', 'token': 'eyJhbGciOiJIUzUxMiIsInppcCI6IkRFRiJ9.eNqMWLtyJDUU_ZeJx5SnPDbrznYNVFHlYl14IddI6hl5uqVePWbdUEQUZFRBRkACCRttuAH_sxj-gqtHS2p1j01id-txH-ee--j5dnGn2aJanK8pQpfr-uTskq5P1vVmffLskmzg6Xx1eYpXNT2_WCwXymzg8AqemFLDE9KLanVxuj47vfj47NlyQe87v3C5Wp3bBSkaOpzuqGzts8KVwljIrjIdQZousVFatFRWLW3tOjJ6JyT7BlYapvRS9arCrcJCdGkBYbxpEN7bhUqhQy4GabwDWUbBS9CRlLqzQhLY27CmIRLVumr7F_A8ssTdTvoFr9nWX7bvcEC1arI_aIMVQjsNfxoa3kXXULQ11N95xGfGazHyOV_YIM7zM0hS5FzozAYE78IOHuRK2iDNBM8t56ZSYBf2liu8o8Q0dLC9hEbSOzh6hTimzRICLCTAJbjeNT1EtBaytVtKgxqlGVbuPmp1KagR2wRXBCM6QhjWc55O0HJxkVRRffOGBCXBLKfn2ulgW17dEcIk2J7UWjrmMaoZl7Q2nFTY-XeDlHIbTknBqqA62uiAzIS59xDwya2BCFQeGKbD8pLxg7DvY1NH5HCGhSDaO3lKBIzm8mh07Yn9yA3H2cCNgCkXHMOpAwi4Qf31oJwY3Re4ZpzyHCvhQxLv2IGqY0zzy7fAJKOWPgIGKFYNMuaFzUcJGcIKfkvD81TNUhOQRBK429CNFPsEaDIQYgMvGVtFixivtlTHpYLfkAMW2x2sCNlP47qVwmSp7ZDPyNQhicpStUOcNENKTNP0uXWZ8a0jsd0AIf0gs6Y2QJ58iJAlMN_TQO3qRrzJVU3TJkI4wdpV1NmC5v1zFzLd3i6vJ_PW82ciPOPofEI69Q7DKbRBvLvYMgLIJSJVByqVZX4KmIJaCh0gcjuzboNELYSDab4alUXAdbqAposOAb7yQJ8ycCgPW8ataFqmPtJlVFNiaxsX0yggCMy0h9z2_z6j9BOqEWvmG0rBtpAJNhRf2QpWuqNEQ14aXeRVVmIsuKFUTIM26fdHRoT_MTpkjM5jkFBxtW4wa9CXL3gdHrf7vrrvJX1toNNlQ0gJVggJQRWclL1nH4gFallT3aU7AmV7Txzkj5O-sgejMlcSgt8hgMPF5xgqNNP9y_oWNdbP29iOC2dKUkzGo_kBa341eDt0X_CnfyURATJ_LRrT0tyK6USS87GBoqwlGlhbVqdgJcBqczR2puDsVUAhqcsUJ37aWLw2QnvtzaiT-TpVaD02Ss3Wu7nOPylgT7O2LCUJeFsmfEOc5hz4pF5JBuCUpsU2OS3mMENBjIo5CHVd06cSU5oTK0wc4GZcijqPVOZjM1LMPcf0vBSMu3M8NyLjTKMrO0xQHFC3yTUqhFXcwPs46GSHB7kv4Pl6vhHwRuC9a8QhSJD7ngVj7CHkiqZS_dSAls_FIZHLL43Z3mKB-cgv-u8kR59ZUGeHikxoXkNdAGIPHU-P45nweBCP2jtfWDN3s64ScUkEjksRaxjMxm1PUm0kv4I0PzKCfsqJkPRLy-R9IWswMCmcJtaE9mkeyvEIgUwdx8-lqYnbwhQoO29n8RmQTbSOVUfu-tH4GNc80efKYdk6JG3FYRISdypyY-iH9ACPh5lakHK5jHjeiYODJVSz0xiBRck2Zvxlk77mExy2GRz5HH_sF4USh6jDMX7KvzSmlY0ki-L40zLDMzsTa67TOCpd0Ha5wk7qrWmBt9mXmqWCvWF_xOmVHdo-J-EnGco1BXuYoleCUPvbDOnuYJ2j1r798_6Hh7_-fHj3-8PPP3745VfYsClub5_5xy_8uQ_v_vj7t5_-_f4tnPDp7TQ4Yd_9BwAA__8.n2GGbid1CK5fnrGfLdbo3aw1nuEBSarVMlWuP4bVSODRBBLpcd0gCWvEvBiGf5_tkulA_dhVPH4NW7ozZef1yA'}"}], "start": 1604306740504, "stop": 1604306740504}, {"name": "响应日志", "status": "passed", "parameters": [{"name": "status_code", "value": "200"}, {"name": "body", "value": "'{\"msg\":\"success\",\"code\":0,\"page\":{\"totalCount\":16,\"pageSize\":10,\"totalPage\":2,\"currPage\":1,\"list\":[{\"id\":12791,\"mobile\":\"18821768014\",\"content\":\"SMS_148545070:{\\\"code\\\":\\\"811939\\\"}\",\"createDate\":\"2020-11-02 16:45\",\"createBy\":null},{\"id\":12785,\"mobile\":\"18821768014\",\"content\":\"SMS_148545070:{\\\"code\\\":\\\"228915\\\"}\",\"createDate\":\"2020-11-02 16:29\",\"createBy\":null},{\"id\":12773,\"mobile\":\"18821768014\",\"content\":\"SMS_148545070:{\\\"code\\\":\\\"411452\\\"}\",\"createDate\":\"2020-10-31 18:09\",\"createBy\":null},{\"id\":12772,\"mobile\":\"18821768014\",\"content\":\"SMS_148545070:{\\\"code\\\":\\\"686202\\\"}\",\"createDate\":\"2020-10-31 18:09\",\"createBy\":null},{\"id\":12771,\"mobile\":\"18821768014\",\"content\":\"SMS_148545070:{\\\"code\\\":\\\"732175\\\"}\",\"createDate\":\"2020-10-31 18:08\",\"createBy\":null},{\"id\":12761,\"mobile\":\"18821768014\",\"content\":\"SMS_148545070:{\\\"code\\\":\\\"661859\\\"}\",\"createDate\":\"2020-10-31 14:33\",\"createBy\":null},{\"id\":12760,\"mobile\":\"18821768014\",\"content\":\"SMS_148545070:{\\\"code\\\":\\\"767605\\\"}\",\"createDate\":\"2020-10-31 14:31\",\"createBy\":null},{\"id\":12759,\"mobile\":\"18821768014\",\"content\":\"SMS_148545070:{\\\"code\\\":\\\"748271\\\"}\",\"createDate\":\"2020-10-31 14:17\",\"createBy\":null},{\"id\":12758,\"mobile\":\"18821768014\",\"content\":\"SMS_148545070:{\\\"code\\\":\\\"611995\\\"}\",\"createDate\":\"2020-10-31 14:13\",\"createBy\":null},{\"id\":12756,\"mobile\":\"18821768014\",\"content\":\"SMS_148545070:{\\\"code\\\":\\\"165079\\\"}\",\"createDate\":\"2020-10-31 14:11\",\"createBy\":null}]}}'"}], "start": 1604306740717, "stop": 1604306740717}], "parameters": [{"name": "mobile", "value": "18821768014"}], "start": 1604306740504, "stop": 1604306740717}, {"name": "前台-找回密码", "status": "passed", "steps": [{"name": "请求日志", "status": "passed", "parameters": [{"name": "url", "value": "'https://shendu-dev1.sdpjw.cn/user/noauth/api/v1/retrPwdAndSetPwd?platform=zhengshi&time=1604306740717'"}, {"name": "method", "value": "'post'"}, {"name": "body", "value": "{'captcha': '811939', 'mobile': 18821768014, 'password': 123456, 'rePassword': 123456}"}, {"name": "header", "value": "{'Content-Type': 'application/json', 'sd_origin': 'shendu-dev1.sdpjw.cn', 'token': 'eyJhbGciOiJIUzUxMiIsInppcCI6IkRFRiJ9.eNqMWLtyJDUU_ZeJx5SnPDbrznYNVFHlYl14IddI6hl5uqVePWbdUEQUZFRBRkACCRttuAH_sxj-gqtHS2p1j01id-txH-ee--j5dnGn2aJanK8pQpfr-uTskq5P1vVmffLskmzg6Xx1eYpXNT2_WCwXymzg8AqemFLDE9KLanVxuj47vfj47NlyQe87v3C5Wp3bBSkaOpzuqGzts8KVwljIrjIdQZousVFatFRWLW3tOjJ6JyT7BlYapvRS9arCrcJCdGkBYbxpEN7bhUqhQy4GabwDWUbBS9CRlLqzQhLY27CmIRLVumr7F_A8ssTdTvoFr9nWX7bvcEC1arI_aIMVQjsNfxoa3kXXULQ11N95xGfGazHyOV_YIM7zM0hS5FzozAYE78IOHuRK2iDNBM8t56ZSYBf2liu8o8Q0dLC9hEbSOzh6hTimzRICLCTAJbjeNT1EtBaytVtKgxqlGVbuPmp1KagR2wRXBCM6QhjWc55O0HJxkVRRffOGBCXBLKfn2ulgW17dEcIk2J7UWjrmMaoZl7Q2nFTY-XeDlHIbTknBqqA62uiAzIS59xDwya2BCFQeGKbD8pLxg7DvY1NH5HCGhSDaO3lKBIzm8mh07Yn9yA3H2cCNgCkXHMOpAwi4Qf31oJwY3Re4ZpzyHCvhQxLv2IGqY0zzy7fAJKOWPgIGKFYNMuaFzUcJGcIKfkvD81TNUhOQRBK429CNFPsEaDIQYgMvGVtFixivtlTHpYLfkAMW2x2sCNlP47qVwmSp7ZDPyNQhicpStUOcNENKTNP0uXWZ8a0jsd0AIf0gs6Y2QJ58iJAlMN_TQO3qRrzJVU3TJkI4wdpV1NmC5v1zFzLd3i6vJ_PW82ciPOPofEI69Q7DKbRBvLvYMgLIJSJVByqVZX4KmIJaCh0gcjuzboNELYSDab4alUXAdbqAposOAb7yQJ8ycCgPW8ataFqmPtJlVFNiaxsX0yggCMy0h9z2_z6j9BOqEWvmG0rBtpAJNhRf2QpWuqNEQ14aXeRVVmIsuKFUTIM26fdHRoT_MTpkjM5jkFBxtW4wa9CXL3gdHrf7vrrvJX1toNNlQ0gJVggJQRWclL1nH4gFallT3aU7AmV7Txzkj5O-sgejMlcSgt8hgMPF5xgqNNP9y_oWNdbP29iOC2dKUkzGo_kBa341eDt0X_CnfyURATJ_LRrT0tyK6USS87GBoqwlGlhbVqdgJcBqczR2puDsVUAhqcsUJ37aWLw2QnvtzaiT-TpVaD02Ss3Wu7nOPylgT7O2LCUJeFsmfEOc5hz4pF5JBuCUpsU2OS3mMENBjIo5CHVd06cSU5oTK0wc4GZcijqPVOZjM1LMPcf0vBSMu3M8NyLjTKMrO0xQHFC3yTUqhFXcwPs46GSHB7kv4Pl6vhHwRuC9a8QhSJD7ngVj7CHkiqZS_dSAls_FIZHLL43Z3mKB-cgv-u8kR59ZUGeHikxoXkNdAGIPHU-P45nweBCP2jtfWDN3s64ScUkEjksRaxjMxm1PUm0kv4I0PzKCfsqJkPRLy-R9IWswMCmcJtaE9mkeyvEIgUwdx8-lqYnbwhQoO29n8RmQTbSOVUfu-tH4GNc80efKYdk6JG3FYRISdypyY-iH9ACPh5lakHK5jHjeiYODJVSz0xiBRck2Zvxlk77mExy2GRz5HH_sF4USh6jDMX7KvzSmlY0ki-L40zLDMzsTa67TOCpd0Ha5wk7qrWmBt9mXmqWCvWF_xOmVHdo-J-EnGco1BXuYoleCUPvbDOnuYJ2j1r798_6Hh7_-fHj3-8PPP3745VfYsClub5_5xy_8uQ_v_vj7t5_-_f4tnPDp7TQ4Yd_9BwAA__8.n2GGbid1CK5fnrGfLdbo3aw1nuEBSarVMlWuP4bVSODRBBLpcd0gCWvEvBiGf5_tkulA_dhVPH4NW7ozZef1yA'}"}], "start": 1604306740717, "stop": 1604306740717}, {"name": "响应日志", "status": "passed", "parameters": [{"name": "status_code", "value": "200"}, {"name": "body", "value": "'{\"msg\":\"success\",\"code\":0}'"}], "start": 1604306741233, "stop": 1604306741233}], "parameters": [{"name": "captcha", "value": "'811939'"}, {"name": "mobile", "value": "18821768014"}], "start": 1604306740717, "stop": 1604306741233}], "parameters": [{"name": "first_ad_action", "value": "<action.merchant.Merchant object at 0x000001B082C60E80>"}, {"name": "admin_action", "value": "<action.otc_admin.OtcAdmin object at 0x000001B081CDA550>"}], "start": 1604306738265, "stop": 1604306741233}], "start": 1604306738264, "stop": 1604306741233, "uuid": "5e4a7740-48a4-487b-817c-e1da1e259006", "historyId": "305b7f2012b095ee791988d5d5a29a46", "testCaseId": "b99f82a8b6e45f9a09d3e405035b9ae8", "fullName": "case.qiantai_duo_jiekou.01_yangshi.test_03zhaohuimima.Test#test_denglu", "labels": [{"name": "feature", "value": "找回密码"}, {"name": "parentSuite", "value": "case.qiantai_duo_jiekou.01_yangshi"}, {"name": "suite", "value": "test_03zhaohuimima"}, {"name": "subSuite", "value": "Test"}, {"name": "host", "value": "ITSK-20200916WO"}, {"name": "thread", "value": "39056-MainThread"}, {"name": "framework", "value": "pytest"}, {"name": "language", "value": "cpython3"}, {"name": "package", "value": "case.qiantai_duo_jiekou.01_yangshi.test_03zhaohuimima"}]}